ISO-10303-21;
HEADER;
/* Generated by software containing ST-Developer
 * from STEP Tools, Inc. (www.steptools.com) 
 */
/* OPTION: using custom schema-name function */

FILE_DESCRIPTION(
/* description */ (''),
/* implementation_level */ '2;1');

FILE_NAME(
/* name */ 'Collector Door Axis Mount v1.1.stp',
/* time_stamp */ '2021-05-13T18:38:33+02:00',
/* author */ (''),
/* organization */ (''),
/* preprocessor_version */ 'ST-DEVELOPER v16.7',
/* originating_system */ 'SIEMENS PLM Software NX 12.0',
/* authorisation */ '');

FILE_SCHEMA (('AP203_CONFIGURATION_CONTROLLED_3D_DESIGN_OF_MECHANICAL_PARTS_AND_ASSEMBLIES_MIM_LF { 1 0 10303 403 2 1 2}'));
ENDSEC;

DATA;
#10=SHAPE_REPRESENTATION_RELATIONSHIP('None',
'relationship between Collector Door Axis Mount v1.1-None and Collecto
r Door Axis Mount v1.1-None',#92,#11);
#11=ADVANCED_BREP_SHAPE_REPRESENTATION(
'Collector Door Axis Mount v1.1-None',(#102),#1050);
#12=CC_DESIGN_APPROVAL(#24,(#82));
#13=CC_DESIGN_APPROVAL(#25,(#84));
#14=CC_DESIGN_APPROVAL(#26,(#31));
#15=APPROVAL_PERSON_ORGANIZATION(#69,#24,#18);
#16=APPROVAL_PERSON_ORGANIZATION(#70,#25,#19);
#17=APPROVAL_PERSON_ORGANIZATION(#71,#26,#20);
#18=APPROVAL_ROLE('approver');
#19=APPROVAL_ROLE('approver');
#20=APPROVAL_ROLE('approver');
#21=APPROVAL_DATE_TIME(#39,#24);
#22=APPROVAL_DATE_TIME(#40,#25);
#23=APPROVAL_DATE_TIME(#41,#26);
#24=APPROVAL(#27,' ');
#25=APPROVAL(#28,' ');
#26=APPROVAL(#29,' ');
#27=APPROVAL_STATUS('not_yet_approved');
#28=APPROVAL_STATUS('not_yet_approved');
#29=APPROVAL_STATUS('not_yet_approved');
#30=CC_DESIGN_SECURITY_CLASSIFICATION(#31,(#84));
#31=SECURITY_CLASSIFICATION(' ',' ',#32);
#32=SECURITY_CLASSIFICATION_LEVEL('confidential');
#33=CC_DESIGN_DATE_AND_TIME_ASSIGNMENT(#37,#35,(#82));
#34=CC_DESIGN_DATE_AND_TIME_ASSIGNMENT(#38,#36,(#31));
#35=DATE_TIME_ROLE('creation_date');
#36=DATE_TIME_ROLE('classification_date');
#37=DATE_AND_TIME(#52,#42);
#38=DATE_AND_TIME(#53,#43);
#39=DATE_AND_TIME(#54,#44);
#40=DATE_AND_TIME(#55,#45);
#41=DATE_AND_TIME(#56,#46);
#42=LOCAL_TIME(0,0,0.,#47);
#43=LOCAL_TIME(0,0,0.,#48);
#44=LOCAL_TIME(0,0,0.,#49);
#45=LOCAL_TIME(0,0,0.,#50);
#46=LOCAL_TIME(0,0,0.,#51);
#47=COORDINATED_UNIVERSAL_TIME_OFFSET(0,0,.BEHIND.);
#48=COORDINATED_UNIVERSAL_TIME_OFFSET(0,0,.BEHIND.);
#49=COORDINATED_UNIVERSAL_TIME_OFFSET(0,0,.BEHIND.);
#50=COORDINATED_UNIVERSAL_TIME_OFFSET(0,0,.BEHIND.);
#51=COORDINATED_UNIVERSAL_TIME_OFFSET(0,0,.BEHIND.);
#52=CALENDAR_DATE(0,1,1);
#53=CALENDAR_DATE(0,1,1);
#54=CALENDAR_DATE(0,1,1);
#55=CALENDAR_DATE(0,1,1);
#56=CALENDAR_DATE(0,1,1);
#57=CC_DESIGN_PERSON_AND_ORGANIZATION_ASSIGNMENT(#65,#61,(#82,#84));
#58=CC_DESIGN_PERSON_AND_ORGANIZATION_ASSIGNMENT(#66,#62,(#86));
#59=CC_DESIGN_PERSON_AND_ORGANIZATION_ASSIGNMENT(#67,#63,(#84));
#60=CC_DESIGN_PERSON_AND_ORGANIZATION_ASSIGNMENT(#68,#64,(#31));
#61=PERSON_AND_ORGANIZATION_ROLE('creator');
#62=PERSON_AND_ORGANIZATION_ROLE('design_owner');
#63=PERSON_AND_ORGANIZATION_ROLE('design_supplier');
#64=PERSON_AND_ORGANIZATION_ROLE('classification_officer');
#65=PERSON_AND_ORGANIZATION(#79,#72);
#66=PERSON_AND_ORGANIZATION(#79,#73);
#67=PERSON_AND_ORGANIZATION(#79,#74);
#68=PERSON_AND_ORGANIZATION(#79,#75);
#69=PERSON_AND_ORGANIZATION(#79,#76);
#70=PERSON_AND_ORGANIZATION(#79,#77);
#71=PERSON_AND_ORGANIZATION(#79,#78);
#72=ORGANIZATION(' ',' ',' ');
#73=ORGANIZATION(' ',' ',' ');
#74=ORGANIZATION(' ',' ',' ');
#75=ORGANIZATION(' ',' ',' ');
#76=ORGANIZATION(' ',' ',' ');
#77=ORGANIZATION(' ',' ',' ');
#78=ORGANIZATION(' ',' ',' ');
#79=PERSON(' ',' ',' ',(' '),$,$);
#80=SHAPE_DEFINITION_REPRESENTATION(#81,#92);
#81=PRODUCT_DEFINITION_SHAPE('','',#82);
#82=PRODUCT_DEFINITION(' ','',#84,#83);
#83=DESIGN_CONTEXT('',#91,'design');
#84=PRODUCT_DEFINITION_FORMATION_WITH_SPECIFIED_SOURCE(' ',' ',#86,
 .NOT_KNOWN.);
#85=PRODUCT_RELATED_PRODUCT_CATEGORY('detail','',(#86));
#86=PRODUCT('Collector Door Axis Mount v1.1',
'Collector Door Axis Mount v1.1',' ',(#89));
#87=PRODUCT_CATEGORY('part',' ');
#88=PRODUCT_CATEGORY(' ','');
#89=MECHANICAL_CONTEXT(' ',#91,'mechanical');
#90=APPLICATION_PROTOCOL_DEFINITION('international standard',
'config_control_design',2010,#91);
#91=APPLICATION_CONTEXT(
'configuration controlled 3D designs of mechanical parts and assemblie
s');
#92=SHAPE_REPRESENTATION('Collector Door Axis Mount v1.1-None',(#663),#1050);
#93=PRESENTATION_LAYER_ASSIGNMENT('1','Layer 1',(#102));
#94=STYLED_ITEM('',(#95),#102);
#95=PRESENTATION_STYLE_ASSIGNMENT((#96));
#96=SURFACE_STYLE_USAGE(.BOTH.,#97);
#97=SURFACE_SIDE_STYLE('',(#98));
#98=SURFACE_STYLE_FILL_AREA(#99);
#99=FILL_AREA_STYLE('',(#100));
#100=FILL_AREA_STYLE_COLOUR('',#101);
#101=COLOUR_RGB('Medium Gray',0.490196078431373,0.490196078431373,0.490196078431373);
#102=MANIFOLD_SOLID_BREP('',#103);
#103=CLOSED_SHELL('',(#149,#150,#151,#152,#153,#154,#155,#156,#157,#158,
#159,#160,#161,#162,#163,#164,#165,#166,#167,#168,#169,#170,#171,#172,#173,
#174,#175,#176,#177,#178,#179,#180,#181,#182,#183));
#104=CONICAL_SURFACE('',#699,3.,45.);
#105=CONICAL_SURFACE('',#700,3.,45.);
#106=CONICAL_SURFACE('',#709,5.5,45.);
#107=CONICAL_SURFACE('',#710,5.5,45.);
#108=B_SPLINE_CURVE_WITH_KNOTS('',3,(#952,#953,#954,#955),.UNSPECIFIED.,
 .F.,.F.,(4,4),(0.,1.),.UNSPECIFIED.);
#109=B_SPLINE_CURVE_WITH_KNOTS('',3,(#960,#961,#962,#963),.UNSPECIFIED.,
 .F.,.F.,(4,4),(0.,1.),.UNSPECIFIED.);
#110=B_SPLINE_CURVE_WITH_KNOTS('',3,(#967,#968,#969,#970),.UNSPECIFIED.,
 .F.,.F.,(4,4),(0.,1.),.UNSPECIFIED.);
#111=B_SPLINE_CURVE_WITH_KNOTS('',3,(#971,#972,#973,#974),.UNSPECIFIED.,
 .F.,.F.,(4,4),(0.,1.),.UNSPECIFIED.);
#112=B_SPLINE_CURVE_WITH_KNOTS('',3,(#1001,#1002,#1003,#1004),
 .UNSPECIFIED.,.F.,.F.,(4,4),(0.,1.),.UNSPECIFIED.);
#113=B_SPLINE_CURVE_WITH_KNOTS('',3,(#1006,#1007,#1008,#1009),
 .UNSPECIFIED.,.F.,.F.,(4,4),(0.,1.),.UNSPECIFIED.);
#114=B_SPLINE_CURVE_WITH_KNOTS('',3,(#1016,#1017,#1018,#1019),
 .UNSPECIFIED.,.F.,.F.,(4,4),(0.,1.),.UNSPECIFIED.);
#115=B_SPLINE_CURVE_WITH_KNOTS('',3,(#1021,#1022,#1023,#1024),
 .UNSPECIFIED.,.F.,.F.,(4,4),(0.,1.),.UNSPECIFIED.);
#116=B_SPLINE_CURVE_WITH_KNOTS('',3,(#1041,#1042,#1043,#1044,#1045,#1046),
 .UNSPECIFIED.,.F.,.F.,(4,2,4),(0.,0.5,1.),.UNSPECIFIED.);
#117=CYLINDRICAL_SURFACE('',#681,2.);
#118=CYLINDRICAL_SURFACE('',#685,2.5);
#119=CYLINDRICAL_SURFACE('',#687,2.5);
#120=FACE_OUTER_BOUND('',#228,.T.);
#121=FACE_OUTER_BOUND('',#231,.T.);
#122=FACE_OUTER_BOUND('',#232,.T.);
#123=FACE_OUTER_BOUND('',#233,.T.);
#124=FACE_OUTER_BOUND('',#234,.T.);
#125=FACE_OUTER_BOUND('',#235,.T.);
#126=FACE_OUTER_BOUND('',#236,.T.);
#127=FACE_OUTER_BOUND('',#237,.T.);
#128=FACE_OUTER_BOUND('',#242,.T.);
#129=FACE_OUTER_BOUND('',#243,.T.);
#130=FACE_OUTER_BOUND('',#244,.T.);
#131=FACE_OUTER_BOUND('',#245,.T.);
#132=FACE_OUTER_BOUND('',#246,.T.);
#133=FACE_OUTER_BOUND('',#247,.T.);
#134=FACE_OUTER_BOUND('',#248,.T.);
#135=FACE_OUTER_BOUND('',#249,.T.);
#136=FACE_OUTER_BOUND('',#250,.T.);
#137=FACE_OUTER_BOUND('',#251,.T.);
#138=FACE_OUTER_BOUND('',#252,.T.);
#139=FACE_OUTER_BOUND('',#253,.T.);
#140=FACE_OUTER_BOUND('',#254,.T.);
#141=FACE_OUTER_BOUND('',#255,.T.);
#142=FACE_OUTER_BOUND('',#256,.T.);
#143=FACE_OUTER_BOUND('',#257,.T.);
#144=FACE_OUTER_BOUND('',#258,.T.);
#145=FACE_OUTER_BOUND('',#259,.T.);
#146=FACE_OUTER_BOUND('',#260,.T.);
#147=FACE_OUTER_BOUND('',#261,.T.);
#148=FACE_OUTER_BOUND('',#262,.T.);
#149=ADVANCED_FACE('',(#212,#213,#214),#184,.F.);
#150=ADVANCED_FACE('',(#120),#185,.F.);
#151=ADVANCED_FACE('',(#215,#216),#186,.F.);
#152=ADVANCED_FACE('',(#121),#187,.F.);
#153=ADVANCED_FACE('',(#122),#188,.F.);
#154=ADVANCED_FACE('',(#123),#189,.T.);
#155=ADVANCED_FACE('',(#124),#190,.F.);
#156=ADVANCED_FACE('',(#125),#117,.F.);
#157=ADVANCED_FACE('',(#126),#191,.F.);
#158=ADVANCED_FACE('',(#127),#192,.F.);
#159=ADVANCED_FACE('',(#217,#218),#118,.F.);
#160=ADVANCED_FACE('',(#219,#220),#119,.F.);
#161=ADVANCED_FACE('',(#128),#193,.T.);
#162=ADVANCED_FACE('',(#129),#194,.T.);
#163=ADVANCED_FACE('',(#130),#195,.T.);
#164=ADVANCED_FACE('',(#131),#196,.T.);
#165=ADVANCED_FACE('',(#132),#197,.T.);
#166=ADVANCED_FACE('',(#133),#198,.T.);
#167=ADVANCED_FACE('',(#134),#199,.T.);
#168=ADVANCED_FACE('',(#135),#200,.F.);
#169=ADVANCED_FACE('',(#136),#201,.F.);
#170=ADVANCED_FACE('',(#137),#202,.F.);
#171=ADVANCED_FACE('',(#138),#203,.F.);
#172=ADVANCED_FACE('',(#139),#104,.F.);
#173=ADVANCED_FACE('',(#140),#105,.F.);
#174=ADVANCED_FACE('',(#141),#204,.T.);
#175=ADVANCED_FACE('',(#142),#205,.F.);
#176=ADVANCED_FACE('',(#143),#206,.F.);
#177=ADVANCED_FACE('',(#144),#207,.F.);
#178=ADVANCED_FACE('',(#145),#208,.F.);
#179=ADVANCED_FACE('',(#146),#209,.T.);
#180=ADVANCED_FACE('',(#147),#210,.T.);
#181=ADVANCED_FACE('',(#148),#211,.F.);
#182=ADVANCED_FACE('',(#221,#222),#106,.F.);
#183=ADVANCED_FACE('',(#223,#224),#107,.F.);
#184=PLANE('',#667);
#185=PLANE('',#668);
#186=PLANE('',#674);
#187=PLANE('',#675);
#188=PLANE('',#676);
#189=PLANE('',#677);
#190=PLANE('',#678);
#191=PLANE('',#682);
#192=PLANE('',#683);
#193=PLANE('',#688);
#194=PLANE('',#689);
#195=PLANE('',#690);
#196=PLANE('',#691);
#197=PLANE('',#692);
#198=PLANE('',#693);
#199=PLANE('',#694);
#200=PLANE('',#695);
#201=PLANE('',#696);
#202=PLANE('',#697);
#203=PLANE('',#698);
#204=PLANE('',#701);
#205=PLANE('',#702);
#206=PLANE('',#703);
#207=PLANE('',#704);
#208=PLANE('',#705);
#209=PLANE('',#706);
#210=PLANE('',#707);
#211=PLANE('',#708);
#212=FACE_BOUND('',#225,.T.);
#213=FACE_BOUND('',#226,.T.);
#214=FACE_BOUND('',#227,.T.);
#215=FACE_BOUND('',#229,.T.);
#216=FACE_BOUND('',#230,.T.);
#217=FACE_BOUND('',#238,.T.);
#218=FACE_BOUND('',#239,.T.);
#219=FACE_BOUND('',#240,.T.);
#220=FACE_BOUND('',#241,.T.);
#221=FACE_BOUND('',#263,.T.);
#222=FACE_BOUND('',#264,.T.);
#223=FACE_BOUND('',#265,.T.);
#224=FACE_BOUND('',#266,.T.);
#225=EDGE_LOOP('',(#279,#280,#281,#282,#283,#284));
#226=EDGE_LOOP('',(#285));
#227=EDGE_LOOP('',(#286));
#228=EDGE_LOOP('',(#287,#288,#289,#290));
#229=EDGE_LOOP('',(#291,#292,#293,#294));
#230=EDGE_LOOP('',(#295,#296,#297,#298,#299,#300));
#231=EDGE_LOOP('',(#301,#302,#303,#304));
#232=EDGE_LOOP('',(#305,#306,#307,#308));
#233=EDGE_LOOP('',(#309,#310,#311,#312));
#234=EDGE_LOOP('',(#313,#314,#315,#316));
#235=EDGE_LOOP('',(#317,#318,#319,#320));
#236=EDGE_LOOP('',(#321,#322,#323,#324,#325,#326));
#237=EDGE_LOOP('',(#327,#328,#329,#330,#331,#332));
#238=EDGE_LOOP('',(#333));
#239=EDGE_LOOP('',(#334));
#240=EDGE_LOOP('',(#335));
#241=EDGE_LOOP('',(#336));
#242=EDGE_LOOP('',(#337,#338,#339,#340));
#243=EDGE_LOOP('',(#341,#342,#343,#344));
#244=EDGE_LOOP('',(#345,#346,#347,#348));
#245=EDGE_LOOP('',(#349,#350,#351,#352));
#246=EDGE_LOOP('',(#353,#354,#355));
#247=EDGE_LOOP('',(#356,#357,#358));
#248=EDGE_LOOP('',(#359,#360,#361));
#249=EDGE_LOOP('',(#362,#363,#364,#365,#366));
#250=EDGE_LOOP('',(#367,#368,#369,#370,#371));
#251=EDGE_LOOP('',(#372,#373,#374,#375));
#252=EDGE_LOOP('',(#376,#377,#378,#379));
#253=EDGE_LOOP('',(#380,#381,#382,#383,#384,#385));
#254=EDGE_LOOP('',(#386,#387,#388,#389,#390,#391));
#255=EDGE_LOOP('',(#392,#393,#394));
#256=EDGE_LOOP('',(#395,#396,#397,#398));
#257=EDGE_LOOP('',(#399,#400,#401,#402,#403));
#258=EDGE_LOOP('',(#404,#405,#406,#407,#408));
#259=EDGE_LOOP('',(#409,#410,#411,#412));
#260=EDGE_LOOP('',(#413,#414,#415));
#261=EDGE_LOOP('',(#416,#417,#418));
#262=EDGE_LOOP('',(#419,#420,#421,#422));
#263=EDGE_LOOP('',(#423));
#264=EDGE_LOOP('',(#424,#425,#426));
#265=EDGE_LOOP('',(#427));
#266=EDGE_LOOP('',(#428,#429,#430));
#267=CIRCLE('',#664,3.);
#268=CIRCLE('',#665,2.5);
#269=CIRCLE('',#666,2.5);
#270=CIRCLE('',#669,5.5);
#271=CIRCLE('',#670,5.5);
#272=CIRCLE('',#671,5.5);
#273=CIRCLE('',#672,5.5);
#274=CIRCLE('',#673,3.);
#275=CIRCLE('',#679,2.);
#276=CIRCLE('',#680,2.);
#277=CIRCLE('',#684,2.5);
#278=CIRCLE('',#686,2.5);
#279=ORIENTED_EDGE('',*,*,#477,.T.);
#280=ORIENTED_EDGE('',*,*,#478,.T.);
#281=ORIENTED_EDGE('',*,*,#479,.T.);
#282=ORIENTED_EDGE('',*,*,#480,.T.);
#283=ORIENTED_EDGE('',*,*,#481,.T.);
#284=ORIENTED_EDGE('',*,*,#482,.T.);
#285=ORIENTED_EDGE('',*,*,#483,.T.);
#286=ORIENTED_EDGE('',*,*,#484,.T.);
#287=ORIENTED_EDGE('',*,*,#485,.T.);
#288=ORIENTED_EDGE('',*,*,#486,.T.);
#289=ORIENTED_EDGE('',*,*,#487,.T.);
#290=ORIENTED_EDGE('',*,*,#488,.T.);
#291=ORIENTED_EDGE('',*,*,#489,.T.);
#292=ORIENTED_EDGE('',*,*,#490,.T.);
#293=ORIENTED_EDGE('',*,*,#491,.T.);
#294=ORIENTED_EDGE('',*,*,#492,.T.);
#295=ORIENTED_EDGE('',*,*,#493,.T.);
#296=ORIENTED_EDGE('',*,*,#494,.T.);
#297=ORIENTED_EDGE('',*,*,#495,.T.);
#298=ORIENTED_EDGE('',*,*,#496,.T.);
#299=ORIENTED_EDGE('',*,*,#497,.T.);
#300=ORIENTED_EDGE('',*,*,#498,.T.);
#301=ORIENTED_EDGE('',*,*,#499,.T.);
#302=ORIENTED_EDGE('',*,*,#500,.T.);
#303=ORIENTED_EDGE('',*,*,#477,.F.);
#304=ORIENTED_EDGE('',*,*,#501,.T.);
#305=ORIENTED_EDGE('',*,*,#502,.T.);
#306=ORIENTED_EDGE('',*,*,#503,.T.);
#307=ORIENTED_EDGE('',*,*,#504,.T.);
#308=ORIENTED_EDGE('',*,*,#505,.T.);
#309=ORIENTED_EDGE('',*,*,#506,.T.);
#310=ORIENTED_EDGE('',*,*,#507,.T.);
#311=ORIENTED_EDGE('',*,*,#508,.T.);
#312=ORIENTED_EDGE('',*,*,#509,.T.);
#313=ORIENTED_EDGE('',*,*,#510,.T.);
#314=ORIENTED_EDGE('',*,*,#511,.T.);
#315=ORIENTED_EDGE('',*,*,#512,.T.);
#316=ORIENTED_EDGE('',*,*,#513,.T.);
#317=ORIENTED_EDGE('',*,*,#514,.F.);
#318=ORIENTED_EDGE('',*,*,#515,.T.);
#319=ORIENTED_EDGE('',*,*,#516,.T.);
#320=ORIENTED_EDGE('',*,*,#517,.T.);
#321=ORIENTED_EDGE('',*,*,#518,.T.);
#322=ORIENTED_EDGE('',*,*,#519,.T.);
#323=ORIENTED_EDGE('',*,*,#485,.F.);
#324=ORIENTED_EDGE('',*,*,#520,.T.);
#325=ORIENTED_EDGE('',*,*,#521,.T.);
#326=ORIENTED_EDGE('',*,*,#516,.F.);
#327=ORIENTED_EDGE('',*,*,#504,.F.);
#328=ORIENTED_EDGE('',*,*,#522,.T.);
#329=ORIENTED_EDGE('',*,*,#523,.T.);
#330=ORIENTED_EDGE('',*,*,#514,.T.);
#331=ORIENTED_EDGE('',*,*,#524,.T.);
#332=ORIENTED_EDGE('',*,*,#525,.T.);
#333=ORIENTED_EDGE('',*,*,#526,.T.);
#334=ORIENTED_EDGE('',*,*,#484,.F.);
#335=ORIENTED_EDGE('',*,*,#527,.T.);
#336=ORIENTED_EDGE('',*,*,#483,.F.);
#337=ORIENTED_EDGE('',*,*,#528,.F.);
#338=ORIENTED_EDGE('',*,*,#506,.F.);
#339=ORIENTED_EDGE('',*,*,#529,.T.);
#340=ORIENTED_EDGE('',*,*,#482,.F.);
#341=ORIENTED_EDGE('',*,*,#530,.F.);
#342=ORIENTED_EDGE('',*,*,#507,.F.);
#343=ORIENTED_EDGE('',*,*,#531,.F.);
#344=ORIENTED_EDGE('',*,*,#502,.F.);
#345=ORIENTED_EDGE('',*,*,#532,.F.);
#346=ORIENTED_EDGE('',*,*,#508,.F.);
#347=ORIENTED_EDGE('',*,*,#533,.F.);
#348=ORIENTED_EDGE('',*,*,#493,.F.);
#349=ORIENTED_EDGE('',*,*,#529,.F.);
#350=ORIENTED_EDGE('',*,*,#509,.F.);
#351=ORIENTED_EDGE('',*,*,#534,.F.);
#352=ORIENTED_EDGE('',*,*,#501,.F.);
#353=ORIENTED_EDGE('',*,*,#531,.T.);
#354=ORIENTED_EDGE('',*,*,#528,.T.);
#355=ORIENTED_EDGE('',*,*,#535,.F.);
#356=ORIENTED_EDGE('',*,*,#533,.T.);
#357=ORIENTED_EDGE('',*,*,#530,.T.);
#358=ORIENTED_EDGE('',*,*,#536,.F.);
#359=ORIENTED_EDGE('',*,*,#534,.T.);
#360=ORIENTED_EDGE('',*,*,#532,.T.);
#361=ORIENTED_EDGE('',*,*,#537,.F.);
#362=ORIENTED_EDGE('',*,*,#535,.T.);
#363=ORIENTED_EDGE('',*,*,#481,.F.);
#364=ORIENTED_EDGE('',*,*,#538,.F.);
#365=ORIENTED_EDGE('',*,*,#522,.F.);
#366=ORIENTED_EDGE('',*,*,#503,.F.);
#367=ORIENTED_EDGE('',*,*,#505,.F.);
#368=ORIENTED_EDGE('',*,*,#525,.F.);
#369=ORIENTED_EDGE('',*,*,#539,.F.);
#370=ORIENTED_EDGE('',*,*,#494,.F.);
#371=ORIENTED_EDGE('',*,*,#536,.T.);
#372=ORIENTED_EDGE('',*,*,#537,.T.);
#373=ORIENTED_EDGE('',*,*,#498,.F.);
#374=ORIENTED_EDGE('',*,*,#540,.F.);
#375=ORIENTED_EDGE('',*,*,#499,.F.);
#376=ORIENTED_EDGE('',*,*,#541,.F.);
#377=ORIENTED_EDGE('',*,*,#500,.F.);
#378=ORIENTED_EDGE('',*,*,#542,.F.);
#379=ORIENTED_EDGE('',*,*,#513,.F.);
#380=ORIENTED_EDGE('',*,*,#538,.T.);
#381=ORIENTED_EDGE('',*,*,#480,.F.);
#382=ORIENTED_EDGE('',*,*,#543,.F.);
#383=ORIENTED_EDGE('',*,*,#518,.F.);
#384=ORIENTED_EDGE('',*,*,#515,.F.);
#385=ORIENTED_EDGE('',*,*,#523,.F.);
#386=ORIENTED_EDGE('',*,*,#517,.F.);
#387=ORIENTED_EDGE('',*,*,#521,.F.);
#388=ORIENTED_EDGE('',*,*,#544,.T.);
#389=ORIENTED_EDGE('',*,*,#495,.F.);
#390=ORIENTED_EDGE('',*,*,#539,.T.);
#391=ORIENTED_EDGE('',*,*,#524,.F.);
#392=ORIENTED_EDGE('',*,*,#542,.T.);
#393=ORIENTED_EDGE('',*,*,#540,.T.);
#394=ORIENTED_EDGE('',*,*,#545,.T.);
#395=ORIENTED_EDGE('',*,*,#541,.T.);
#396=ORIENTED_EDGE('',*,*,#512,.F.);
#397=ORIENTED_EDGE('',*,*,#546,.F.);
#398=ORIENTED_EDGE('',*,*,#478,.F.);
#399=ORIENTED_EDGE('',*,*,#543,.T.);
#400=ORIENTED_EDGE('',*,*,#479,.F.);
#401=ORIENTED_EDGE('',*,*,#547,.F.);
#402=ORIENTED_EDGE('',*,*,#486,.F.);
#403=ORIENTED_EDGE('',*,*,#519,.F.);
#404=ORIENTED_EDGE('',*,*,#520,.F.);
#405=ORIENTED_EDGE('',*,*,#488,.F.);
#406=ORIENTED_EDGE('',*,*,#548,.F.);
#407=ORIENTED_EDGE('',*,*,#496,.F.);
#408=ORIENTED_EDGE('',*,*,#544,.F.);
#409=ORIENTED_EDGE('',*,*,#545,.F.);
#410=ORIENTED_EDGE('',*,*,#497,.F.);
#411=ORIENTED_EDGE('',*,*,#549,.F.);
#412=ORIENTED_EDGE('',*,*,#510,.F.);
#413=ORIENTED_EDGE('',*,*,#547,.T.);
#414=ORIENTED_EDGE('',*,*,#546,.T.);
#415=ORIENTED_EDGE('',*,*,#550,.F.);
#416=ORIENTED_EDGE('',*,*,#549,.T.);
#417=ORIENTED_EDGE('',*,*,#548,.T.);
#418=ORIENTED_EDGE('',*,*,#551,.F.);
#419=ORIENTED_EDGE('',*,*,#550,.T.);
#420=ORIENTED_EDGE('',*,*,#511,.F.);
#421=ORIENTED_EDGE('',*,*,#551,.T.);
#422=ORIENTED_EDGE('',*,*,#487,.F.);
#423=ORIENTED_EDGE('',*,*,#527,.F.);
#424=ORIENTED_EDGE('',*,*,#552,.F.);
#425=ORIENTED_EDGE('',*,*,#489,.F.);
#426=ORIENTED_EDGE('',*,*,#492,.F.);
#427=ORIENTED_EDGE('',*,*,#526,.F.);
#428=ORIENTED_EDGE('',*,*,#490,.F.);
#429=ORIENTED_EDGE('',*,*,#552,.T.);
#430=ORIENTED_EDGE('',*,*,#491,.F.);
#431=VERTEX_POINT('',#864);
#432=VERTEX_POINT('',#865);
#433=VERTEX_POINT('',#867);
#434=VERTEX_POINT('',#869);
#435=VERTEX_POINT('',#871);
#436=VERTEX_POINT('',#873);
#437=VERTEX_POINT('',#876);
#438=VERTEX_POINT('',#878);
#439=VERTEX_POINT('',#881);
#440=VERTEX_POINT('',#882);
#441=VERTEX_POINT('',#884);
#442=VERTEX_POINT('',#886);
#443=VERTEX_POINT('',#890);
#444=VERTEX_POINT('',#891);
#445=VERTEX_POINT('',#893);
#446=VERTEX_POINT('',#895);
#447=VERTEX_POINT('',#898);
#448=VERTEX_POINT('',#899);
#449=VERTEX_POINT('',#901);
#450=VERTEX_POINT('',#903);
#451=VERTEX_POINT('',#905);
#452=VERTEX_POINT('',#907);
#453=VERTEX_POINT('',#911);
#454=VERTEX_POINT('',#912);
#455=VERTEX_POINT('',#917);
#456=VERTEX_POINT('',#918);
#457=VERTEX_POINT('',#920);
#458=VERTEX_POINT('',#922);
#459=VERTEX_POINT('',#926);
#460=VERTEX_POINT('',#927);
#461=VERTEX_POINT('',#929);
#462=VERTEX_POINT('',#931);
#463=VERTEX_POINT('',#935);
#464=VERTEX_POINT('',#936);
#465=VERTEX_POINT('',#938);
#466=VERTEX_POINT('',#940);
#467=VERTEX_POINT('',#944);
#468=VERTEX_POINT('',#945);
#469=VERTEX_POINT('',#947);
#470=VERTEX_POINT('',#949);
#471=VERTEX_POINT('',#956);
#472=VERTEX_POINT('',#959);
#473=VERTEX_POINT('',#966);
#474=VERTEX_POINT('',#975);
#475=VERTEX_POINT('',#979);
#476=VERTEX_POINT('',#982);
#477=EDGE_CURVE('',#431,#432,#553,.T.);
#478=EDGE_CURVE('',#432,#433,#554,.T.);
#479=EDGE_CURVE('',#433,#434,#555,.T.);
#480=EDGE_CURVE('',#434,#435,#267,.T.);
#481=EDGE_CURVE('',#435,#436,#556,.T.);
#482=EDGE_CURVE('',#436,#431,#557,.T.);
#483=EDGE_CURVE('',#437,#437,#268,.T.);
#484=EDGE_CURVE('',#438,#438,#269,.T.);
#485=EDGE_CURVE('',#439,#440,#558,.T.);
#486=EDGE_CURVE('',#440,#441,#559,.T.);
#487=EDGE_CURVE('',#441,#442,#560,.T.);
#488=EDGE_CURVE('',#442,#439,#561,.T.);
#489=EDGE_CURVE('',#443,#444,#270,.T.);
#490=EDGE_CURVE('',#444,#445,#271,.T.);
#491=EDGE_CURVE('',#445,#446,#272,.T.);
#492=EDGE_CURVE('',#446,#443,#273,.T.);
#493=EDGE_CURVE('',#447,#448,#562,.T.);
#494=EDGE_CURVE('',#448,#449,#563,.T.);
#495=EDGE_CURVE('',#449,#450,#274,.T.);
#496=EDGE_CURVE('',#450,#451,#564,.T.);
#497=EDGE_CURVE('',#451,#452,#565,.T.);
#498=EDGE_CURVE('',#452,#447,#566,.T.);
#499=EDGE_CURVE('',#453,#454,#567,.T.);
#500=EDGE_CURVE('',#454,#432,#568,.T.);
#501=EDGE_CURVE('',#431,#453,#569,.T.);
#502=EDGE_CURVE('',#455,#456,#570,.T.);
#503=EDGE_CURVE('',#456,#457,#571,.T.);
#504=EDGE_CURVE('',#457,#458,#572,.T.);
#505=EDGE_CURVE('',#458,#455,#573,.T.);
#506=EDGE_CURVE('',#459,#460,#574,.T.);
#507=EDGE_CURVE('',#460,#461,#575,.T.);
#508=EDGE_CURVE('',#461,#462,#576,.T.);
#509=EDGE_CURVE('',#462,#459,#577,.T.);
#510=EDGE_CURVE('',#463,#464,#578,.T.);
#511=EDGE_CURVE('',#464,#465,#579,.T.);
#512=EDGE_CURVE('',#465,#466,#580,.T.);
#513=EDGE_CURVE('',#466,#463,#581,.T.);
#514=EDGE_CURVE('',#467,#468,#582,.T.);
#515=EDGE_CURVE('',#467,#469,#275,.T.);
#516=EDGE_CURVE('',#469,#470,#583,.T.);
#517=EDGE_CURVE('',#470,#468,#276,.T.);
#518=EDGE_CURVE('',#469,#471,#108,.T.);
#519=EDGE_CURVE('',#471,#440,#584,.T.);
#520=EDGE_CURVE('',#439,#472,#585,.T.);
#521=EDGE_CURVE('',#472,#470,#109,.T.);
#522=EDGE_CURVE('',#457,#473,#586,.T.);
#523=EDGE_CURVE('',#473,#467,#110,.T.);
#524=EDGE_CURVE('',#468,#474,#111,.T.);
#525=EDGE_CURVE('',#474,#458,#587,.T.);
#526=EDGE_CURVE('',#475,#475,#277,.T.);
#527=EDGE_CURVE('',#476,#476,#278,.T.);
#528=EDGE_CURVE('',#460,#436,#588,.T.);
#529=EDGE_CURVE('',#459,#431,#589,.T.);
#530=EDGE_CURVE('',#461,#455,#590,.T.);
#531=EDGE_CURVE('',#456,#460,#591,.T.);
#532=EDGE_CURVE('',#462,#447,#592,.T.);
#533=EDGE_CURVE('',#448,#461,#593,.T.);
#534=EDGE_CURVE('',#453,#462,#594,.T.);
#535=EDGE_CURVE('',#456,#436,#595,.T.);
#536=EDGE_CURVE('',#448,#455,#596,.T.);
#537=EDGE_CURVE('',#453,#447,#597,.T.);
#538=EDGE_CURVE('',#473,#435,#112,.T.);
#539=EDGE_CURVE('',#449,#474,#113,.T.);
#540=EDGE_CURVE('',#454,#452,#598,.T.);
#541=EDGE_CURVE('',#432,#466,#599,.T.);
#542=EDGE_CURVE('',#463,#454,#600,.T.);
#543=EDGE_CURVE('',#471,#434,#114,.T.);
#544=EDGE_CURVE('',#472,#450,#115,.T.);
#545=EDGE_CURVE('',#452,#463,#601,.T.);
#546=EDGE_CURVE('',#433,#465,#602,.T.);
#547=EDGE_CURVE('',#441,#433,#603,.T.);
#548=EDGE_CURVE('',#451,#442,#604,.T.);
#549=EDGE_CURVE('',#464,#451,#605,.T.);
#550=EDGE_CURVE('',#441,#465,#606,.T.);
#551=EDGE_CURVE('',#464,#442,#607,.T.);
#552=EDGE_CURVE('',#444,#446,#116,.T.);
#553=LINE('',#863,#608);
#554=LINE('',#866,#609);
#555=LINE('',#868,#610);
#556=LINE('',#872,#611);
#557=LINE('',#874,#612);
#558=LINE('',#880,#613);
#559=LINE('',#883,#614);
#560=LINE('',#885,#615);
#561=LINE('',#887,#616);
#562=LINE('',#897,#617);
#563=LINE('',#900,#618);
#564=LINE('',#904,#619);
#565=LINE('',#906,#620);
#566=LINE('',#908,#621);
#567=LINE('',#910,#622);
#568=LINE('',#913,#623);
#569=LINE('',#914,#624);
#570=LINE('',#916,#625);
#571=LINE('',#919,#626);
#572=LINE('',#921,#627);
#573=LINE('',#923,#628);
#574=LINE('',#925,#629);
#575=LINE('',#928,#630);
#576=LINE('',#930,#631);
#577=LINE('',#932,#632);
#578=LINE('',#934,#633);
#579=LINE('',#937,#634);
#580=LINE('',#939,#635);
#581=LINE('',#941,#636);
#582=LINE('',#943,#637);
#583=LINE('',#948,#638);
#584=LINE('',#957,#639);
#585=LINE('',#958,#640);
#586=LINE('',#965,#641);
#587=LINE('',#976,#642);
#588=LINE('',#984,#643);
#589=LINE('',#985,#644);
#590=LINE('',#987,#645);
#591=LINE('',#988,#646);
#592=LINE('',#990,#647);
#593=LINE('',#991,#648);
#594=LINE('',#993,#649);
#595=LINE('',#995,#650);
#596=LINE('',#997,#651);
#597=LINE('',#999,#652);
#598=LINE('',#1011,#653);
#599=LINE('',#1013,#654);
#600=LINE('',#1014,#655);
#601=LINE('',#1026,#656);
#602=LINE('',#1028,#657);
#603=LINE('',#1030,#658);
#604=LINE('',#1032,#659);
#605=LINE('',#1034,#660);
#606=LINE('',#1036,#661);
#607=LINE('',#1038,#662);
#608=VECTOR('',#713,1.);
#609=VECTOR('',#714,1.);
#610=VECTOR('',#715,1.);
#611=VECTOR('',#718,1.);
#612=VECTOR('',#719,1.);
#613=VECTOR('',#726,1.);
#614=VECTOR('',#727,1.);
#615=VECTOR('',#728,1.);
#616=VECTOR('',#729,1.);
#617=VECTOR('',#740,1.);
#618=VECTOR('',#741,1.);
#619=VECTOR('',#744,1.);
#620=VECTOR('',#745,1.);
#621=VECTOR('',#746,1.);
#622=VECTOR('',#749,1.);
#623=VECTOR('',#750,1.);
#624=VECTOR('',#751,1.);
#625=VECTOR('',#754,1.);
#626=VECTOR('',#755,1.);
#627=VECTOR('',#756,1.);
#628=VECTOR('',#757,1.);
#629=VECTOR('',#760,1.);
#630=VECTOR('',#761,1.);
#631=VECTOR('',#762,1.);
#632=VECTOR('',#763,1.);
#633=VECTOR('',#766,1.);
#634=VECTOR('',#767,1.);
#635=VECTOR('',#768,1.);
#636=VECTOR('',#769,1.);
#637=VECTOR('',#772,1.);
#638=VECTOR('',#775,1.);
#639=VECTOR('',#780,1.);
#640=VECTOR('',#781,1.);
#641=VECTOR('',#784,1.);
#642=VECTOR('',#785,1.);
#643=VECTOR('',#796,1.);
#644=VECTOR('',#797,1.);
#645=VECTOR('',#800,1.);
#646=VECTOR('',#801,1.);
#647=VECTOR('',#804,1.);
#648=VECTOR('',#805,1.);
#649=VECTOR('',#808,1.);
#650=VECTOR('',#811,1.);
#651=VECTOR('',#814,1.);
#652=VECTOR('',#817,1.);
#653=VECTOR('',#824,1.);
#654=VECTOR('',#827,1.);
#655=VECTOR('',#828,1.);
#656=VECTOR('',#835,1.);
#657=VECTOR('',#838,1.);
#658=VECTOR('',#841,1.);
#659=VECTOR('',#844,1.);
#660=VECTOR('',#847,1.);
#661=VECTOR('',#850,1.);
#662=VECTOR('',#853,1.);
#663=AXIS2_PLACEMENT_3D('',#862,#711,#712);
#664=AXIS2_PLACEMENT_3D('',#870,#716,#717);
#665=AXIS2_PLACEMENT_3D('',#875,#720,#721);
#666=AXIS2_PLACEMENT_3D('',#877,#722,#723);
#667=AXIS2_PLACEMENT_3D('',#879,#724,#725);
#668=AXIS2_PLACEMENT_3D('',#888,#730,#731);
#669=AXIS2_PLACEMENT_3D('',#889,#732,#733);
#670=AXIS2_PLACEMENT_3D('',#892,#734,#735);
#671=AXIS2_PLACEMENT_3D('',#894,#736,#737);
#672=AXIS2_PLACEMENT_3D('',#896,#738,#739);
#673=AXIS2_PLACEMENT_3D('',#902,#742,#743);
#674=AXIS2_PLACEMENT_3D('',#909,#747,#748);
#675=AXIS2_PLACEMENT_3D('',#915,#752,#753);
#676=AXIS2_PLACEMENT_3D('',#924,#758,#759);
#677=AXIS2_PLACEMENT_3D('',#933,#764,#765);
#678=AXIS2_PLACEMENT_3D('',#942,#770,#771);
#679=AXIS2_PLACEMENT_3D('',#946,#773,#774);
#680=AXIS2_PLACEMENT_3D('',#950,#776,#777);
#681=AXIS2_PLACEMENT_3D('',#951,#778,#779);
#682=AXIS2_PLACEMENT_3D('',#964,#782,#783);
#683=AXIS2_PLACEMENT_3D('',#977,#786,#787);
#684=AXIS2_PLACEMENT_3D('',#978,#788,#789);
#685=AXIS2_PLACEMENT_3D('',#980,#790,#791);
#686=AXIS2_PLACEMENT_3D('',#981,#792,#793);
#687=AXIS2_PLACEMENT_3D('',#983,#794,#795);
#688=AXIS2_PLACEMENT_3D('',#986,#798,#799);
#689=AXIS2_PLACEMENT_3D('',#989,#802,#803);
#690=AXIS2_PLACEMENT_3D('',#992,#806,#807);
#691=AXIS2_PLACEMENT_3D('',#994,#809,#810);
#692=AXIS2_PLACEMENT_3D('',#996,#812,#813);
#693=AXIS2_PLACEMENT_3D('',#998,#815,#816);
#694=AXIS2_PLACEMENT_3D('',#1000,#818,#819);
#695=AXIS2_PLACEMENT_3D('',#1005,#820,#821);
#696=AXIS2_PLACEMENT_3D('',#1010,#822,#823);
#697=AXIS2_PLACEMENT_3D('',#1012,#825,#826);
#698=AXIS2_PLACEMENT_3D('',#1015,#829,#830);
#699=AXIS2_PLACEMENT_3D('',#1020,#831,#832);
#700=AXIS2_PLACEMENT_3D('',#1025,#833,#834);
#701=AXIS2_PLACEMENT_3D('',#1027,#836,#837);
#702=AXIS2_PLACEMENT_3D('',#1029,#839,#840);
#703=AXIS2_PLACEMENT_3D('',#1031,#842,#843);
#704=AXIS2_PLACEMENT_3D('',#1033,#845,#846);
#705=AXIS2_PLACEMENT_3D('',#1035,#848,#849);
#706=AXIS2_PLACEMENT_3D('',#1037,#851,#852);
#707=AXIS2_PLACEMENT_3D('',#1039,#854,#855);
#708=AXIS2_PLACEMENT_3D('',#1040,#856,#857);
#709=AXIS2_PLACEMENT_3D('',#1047,#858,#859);
#710=AXIS2_PLACEMENT_3D('',#1048,#860,#861);
#711=DIRECTION('',(0.,0.,1.));
#712=DIRECTION('',(1.,0.,0.));
#713=DIRECTION('',(0.,0.,-1.));
#714=DIRECTION('',(1.,7.65404249467096E-17,0.));
#715=DIRECTION('',(0.,0.,1.));
#716=DIRECTION('',(-7.65404249467096E-17,1.,0.));
#717=DIRECTION('',(-1.,-7.65404249467096E-17,0.));
#718=DIRECTION('',(0.,0.,1.));
#719=DIRECTION('',(-1.,-7.65404249467096E-17,0.));
#720=DIRECTION('',(0.,1.,0.));
#721=DIRECTION('',(1.,0.,0.));
#722=DIRECTION('',(0.,1.,0.));
#723=DIRECTION('',(1.,0.,0.));
#724=DIRECTION('',(-7.65404249467096E-17,1.,0.));
#725=DIRECTION('',(-1.,-7.65404249467096E-17,0.));
#726=DIRECTION('',(0.,-1.,0.));
#727=DIRECTION('',(0.,0.,-1.));
#728=DIRECTION('',(0.,1.,0.));
#729=DIRECTION('',(0.,0.,1.));
#730=DIRECTION('',(-1.,0.,0.));
#731=DIRECTION('',(0.,0.,1.));
#732=DIRECTION('',(-8.67361737988403E-17,-1.,0.));
#733=DIRECTION('',(1.,-1.5770213417971E-16,0.));
#734=DIRECTION('',(-8.67361737988403E-17,-1.,0.));
#735=DIRECTION('',(1.,-1.5770213417971E-16,0.));
#736=DIRECTION('',(-8.67361737988403E-17,-1.,0.));
#737=DIRECTION('',(1.,-1.5770213417971E-16,0.));
#738=DIRECTION('',(-8.67361737988403E-17,-1.,0.));
#739=DIRECTION('',(1.,-1.5770213417971E-16,0.));
#740=DIRECTION('',(1.,-8.67361737988403E-17,0.));
#741=DIRECTION('',(0.,0.,-1.));
#742=DIRECTION('',(-8.67361737988403E-17,-1.,0.));
#743=DIRECTION('',(1.,0.,0.));
#744=DIRECTION('',(0.,0.,-1.));
#745=DIRECTION('',(-1.,8.67361737988403E-17,0.));
#746=DIRECTION('',(0.,0.,1.));
#747=DIRECTION('',(-8.67361737988403E-17,-1.,0.));
#748=DIRECTION('',(1.,-8.67361737988404E-17,0.));
#749=DIRECTION('',(0.,0.,-1.));
#750=DIRECTION('',(0.,-1.,0.));
#751=DIRECTION('',(0.,1.,0.));
#752=DIRECTION('',(1.,0.,0.));
#753=DIRECTION('',(0.,0.,-1.));
#754=DIRECTION('',(0.,-1.,0.));
#755=DIRECTION('',(0.,0.,-1.));
#756=DIRECTION('',(0.,1.,0.));
#757=DIRECTION('',(0.,0.,1.));
#758=DIRECTION('',(-1.,0.,0.));
#759=DIRECTION('',(0.,0.,1.));
#760=DIRECTION('',(1.,7.65404249467096E-17,0.));
#761=DIRECTION('',(0.,1.,0.));
#762=DIRECTION('',(-1.,8.67361737988403E-17,0.));
#763=DIRECTION('',(0.,-1.,0.));
#764=DIRECTION('',(0.,0.,1.));
#765=DIRECTION('',(1.,0.,0.));
#766=DIRECTION('',(1.,-8.67361737988403E-17,0.));
#767=DIRECTION('',(0.,-1.,0.));
#768=DIRECTION('',(-1.,-7.65404249467096E-17,0.));
#769=DIRECTION('',(0.,1.,0.));
#770=DIRECTION('',(0.,0.,1.));
#771=DIRECTION('',(1.,0.,0.));
#772=DIRECTION('',(0.,1.,0.));
#773=DIRECTION('',(0.,-1.,0.));
#774=DIRECTION('',(0.,0.,1.));
#775=DIRECTION('',(0.,1.,0.));
#776=DIRECTION('',(0.,1.,0.));
#777=DIRECTION('',(0.,0.,-1.));
#778=DIRECTION('',(0.,-1.,0.));
#779=DIRECTION('',(0.,0.,-1.));
#780=DIRECTION('',(0.707106781186548,0.707106781186547,0.));
#781=DIRECTION('',(-0.707106781186548,0.707106781186547,0.));
#782=DIRECTION('',(0.,0.,-1.));
#783=DIRECTION('',(-1.,0.,0.));
#784=DIRECTION('',(-0.707106781186548,-0.707106781186547,0.));
#785=DIRECTION('',(0.707106781186548,-0.707106781186547,0.));
#786=DIRECTION('',(0.,0.,1.));
#787=DIRECTION('',(1.,0.,0.));
#788=DIRECTION('',(0.,1.,0.));
#789=DIRECTION('',(0.,0.,-1.));
#790=DIRECTION('',(0.,-1.,0.));
#791=DIRECTION('',(0.,0.,-1.));
#792=DIRECTION('',(0.,1.,0.));
#793=DIRECTION('',(0.,0.,-1.));
#794=DIRECTION('',(0.,-1.,0.));
#795=DIRECTION('',(0.,0.,-1.));
#796=DIRECTION('',(-9.61481343191782E-17,-0.707106781186547,-0.707106781186548));
#797=DIRECTION('',(-0.577350269189626,-0.577350269189626,-0.577350269189626));
#798=DIRECTION('',(5.41222535147184E-17,-0.707106781186548,0.707106781186547));
#799=DIRECTION('',(-1.,-7.65446733774766E-17,0.));
#800=DIRECTION('',(0.707106781186548,0.,-0.707106781186548));
#801=DIRECTION('',(-0.707106781186548,0.,0.707106781186548));
#802=DIRECTION('',(0.707106781186547,0.,0.707106781186547));
#803=DIRECTION('',(0.,-1.,0.));
#804=DIRECTION('',(7.00792515849876E-16,0.707106781186547,-0.707106781186548));
#805=DIRECTION('',(9.61481343191782E-17,-0.707106781186547,0.707106781186548));
#806=DIRECTION('',(6.1331736667335E-17,0.707106781186548,0.707106781186547));
#807=DIRECTION('',(1.,-8.67361737988404E-17,0.));
#808=DIRECTION('',(0.707106781186547,1.64540693022727E-16,0.707106781186548));
#809=DIRECTION('',(-0.707106781186548,0.,0.707106781186547));
#810=DIRECTION('',(0.,1.,0.));
#811=DIRECTION('',(-0.707106781186548,-0.707106781186547,-1.19609907444043E-16));
#812=DIRECTION('',(0.577350269189626,-0.577350269189626,0.577350269189626));
#813=DIRECTION('',(0.,-0.707106781186547,-0.707106781186548));
#814=DIRECTION('',(0.707106781186548,-0.707106781186547,1.19609907444043E-16));
#815=DIRECTION('',(0.577350269189626,0.577350269189626,0.577350269189626));
#816=DIRECTION('',(0.,-0.707106781186547,0.707106781186548));
#817=DIRECTION('',(0.707106781186548,0.707106781186547,-2.77555756156289E-17));
#818=DIRECTION('',(-0.577350269189626,0.577350269189626,0.577350269189625));
#819=DIRECTION('',(-0.707106781186548,-0.707106781186547,0.));
#820=DIRECTION('',(-0.707106781186547,0.707106781186548,0.));
#821=DIRECTION('',(0.,0.,-1.));
#822=DIRECTION('',(-0.707106781186547,-0.707106781186548,0.));
#823=DIRECTION('',(0.,0.,-1.));
#824=DIRECTION('',(0.707106781186548,0.707106781186547,1.83708663656829E-16));
#825=DIRECTION('',(0.707106781186547,-0.707106781186548,0.));
#826=DIRECTION('',(0.,0.,-1.));
#827=DIRECTION('',(0.577350269189626,0.577350269189626,-0.577350269189626));
#828=DIRECTION('',(-0.707106781186547,-1.92296268638356E-16,0.707106781186548));
#829=DIRECTION('',(0.707106781186548,0.,0.707106781186547));
#830=DIRECTION('',(0.,-1.,0.));
#831=DIRECTION('',(0.,-1.,0.));
#832=DIRECTION('',(0.,-1.72953487136272E-18,-1.));
#833=DIRECTION('',(0.,1.,0.));
#834=DIRECTION('',(0.,-1.06366394588807E-16,1.));
#835=DIRECTION('',(-8.65333208872604E-16,-0.707106781186547,-0.707106781186548));
#836=DIRECTION('',(-0.577350269189626,0.577350269189626,-0.577350269189625));
#837=DIRECTION('',(-0.707106781186548,-0.707106781186547,0.));
#838=DIRECTION('',(9.61481343191782E-17,0.707106781186547,-0.707106781186548));
#839=DIRECTION('',(-5.41222535147184E-17,0.707106781186548,0.707106781186547));
#840=DIRECTION('',(1.,7.65404249467096E-17,0.));
#841=DIRECTION('',(-0.707106781186548,-0.707106781186547,1.19609907444043E-16));
#842=DIRECTION('',(-0.707106781186547,0.707106781186548,0.));
#843=DIRECTION('',(0.,0.,-1.));
#844=DIRECTION('',(0.707106781186548,-0.707106781186547,-1.19609907444043E-16));
#845=DIRECTION('',(-0.707106781186547,-0.707106781186548,0.));
#846=DIRECTION('',(0.,0.,-1.));
#847=DIRECTION('',(-9.61481343191782E-17,0.707106781186547,0.707106781186548));
#848=DIRECTION('',(-6.1331736667335E-17,-0.707106781186548,0.707106781186547));
#849=DIRECTION('',(-1.,8.67361737988404E-17,0.));
#850=DIRECTION('',(-0.707106781186548,0.,-0.707106781186548));
#851=DIRECTION('',(0.577350269189626,-0.577350269189626,-0.577350269189626));
#852=DIRECTION('',(0.,0.707106781186547,-0.707106781186548));
#853=DIRECTION('',(0.707106781186548,0.,0.707106781186548));
#854=DIRECTION('',(0.577350269189626,0.577350269189626,-0.577350269189626));
#855=DIRECTION('',(0.,0.707106781186547,0.707106781186548));
#856=DIRECTION('',(-0.707106781186547,0.,0.707106781186547));
#857=DIRECTION('',(0.,1.,0.));
#858=DIRECTION('',(0.,1.,0.));
#859=DIRECTION('',(0.,-1.06964550482906E-16,1.));
#860=DIRECTION('',(0.,1.,0.));
#861=DIRECTION('',(0.,-1.06964550482906E-16,1.));
#862=CARTESIAN_POINT('',(0.,0.,0.));
#863=CARTESIAN_POINT('',(0.,0.,24.));
#864=CARTESIAN_POINT('',(0.,0.,23.));
#865=CARTESIAN_POINT('',(0.,0.,1.));
#866=CARTESIAN_POINT('',(0.,0.,1.));
#867=CARTESIAN_POINT('',(19.,1.45426807398748E-15,1.));
#868=CARTESIAN_POINT('',(19.,1.45426807398748E-15,24.));
#869=CARTESIAN_POINT('',(19.,1.45426807398748E-15,9.17157287525381));
#870=CARTESIAN_POINT('',(18.,1.37772764904077E-15,12.));
#871=CARTESIAN_POINT('',(19.,1.45426807398748E-15,14.8284271247462));
#872=CARTESIAN_POINT('',(19.,1.45426807398748E-15,24.));
#873=CARTESIAN_POINT('',(19.,1.45426807398748E-15,23.));
#874=CARTESIAN_POINT('',(0.,0.,23.));
#875=CARTESIAN_POINT('',(10.,0.,7.));
#876=CARTESIAN_POINT('',(12.5,0.,7.));
#877=CARTESIAN_POINT('',(10.,0.,17.));
#878=CARTESIAN_POINT('',(12.5,0.,17.));
#879=CARTESIAN_POINT('',(0.,0.,24.));
#880=CARTESIAN_POINT('',(20.,1.77635683940025E-15,10.9464346247147));
#881=CARTESIAN_POINT('',(20.,4.,10.9464346247147));
#882=CARTESIAN_POINT('',(20.,1.,10.9464346247147));
#883=CARTESIAN_POINT('',(20.,1.,24.));
#884=CARTESIAN_POINT('',(20.,1.,1.));
#885=CARTESIAN_POINT('',(20.,1.77635683940025E-15,1.));
#886=CARTESIAN_POINT('',(20.,4.,1.));
#887=CARTESIAN_POINT('',(20.,4.,24.));
#888=CARTESIAN_POINT('',(20.,1.77635683940025E-15,24.));
#889=CARTESIAN_POINT('',(10.,5.,7.));
#890=CARTESIAN_POINT('',(15.5,5.,7.));
#891=CARTESIAN_POINT('',(12.2912878474779,5.,12.));
#892=CARTESIAN_POINT('',(10.,5.,17.));
#893=CARTESIAN_POINT('',(15.5,5.,17.));
#894=CARTESIAN_POINT('',(10.,5.,17.));
#895=CARTESIAN_POINT('',(7.70871215252208,5.,12.));
#896=CARTESIAN_POINT('',(10.,5.,7.));
#897=CARTESIAN_POINT('',(20.,5.,23.));
#898=CARTESIAN_POINT('',(1.,5.,23.));
#899=CARTESIAN_POINT('',(19.,5.,23.));
#900=CARTESIAN_POINT('',(19.,5.,24.));
#901=CARTESIAN_POINT('',(19.,5.,14.8284271247462));
#902=CARTESIAN_POINT('',(18.,5.,12.));
#903=CARTESIAN_POINT('',(19.,5.,9.17157287525381));
#904=CARTESIAN_POINT('',(19.,5.,24.));
#905=CARTESIAN_POINT('',(19.,5.,1.));
#906=CARTESIAN_POINT('',(20.,5.,1.));
#907=CARTESIAN_POINT('',(1.,5.,1.));
#908=CARTESIAN_POINT('',(1.,5.,24.));
#909=CARTESIAN_POINT('',(20.,5.,24.));
#910=CARTESIAN_POINT('',(0.,4.,24.));
#911=CARTESIAN_POINT('',(0.,4.,23.));
#912=CARTESIAN_POINT('',(0.,4.,1.));
#913=CARTESIAN_POINT('',(0.,5.,1.));
#914=CARTESIAN_POINT('',(0.,5.,23.));
#915=CARTESIAN_POINT('',(0.,5.,24.));
#916=CARTESIAN_POINT('',(20.,1.53080849893419E-15,23.));
#917=CARTESIAN_POINT('',(20.,4.,23.));
#918=CARTESIAN_POINT('',(20.,1.,23.));
#919=CARTESIAN_POINT('',(20.,1.,24.));
#920=CARTESIAN_POINT('',(20.,1.,13.0535653752853));
#921=CARTESIAN_POINT('',(20.,1.77635683940025E-15,13.0535653752853));
#922=CARTESIAN_POINT('',(20.,4.,13.0535653752853));
#923=CARTESIAN_POINT('',(20.,4.,24.));
#924=CARTESIAN_POINT('',(20.,1.77635683940025E-15,24.));
#925=CARTESIAN_POINT('',(20.,1.,24.));
#926=CARTESIAN_POINT('',(1.,1.,24.));
#927=CARTESIAN_POINT('',(19.,1.,24.));
#928=CARTESIAN_POINT('',(19.,5.,24.));
#929=CARTESIAN_POINT('',(19.,4.,24.));
#930=CARTESIAN_POINT('',(-8.67361737988403E-17,4.,24.));
#931=CARTESIAN_POINT('',(1.,4.,24.));
#932=CARTESIAN_POINT('',(1.,0.,24.));
#933=CARTESIAN_POINT('',(0.,0.,24.));
#934=CARTESIAN_POINT('',(3.46944695195362E-16,4.,0.));
#935=CARTESIAN_POINT('',(1.,4.,0.));
#936=CARTESIAN_POINT('',(19.,4.,0.));
#937=CARTESIAN_POINT('',(19.,0.,0.));
#938=CARTESIAN_POINT('',(19.,1.,0.));
#939=CARTESIAN_POINT('',(-7.65404249467096E-17,1.,0.));
#940=CARTESIAN_POINT('',(1.,1.,0.));
#941=CARTESIAN_POINT('',(1.,0.,0.));
#942=CARTESIAN_POINT('',(0.,0.,0.));
#943=CARTESIAN_POINT('',(19.7,5.5,13.0535653752853));
#944=CARTESIAN_POINT('',(19.7,1.,13.0535653752853));
#945=CARTESIAN_POINT('',(19.7,4.,13.0535653752853));
#946=CARTESIAN_POINT('',(18.,1.,12.));
#947=CARTESIAN_POINT('',(19.7,1.,10.9464346247147));
#948=CARTESIAN_POINT('',(19.7,5.5,10.9464346247147));
#949=CARTESIAN_POINT('',(19.7,4.,10.9464346247147));
#950=CARTESIAN_POINT('',(18.,4.,12.));
#951=CARTESIAN_POINT('',(18.,5.5,12.));
#952=CARTESIAN_POINT('',(19.7,1.,10.9464346247147));
#953=CARTESIAN_POINT('',(19.7540285631065,0.954075721359502,10.9464346247147));
#954=CARTESIAN_POINT('',(19.8077596471208,0.907800049934025,10.9464346247147));
#955=CARTESIAN_POINT('',(19.86125,0.861250000000003,10.9464346247147));
#956=CARTESIAN_POINT('',(19.86125,0.861250000000003,10.9464346247147));
#957=CARTESIAN_POINT('',(20.,1.,10.9464346247147));
#958=CARTESIAN_POINT('',(19.,5.,10.9464346247147));
#959=CARTESIAN_POINT('',(19.86125,4.13875,10.9464346247147));
#960=CARTESIAN_POINT('',(19.86125,4.13875,10.9464346247147));
#961=CARTESIAN_POINT('',(19.8077596471208,4.09219995006598,10.9464346247147));
#962=CARTESIAN_POINT('',(19.7540285631065,4.0459242786405,10.9464346247147));
#963=CARTESIAN_POINT('',(19.7,4.,10.9464346247147));
#964=CARTESIAN_POINT('',(19.7,5.5,10.9464346247147));
#965=CARTESIAN_POINT('',(20.,1.,13.0535653752853));
#966=CARTESIAN_POINT('',(19.86125,0.861250000000002,13.0535653752853));
#967=CARTESIAN_POINT('',(19.86125,0.861250000000002,13.0535653752853));
#968=CARTESIAN_POINT('',(19.8077596471208,0.907800049934024,13.0535653752853));
#969=CARTESIAN_POINT('',(19.7540285631065,0.954075721359502,13.0535653752853));
#970=CARTESIAN_POINT('',(19.7,1.,13.0535653752853));
#971=CARTESIAN_POINT('',(19.7,4.,13.0535653752853));
#972=CARTESIAN_POINT('',(19.7540285631065,4.0459242786405,13.0535653752853));
#973=CARTESIAN_POINT('',(19.8077596471208,4.09219995006598,13.0535653752853));
#974=CARTESIAN_POINT('',(19.86125,4.13875,13.0535653752853));
#975=CARTESIAN_POINT('',(19.86125,4.13875,13.0535653752853));
#976=CARTESIAN_POINT('',(19.,5.,13.0535653752853));
#977=CARTESIAN_POINT('',(29.7,5.5,13.0535653752853));
#978=CARTESIAN_POINT('',(10.,2.,17.));
#979=CARTESIAN_POINT('',(10.,2.,14.5));
#980=CARTESIAN_POINT('',(10.,5.5,17.));
#981=CARTESIAN_POINT('',(10.,2.,7.));
#982=CARTESIAN_POINT('',(10.,2.,4.5));
#983=CARTESIAN_POINT('',(10.,5.5,7.));
#984=CARTESIAN_POINT('',(19.,0.500000000000001,23.5));
#985=CARTESIAN_POINT('',(0.666666666666667,0.666666666666667,23.6666666666667));
#986=CARTESIAN_POINT('',(-7.65404249467096E-17,1.,24.));
#987=CARTESIAN_POINT('',(19.,4.,24.));
#988=CARTESIAN_POINT('',(20.,1.,23.));
#989=CARTESIAN_POINT('',(19.,0.,24.));
#990=CARTESIAN_POINT('',(1.,5.,23.));
#991=CARTESIAN_POINT('',(19.,4.,24.));
#992=CARTESIAN_POINT('',(3.46944695195362E-16,4.,24.));
#993=CARTESIAN_POINT('',(0.5,4.,23.5));
#994=CARTESIAN_POINT('',(1.,0.,24.));
#995=CARTESIAN_POINT('',(20.,1.,23.));
#996=CARTESIAN_POINT('',(20.,1.,23.));
#997=CARTESIAN_POINT('',(19.5,4.5,23.));
#998=CARTESIAN_POINT('',(19.,4.,24.));
#999=CARTESIAN_POINT('',(1.,5.,23.));
#1000=CARTESIAN_POINT('',(1.,5.,23.));
#1001=CARTESIAN_POINT('',(19.86125,0.861250000000001,13.0535653752853));
#1002=CARTESIAN_POINT('',(19.6827317281581,0.682731728158099,13.7313335557119));
#1003=CARTESIAN_POINT('',(19.3582641793125,0.3582641793125,14.32176506345));
#1004=CARTESIAN_POINT('',(19.,1.97440068172522E-15,14.8284271247462));
#1005=CARTESIAN_POINT('',(20.,1.,24.));
#1006=CARTESIAN_POINT('',(19.,5.,14.8284271247462));
#1007=CARTESIAN_POINT('',(19.3582641793125,4.6417358206875,14.32176506345));
#1008=CARTESIAN_POINT('',(19.6827317281581,4.3172682718419,13.7313335557119));
#1009=CARTESIAN_POINT('',(19.86125,4.13875,13.0535653752853));
#1010=CARTESIAN_POINT('',(19.,5.,24.));
#1011=CARTESIAN_POINT('',(0.,4.,1.));
#1012=CARTESIAN_POINT('',(0.,4.,24.));
#1013=CARTESIAN_POINT('',(1.66666666666667,1.66666666666667,-0.666666666666667));
#1014=CARTESIAN_POINT('',(0.,4.,1.));
#1015=CARTESIAN_POINT('',(0.,5.,1.));
#1016=CARTESIAN_POINT('',(19.86125,0.861250000000002,10.9464346247147));
#1017=CARTESIAN_POINT('',(19.6827317281581,0.6827317281581,10.2686664442881));
#1018=CARTESIAN_POINT('',(19.3582641793125,0.3582641793125,9.67823493655001));
#1019=CARTESIAN_POINT('',(19.,1.01086770176679E-15,9.17157287525381));
#1020=CARTESIAN_POINT('',(18.,1.73472347597681E-15,12.));
#1021=CARTESIAN_POINT('',(19.86125,4.13875,10.9464346247147));
#1022=CARTESIAN_POINT('',(19.6827317281581,4.3172682718419,10.2686664442881));
#1023=CARTESIAN_POINT('',(19.3582641793125,4.6417358206875,9.67823493655001));
#1024=CARTESIAN_POINT('',(19.,5.,9.17157287525381));
#1025=CARTESIAN_POINT('',(18.,5.,12.));
#1026=CARTESIAN_POINT('',(1.,4.5,0.5));
#1027=CARTESIAN_POINT('',(0.,4.,1.));
#1028=CARTESIAN_POINT('',(19.,1.,-7.66646708341687E-17));
#1029=CARTESIAN_POINT('',(0.,0.,1.));
#1030=CARTESIAN_POINT('',(19.5,0.500000000000001,1.));
#1031=CARTESIAN_POINT('',(20.,1.,24.));
#1032=CARTESIAN_POINT('',(20.,4.,1.));
#1033=CARTESIAN_POINT('',(19.,5.,24.));
#1034=CARTESIAN_POINT('',(19.,4.5,0.500000000000001));
#1035=CARTESIAN_POINT('',(20.,5.,1.));
#1036=CARTESIAN_POINT('',(19.,1.,0.));
#1037=CARTESIAN_POINT('',(19.,1.,0.));
#1038=CARTESIAN_POINT('',(20.,4.,1.));
#1039=CARTESIAN_POINT('',(20.,4.,1.));
#1040=CARTESIAN_POINT('',(20.,1.77635683940025E-15,1.));
#1041=CARTESIAN_POINT('',(12.2912878474779,5.,12.));
#1042=CARTESIAN_POINT('',(11.5597560465808,4.69524546810198,12.));
#1043=CARTESIAN_POINT('',(10.7928782295713,4.50011194391668,12.));
#1044=CARTESIAN_POINT('',(9.20853426723226,4.49988815584066,12.));
#1045=CARTESIAN_POINT('',(8.44136409527388,4.69477881948032,12.));
#1046=CARTESIAN_POINT('',(7.70871215252208,5.,12.));
#1047=CARTESIAN_POINT('',(10.,5.,7.));
#1048=CARTESIAN_POINT('',(10.,5.,17.));
#1049=MECHANICAL_DESIGN_GEOMETRIC_PRESENTATION_REPRESENTATION('',(#94),
#1050);
#1050=(
GEOMETRIC_REPRESENTATION_CONTEXT(3)
GLOBAL_UNCERTAINTY_ASSIGNED_CONTEXT((#1051))
GLOBAL_UNIT_ASSIGNED_CONTEXT((#1057,#1053,#1052))
REPRESENTATION_CONTEXT('Collector Door Axis Mount v1',
'TOP_LEVEL_ASSEMBLY_PART')
);
#1051=UNCERTAINTY_MEASURE_WITH_UNIT(LENGTH_MEASURE(0.0508),#1057,
'DISTANCE_ACCURACY_VALUE','Maximum Tolerance applied to model');
#1052=(
NAMED_UNIT(*)
SI_UNIT($,.STERADIAN.)
SOLID_ANGLE_UNIT()
);
#1053=(
CONVERSION_BASED_UNIT('DEGREE',#1055)
NAMED_UNIT(#1054)
PLANE_ANGLE_UNIT()
);
#1054=DIMENSIONAL_EXPONENTS(0.,0.,0.,0.,0.,0.,0.);
#1055=PLANE_ANGLE_MEASURE_WITH_UNIT(PLANE_ANGLE_MEASURE(0.0174532925),#1056);
#1056=(
NAMED_UNIT(*)
PLANE_ANGLE_UNIT()
SI_UNIT($,.RADIAN.)
);
#1057=(
LENGTH_UNIT()
NAMED_UNIT(*)
SI_UNIT(.MILLI.,.METRE.)
);
ENDSEC;
END-ISO-10303-21;
