ISO-10303-21;
HEADER;
/* Generated by software containing ST-Developer
 * from STEP Tools, Inc. (www.steptools.com) 
 */
/* OPTION: using custom schema-name function */

FILE_DESCRIPTION(
/* description */ (''),
/* implementation_level */ '2;1');

FILE_NAME(
/* name */ 'RasPi Screws.stp',
/* time_stamp */ '2021-05-13T18:38:12+02:00',
/* author */ (''),
/* organization */ (''),
/* preprocessor_version */ 'ST-DEVELOPER v16.7',
/* originating_system */ 'SIEMENS PLM Software NX 12.0',
/* authorisation */ '');

FILE_SCHEMA (('AP203_CONFIGURATION_CONTROLLED_3D_DESIGN_OF_MECHANICAL_PARTS_AND_ASSEMBLIES_MIM_LF { 1 0 10303 403 2 1 2}'));
ENDSEC;

DATA;
#10=SHAPE_REPRESENTATION_RELATIONSHIP('None',
'relationship between RasPi Screws-None and RasPi Screws-None',#92,#11);
#11=ADVANCED_BREP_SHAPE_REPRESENTATION('RasPi Screws-None',(#102),#1041);
#12=CC_DESIGN_APPROVAL(#24,(#82));
#13=CC_DESIGN_APPROVAL(#25,(#84));
#14=CC_DESIGN_APPROVAL(#26,(#31));
#15=APPROVAL_PERSON_ORGANIZATION(#69,#24,#18);
#16=APPROVAL_PERSON_ORGANIZATION(#70,#25,#19);
#17=APPROVAL_PERSON_ORGANIZATION(#71,#26,#20);
#18=APPROVAL_ROLE('approver');
#19=APPROVAL_ROLE('approver');
#20=APPROVAL_ROLE('approver');
#21=APPROVAL_DATE_TIME(#39,#24);
#22=APPROVAL_DATE_TIME(#40,#25);
#23=APPROVAL_DATE_TIME(#41,#26);
#24=APPROVAL(#27,' ');
#25=APPROVAL(#28,' ');
#26=APPROVAL(#29,' ');
#27=APPROVAL_STATUS('not_yet_approved');
#28=APPROVAL_STATUS('not_yet_approved');
#29=APPROVAL_STATUS('not_yet_approved');
#30=CC_DESIGN_SECURITY_CLASSIFICATION(#31,(#84));
#31=SECURITY_CLASSIFICATION(' ',' ',#32);
#32=SECURITY_CLASSIFICATION_LEVEL('confidential');
#33=CC_DESIGN_DATE_AND_TIME_ASSIGNMENT(#37,#35,(#82));
#34=CC_DESIGN_DATE_AND_TIME_ASSIGNMENT(#38,#36,(#31));
#35=DATE_TIME_ROLE('creation_date');
#36=DATE_TIME_ROLE('classification_date');
#37=DATE_AND_TIME(#52,#42);
#38=DATE_AND_TIME(#53,#43);
#39=DATE_AND_TIME(#54,#44);
#40=DATE_AND_TIME(#55,#45);
#41=DATE_AND_TIME(#56,#46);
#42=LOCAL_TIME(0,0,0.,#47);
#43=LOCAL_TIME(0,0,0.,#48);
#44=LOCAL_TIME(0,0,0.,#49);
#45=LOCAL_TIME(0,0,0.,#50);
#46=LOCAL_TIME(0,0,0.,#51);
#47=COORDINATED_UNIVERSAL_TIME_OFFSET(0,0,.BEHIND.);
#48=COORDINATED_UNIVERSAL_TIME_OFFSET(0,0,.BEHIND.);
#49=COORDINATED_UNIVERSAL_TIME_OFFSET(0,0,.BEHIND.);
#50=COORDINATED_UNIVERSAL_TIME_OFFSET(0,0,.BEHIND.);
#51=COORDINATED_UNIVERSAL_TIME_OFFSET(0,0,.BEHIND.);
#52=CALENDAR_DATE(0,1,1);
#53=CALENDAR_DATE(0,1,1);
#54=CALENDAR_DATE(0,1,1);
#55=CALENDAR_DATE(0,1,1);
#56=CALENDAR_DATE(0,1,1);
#57=CC_DESIGN_PERSON_AND_ORGANIZATION_ASSIGNMENT(#65,#61,(#82,#84));
#58=CC_DESIGN_PERSON_AND_ORGANIZATION_ASSIGNMENT(#66,#62,(#86));
#59=CC_DESIGN_PERSON_AND_ORGANIZATION_ASSIGNMENT(#67,#63,(#84));
#60=CC_DESIGN_PERSON_AND_ORGANIZATION_ASSIGNMENT(#68,#64,(#31));
#61=PERSON_AND_ORGANIZATION_ROLE('creator');
#62=PERSON_AND_ORGANIZATION_ROLE('design_owner');
#63=PERSON_AND_ORGANIZATION_ROLE('design_supplier');
#64=PERSON_AND_ORGANIZATION_ROLE('classification_officer');
#65=PERSON_AND_ORGANIZATION(#79,#72);
#66=PERSON_AND_ORGANIZATION(#79,#73);
#67=PERSON_AND_ORGANIZATION(#79,#74);
#68=PERSON_AND_ORGANIZATION(#79,#75);
#69=PERSON_AND_ORGANIZATION(#79,#76);
#70=PERSON_AND_ORGANIZATION(#79,#77);
#71=PERSON_AND_ORGANIZATION(#79,#78);
#72=ORGANIZATION(' ',' ',' ');
#73=ORGANIZATION(' ',' ',' ');
#74=ORGANIZATION(' ',' ',' ');
#75=ORGANIZATION(' ',' ',' ');
#76=ORGANIZATION(' ',' ',' ');
#77=ORGANIZATION(' ',' ',' ');
#78=ORGANIZATION(' ',' ',' ');
#79=PERSON(' ',' ',' ',(' '),$,$);
#80=SHAPE_DEFINITION_REPRESENTATION(#81,#92);
#81=PRODUCT_DEFINITION_SHAPE('','',#82);
#82=PRODUCT_DEFINITION(' ','',#84,#83);
#83=DESIGN_CONTEXT('',#91,'design');
#84=PRODUCT_DEFINITION_FORMATION_WITH_SPECIFIED_SOURCE(' ',' ',#86,
 .NOT_KNOWN.);
#85=PRODUCT_RELATED_PRODUCT_CATEGORY('detail','',(#86));
#86=PRODUCT('RasPi Screws','RasPi Screws',' ',(#89));
#87=PRODUCT_CATEGORY('part',' ');
#88=PRODUCT_CATEGORY(' ','');
#89=MECHANICAL_CONTEXT(' ',#91,'mechanical');
#90=APPLICATION_PROTOCOL_DEFINITION('international standard',
'config_control_design',2010,#91);
#91=APPLICATION_CONTEXT(
'configuration controlled 3D designs of mechanical parts and assemblie
s');
#92=SHAPE_REPRESENTATION('RasPi Screws-None',(#576),#1041);
#93=PRESENTATION_LAYER_ASSIGNMENT('1','Layer 1',(#102));
#94=STYLED_ITEM('',(#95),#102);
#95=PRESENTATION_STYLE_ASSIGNMENT((#96));
#96=SURFACE_STYLE_USAGE(.BOTH.,#97);
#97=SURFACE_SIDE_STYLE('',(#98));
#98=SURFACE_STYLE_FILL_AREA(#99);
#99=FILL_AREA_STYLE('',(#100));
#100=FILL_AREA_STYLE_COLOUR('',#101);
#101=COLOUR_RGB('Iron Gray',0.298023956664378,0.298023956664378,0.298023956664378);
#102=MANIFOLD_SOLID_BREP('SOLID1',#103);
#103=CLOSED_SHELL('',(#200,#201,#202,#203,#204,#205,#206,#207,#208,#209,
#210,#211,#212,#213,#214,#215,#216,#217,#218,#219,#220,#221,#222,#223,#224,
#225,#226,#227,#228,#229));
#104=B_SPLINE_CURVE_WITH_KNOTS('',3,(#918,#919,#920,#921,#922,#923,#924,
#925,#926,#927,#928,#929,#930,#931,#932,#933,#934,#935,#936),
 .UNSPECIFIED.,.F.,.F.,(4,3,3,3,3,3,4),(0.,0.235379537816619,0.393921355714284,
0.528306583789597,0.662463512836674,0.850515997194263,1.),.UNSPECIFIED.);
#105=B_SPLINE_CURVE_WITH_KNOTS('',3,(#950,#951,#952,#953,#954,#955,#956,
#957,#958,#959,#960,#961,#962,#963,#964,#965,#966,#967,#968),
 .UNSPECIFIED.,.F.,.F.,(4,3,3,3,3,3,4),(0.,0.235379537816619,0.393921355714284,
0.528306583789597,0.662463512836673,0.850515997194262,1.),.UNSPECIFIED.);
#106=B_SPLINE_CURVE_WITH_KNOTS('',3,(#972,#973,#974,#975,#976,#977,#978,
#979,#980,#981,#982,#983,#984,#985,#986,#987,#988,#989,#990),
 .UNSPECIFIED.,.F.,.F.,(4,3,3,3,3,3,4),(0.,0.23537953781662,0.393921355714284,
0.528306583789598,0.662463512836674,0.850515997194263,1.),.UNSPECIFIED.);
#107=B_SPLINE_CURVE_WITH_KNOTS('',3,(#994,#995,#996,#997,#998,#999,#1000,
#1001,#1002,#1003,#1004,#1005,#1006,#1007,#1008,#1009,#1010,#1011,#1012),
 .UNSPECIFIED.,.F.,.F.,(4,3,3,3,3,3,4),(0.,0.23537953781662,0.393921355714284,
0.528306583789597,0.662463512836673,0.850515997194262,1.),.UNSPECIFIED.);
#108=(
BOUNDED_CURVE()
B_SPLINE_CURVE(2,(#904,#905,#906),.UNSPECIFIED.,.F.,.F.)
B_SPLINE_CURVE_WITH_KNOTS((3,3),(0.,1.),.UNSPECIFIED.)
CURVE()
GEOMETRIC_REPRESENTATION_ITEM()
RATIONAL_B_SPLINE_CURVE((1.68456997608134,1.36302329918278,1.))
REPRESENTATION_ITEM('')
);
#109=(
BOUNDED_CURVE()
B_SPLINE_CURVE(2,(#912,#913,#914),.UNSPECIFIED.,.F.,.F.)
B_SPLINE_CURVE_WITH_KNOTS((3,3),(0.,1.),.UNSPECIFIED.)
CURVE()
GEOMETRIC_REPRESENTATION_ITEM()
RATIONAL_B_SPLINE_CURVE((1.,1.36302329918278,1.68456997608134))
REPRESENTATION_ITEM('')
);
#110=(
BOUNDED_CURVE()
B_SPLINE_CURVE(2,(#938,#939,#940),.UNSPECIFIED.,.F.,.F.)
B_SPLINE_CURVE_WITH_KNOTS((3,3),(0.,1.),.UNSPECIFIED.)
CURVE()
GEOMETRIC_REPRESENTATION_ITEM()
RATIONAL_B_SPLINE_CURVE((1.68456997608135,1.36302329918278,1.))
REPRESENTATION_ITEM('')
);
#111=(
BOUNDED_CURVE()
B_SPLINE_CURVE(2,(#944,#945,#946),.UNSPECIFIED.,.F.,.F.)
B_SPLINE_CURVE_WITH_KNOTS((3,3),(0.,1.),.UNSPECIFIED.)
CURVE()
GEOMETRIC_REPRESENTATION_ITEM()
RATIONAL_B_SPLINE_CURVE((1.,1.36302329918278,1.68456997608134))
REPRESENTATION_ITEM('')
);
#112=(
BOUNDED_CURVE()
B_SPLINE_CURVE(2,(#1016,#1017,#1018),.UNSPECIFIED.,.F.,.F.)
B_SPLINE_CURVE_WITH_KNOTS((3,3),(0.,1.),.UNSPECIFIED.)
CURVE()
GEOMETRIC_REPRESENTATION_ITEM()
RATIONAL_B_SPLINE_CURVE((1.68456997608131,1.36302329918276,1.))
REPRESENTATION_ITEM('')
);
#113=(
BOUNDED_CURVE()
B_SPLINE_CURVE(2,(#1020,#1021,#1022),.UNSPECIFIED.,.F.,.F.)
B_SPLINE_CURVE_WITH_KNOTS((3,3),(0.,1.),.UNSPECIFIED.)
CURVE()
GEOMETRIC_REPRESENTATION_ITEM()
RATIONAL_B_SPLINE_CURVE((1.68456997608131,1.36302329918276,1.))
REPRESENTATION_ITEM('')
);
#114=(
BOUNDED_CURVE()
B_SPLINE_CURVE(2,(#1024,#1025,#1026),.UNSPECIFIED.,.F.,.F.)
B_SPLINE_CURVE_WITH_KNOTS((3,3),(0.,1.),.UNSPECIFIED.)
CURVE()
GEOMETRIC_REPRESENTATION_ITEM()
RATIONAL_B_SPLINE_CURVE((1.,1.36302329918278,1.68456997608134))
REPRESENTATION_ITEM('')
);
#115=(
BOUNDED_CURVE()
B_SPLINE_CURVE(2,(#1028,#1029,#1030),.UNSPECIFIED.,.F.,.F.)
B_SPLINE_CURVE_WITH_KNOTS((3,3),(0.,1.),.UNSPECIFIED.)
CURVE()
GEOMETRIC_REPRESENTATION_ITEM()
RATIONAL_B_SPLINE_CURVE((1.,1.36302329918278,1.68456997608134))
REPRESENTATION_ITEM('')
);
#116=SPHERICAL_SURFACE('',#626,4.);
#117=LINE('',#824,#133);
#118=LINE('',#828,#134);
#119=LINE('',#839,#135);
#120=LINE('',#843,#136);
#121=LINE('',#854,#137);
#122=LINE('',#858,#138);
#123=LINE('',#869,#139);
#124=LINE('',#873,#140);
#125=LINE('',#908,#141);
#126=LINE('',#910,#142);
#127=LINE('',#916,#143);
#128=LINE('',#942,#144);
#129=LINE('',#948,#145);
#130=LINE('',#970,#146);
#131=LINE('',#992,#147);
#132=LINE('',#1014,#148);
#133=VECTOR('',#671,1.);
#134=VECTOR('',#674,1.);
#135=VECTOR('',#687,1.);
#136=VECTOR('',#690,1.);
#137=VECTOR('',#703,1.);
#138=VECTOR('',#706,1.);
#139=VECTOR('',#719,1.);
#140=VECTOR('',#722,1.);
#141=VECTOR('',#761,1.);
#142=VECTOR('',#764,1.);
#143=VECTOR('',#767,1.);
#144=VECTOR('',#772,1.);
#145=VECTOR('',#775,1.);
#146=VECTOR('',#778,1.);
#147=VECTOR('',#779,1.);
#148=VECTOR('',#782,1.);
#149=TOROIDAL_SURFACE('',#587,1.29356142561062,0.086);
#150=TOROIDAL_SURFACE('',#594,1.29356142561062,0.086);
#151=TOROIDAL_SURFACE('',#601,1.29356142561062,0.086);
#152=TOROIDAL_SURFACE('',#608,1.29356142561062,0.086);
#153=TOROIDAL_SURFACE('',#613,1.67055142238442,0.8);
#154=ELLIPSE('',#583,0.0873744002086013,0.0857657398062149);
#155=ELLIPSE('',#585,0.0873744002085987,0.0857657398062077);
#156=ELLIPSE('',#590,0.0873744002085742,0.085765739806186);
#157=ELLIPSE('',#592,0.0873744002086177,0.0857657398062259);
#158=ELLIPSE('',#597,0.0873744002086013,0.0857657398062149);
#159=ELLIPSE('',#599,0.0873744002086474,0.0857657398062547);
#160=ELLIPSE('',#604,0.0873744002085742,0.085765739806186);
#161=ELLIPSE('',#606,0.0873744002086177,0.0857657398062259);
#162=ELLIPSE('',#615,0.187325290337061,0.185295372549889);
#163=ELLIPSE('',#618,0.187325290337064,0.18529537254989);
#164=ELLIPSE('',#621,0.187325290337063,0.18529537254989);
#165=ELLIPSE('',#624,0.187325290337064,0.18529537254989);
#166=PLANE('',#582);
#167=PLANE('',#629);
#168=PLANE('',#630);
#169=PLANE('',#632);
#170=PLANE('',#633);
#171=PLANE('',#637);
#172=PLANE('',#638);
#173=PLANE('',#639);
#174=PLANE('',#640);
#175=PLANE('',#643);
#176=FACE_OUTER_BOUND('',#262,.T.);
#177=FACE_OUTER_BOUND('',#263,.T.);
#178=FACE_OUTER_BOUND('',#264,.T.);
#179=FACE_OUTER_BOUND('',#265,.T.);
#180=FACE_OUTER_BOUND('',#266,.T.);
#181=FACE_OUTER_BOUND('',#267,.T.);
#182=FACE_OUTER_BOUND('',#268,.T.);
#183=FACE_OUTER_BOUND('',#269,.T.);
#184=FACE_OUTER_BOUND('',#270,.T.);
#185=FACE_OUTER_BOUND('',#277,.T.);
#186=FACE_OUTER_BOUND('',#278,.T.);
#187=FACE_OUTER_BOUND('',#279,.T.);
#188=FACE_OUTER_BOUND('',#280,.T.);
#189=FACE_OUTER_BOUND('',#281,.T.);
#190=FACE_OUTER_BOUND('',#282,.T.);
#191=FACE_OUTER_BOUND('',#283,.T.);
#192=FACE_OUTER_BOUND('',#284,.T.);
#193=FACE_OUTER_BOUND('',#285,.T.);
#194=FACE_OUTER_BOUND('',#286,.T.);
#195=FACE_OUTER_BOUND('',#287,.T.);
#196=FACE_OUTER_BOUND('',#288,.T.);
#197=FACE_OUTER_BOUND('',#289,.T.);
#198=CYLINDRICAL_SURFACE('',#581,1.25);
#199=CYLINDRICAL_SURFACE('',#645,1.128215);
#200=ADVANCED_FACE('',(#242,#243),#230,.T.);
#201=ADVANCED_FACE('',(#244,#245),#198,.T.);
#202=ADVANCED_FACE('',(#176),#166,.T.);
#203=ADVANCED_FACE('',(#177),#149,.T.);
#204=ADVANCED_FACE('',(#178),#231,.F.);
#205=ADVANCED_FACE('',(#179),#150,.T.);
#206=ADVANCED_FACE('',(#180),#232,.F.);
#207=ADVANCED_FACE('',(#181),#151,.T.);
#208=ADVANCED_FACE('',(#182),#233,.F.);
#209=ADVANCED_FACE('',(#183),#152,.T.);
#210=ADVANCED_FACE('',(#184),#234,.F.);
#211=ADVANCED_FACE('',(#246,#247),#153,.T.);
#212=ADVANCED_FACE('',(#248,#249),#116,.T.);
#213=ADVANCED_FACE('',(#250,#251),#235,.T.);
#214=ADVANCED_FACE('',(#185),#167,.T.);
#215=ADVANCED_FACE('',(#186),#168,.T.);
#216=ADVANCED_FACE('',(#187),#236,.T.);
#217=ADVANCED_FACE('',(#188),#169,.T.);
#218=ADVANCED_FACE('',(#189),#170,.T.);
#219=ADVANCED_FACE('',(#190),#237,.T.);
#220=ADVANCED_FACE('',(#191),#238,.T.);
#221=ADVANCED_FACE('',(#192),#239,.T.);
#222=ADVANCED_FACE('',(#193),#171,.T.);
#223=ADVANCED_FACE('',(#194),#172,.T.);
#224=ADVANCED_FACE('',(#195),#173,.T.);
#225=ADVANCED_FACE('',(#196),#174,.T.);
#226=ADVANCED_FACE('',(#197),#240,.F.);
#227=ADVANCED_FACE('',(#252,#253),#175,.T.);
#228=ADVANCED_FACE('',(#254,#255),#199,.T.);
#229=ADVANCED_FACE('',(#256,#257),#241,.T.);
#230=CONICAL_SURFACE('',#579,1.11197375,44.9896241832495);
#231=CONICAL_SURFACE('',#589,1.01775716651954,26.5);
#232=CONICAL_SURFACE('',#596,1.01775716651954,26.5);
#233=CONICAL_SURFACE('',#603,1.01775716651954,26.5);
#234=CONICAL_SURFACE('',#610,1.01775716651954,26.5);
#235=CONICAL_SURFACE('',#628,2.47804973462681,2.00000000000002);
#236=CONICAL_SURFACE('',#631,0.181131876583852,5.);
#237=CONICAL_SURFACE('',#634,0.181131876583852,5.);
#238=CONICAL_SURFACE('',#635,0.181131876583852,5.);
#239=CONICAL_SURFACE('',#636,0.181131876583852,5.);
#240=CONICAL_SURFACE('',#641,0.392705765650408,62.);
#241=CONICAL_SURFACE('',#646,1.1891075,23.8054452969543);
#242=FACE_BOUND('',#258,.T.);
#243=FACE_BOUND('',#259,.T.);
#244=FACE_BOUND('',#260,.T.);
#245=FACE_BOUND('',#261,.T.);
#246=FACE_BOUND('',#271,.T.);
#247=FACE_BOUND('',#272,.T.);
#248=FACE_BOUND('',#273,.T.);
#249=FACE_BOUND('',#274,.T.);
#250=FACE_BOUND('',#275,.T.);
#251=FACE_BOUND('',#276,.T.);
#252=FACE_BOUND('',#290,.T.);
#253=FACE_BOUND('',#291,.T.);
#254=FACE_BOUND('',#292,.T.);
#255=FACE_BOUND('',#293,.T.);
#256=FACE_BOUND('',#294,.T.);
#257=FACE_BOUND('',#295,.T.);
#258=EDGE_LOOP('',(#296));
#259=EDGE_LOOP('',(#297));
#260=EDGE_LOOP('',(#298));
#261=EDGE_LOOP('',(#299));
#262=EDGE_LOOP('',(#300));
#263=EDGE_LOOP('',(#301,#302,#303,#304));
#264=EDGE_LOOP('',(#305,#306,#307,#308));
#265=EDGE_LOOP('',(#309,#310,#311,#312));
#266=EDGE_LOOP('',(#313,#314,#315,#316));
#267=EDGE_LOOP('',(#317,#318,#319,#320));
#268=EDGE_LOOP('',(#321,#322,#323,#324));
#269=EDGE_LOOP('',(#325,#326,#327,#328));
#270=EDGE_LOOP('',(#329,#330,#331,#332));
#271=EDGE_LOOP('',(#333));
#272=EDGE_LOOP('',(#334));
#273=EDGE_LOOP('',(#335));
#274=EDGE_LOOP('',(#336,#337,#338,#339,#340,#341,#342,#343,#344,#345,#346,
#347,#348,#349,#350,#351));
#275=EDGE_LOOP('',(#352));
#276=EDGE_LOOP('',(#353));
#277=EDGE_LOOP('',(#354,#355,#356,#357,#358));
#278=EDGE_LOOP('',(#359,#360,#361,#362,#363));
#279=EDGE_LOOP('',(#364,#365,#366,#367));
#280=EDGE_LOOP('',(#368,#369,#370,#371,#372));
#281=EDGE_LOOP('',(#373,#374,#375,#376,#377));
#282=EDGE_LOOP('',(#378,#379,#380,#381));
#283=EDGE_LOOP('',(#382,#383,#384,#385));
#284=EDGE_LOOP('',(#386,#387,#388,#389));
#285=EDGE_LOOP('',(#390,#391,#392,#393,#394));
#286=EDGE_LOOP('',(#395,#396,#397,#398,#399));
#287=EDGE_LOOP('',(#400,#401,#402,#403,#404));
#288=EDGE_LOOP('',(#405,#406,#407,#408,#409));
#289=EDGE_LOOP('',(#410,#411,#412,#413,#414,#415,#416,#417,#418,#419,#420,
#421,#422,#423,#424,#425));
#290=EDGE_LOOP('',(#426));
#291=EDGE_LOOP('',(#427));
#292=EDGE_LOOP('',(#428));
#293=EDGE_LOOP('',(#429));
#294=EDGE_LOOP('',(#430));
#295=EDGE_LOOP('',(#431));
#296=ORIENTED_EDGE('',*,*,#480,.T.);
#297=ORIENTED_EDGE('',*,*,#481,.T.);
#298=ORIENTED_EDGE('',*,*,#482,.T.);
#299=ORIENTED_EDGE('',*,*,#480,.F.);
#300=ORIENTED_EDGE('',*,*,#481,.F.);
#301=ORIENTED_EDGE('',*,*,#483,.T.);
#302=ORIENTED_EDGE('',*,*,#484,.T.);
#303=ORIENTED_EDGE('',*,*,#485,.T.);
#304=ORIENTED_EDGE('',*,*,#486,.T.);
#305=ORIENTED_EDGE('',*,*,#484,.F.);
#306=ORIENTED_EDGE('',*,*,#487,.T.);
#307=ORIENTED_EDGE('',*,*,#488,.T.);
#308=ORIENTED_EDGE('',*,*,#489,.T.);
#309=ORIENTED_EDGE('',*,*,#490,.T.);
#310=ORIENTED_EDGE('',*,*,#491,.T.);
#311=ORIENTED_EDGE('',*,*,#492,.T.);
#312=ORIENTED_EDGE('',*,*,#493,.T.);
#313=ORIENTED_EDGE('',*,*,#491,.F.);
#314=ORIENTED_EDGE('',*,*,#494,.T.);
#315=ORIENTED_EDGE('',*,*,#495,.T.);
#316=ORIENTED_EDGE('',*,*,#496,.T.);
#317=ORIENTED_EDGE('',*,*,#497,.T.);
#318=ORIENTED_EDGE('',*,*,#498,.T.);
#319=ORIENTED_EDGE('',*,*,#499,.T.);
#320=ORIENTED_EDGE('',*,*,#500,.T.);
#321=ORIENTED_EDGE('',*,*,#498,.F.);
#322=ORIENTED_EDGE('',*,*,#501,.T.);
#323=ORIENTED_EDGE('',*,*,#502,.T.);
#324=ORIENTED_EDGE('',*,*,#503,.T.);
#325=ORIENTED_EDGE('',*,*,#504,.T.);
#326=ORIENTED_EDGE('',*,*,#505,.T.);
#327=ORIENTED_EDGE('',*,*,#506,.T.);
#328=ORIENTED_EDGE('',*,*,#507,.T.);
#329=ORIENTED_EDGE('',*,*,#505,.F.);
#330=ORIENTED_EDGE('',*,*,#508,.T.);
#331=ORIENTED_EDGE('',*,*,#509,.T.);
#332=ORIENTED_EDGE('',*,*,#510,.T.);
#333=ORIENTED_EDGE('',*,*,#511,.T.);
#334=ORIENTED_EDGE('',*,*,#512,.T.);
#335=ORIENTED_EDGE('',*,*,#511,.F.);
#336=ORIENTED_EDGE('',*,*,#513,.F.);
#337=ORIENTED_EDGE('',*,*,#514,.F.);
#338=ORIENTED_EDGE('',*,*,#515,.F.);
#339=ORIENTED_EDGE('',*,*,#507,.F.);
#340=ORIENTED_EDGE('',*,*,#516,.F.);
#341=ORIENTED_EDGE('',*,*,#517,.F.);
#342=ORIENTED_EDGE('',*,*,#518,.F.);
#343=ORIENTED_EDGE('',*,*,#500,.F.);
#344=ORIENTED_EDGE('',*,*,#519,.F.);
#345=ORIENTED_EDGE('',*,*,#520,.F.);
#346=ORIENTED_EDGE('',*,*,#521,.F.);
#347=ORIENTED_EDGE('',*,*,#493,.F.);
#348=ORIENTED_EDGE('',*,*,#522,.F.);
#349=ORIENTED_EDGE('',*,*,#523,.F.);
#350=ORIENTED_EDGE('',*,*,#524,.F.);
#351=ORIENTED_EDGE('',*,*,#486,.F.);
#352=ORIENTED_EDGE('',*,*,#525,.F.);
#353=ORIENTED_EDGE('',*,*,#512,.F.);
#354=ORIENTED_EDGE('',*,*,#519,.T.);
#355=ORIENTED_EDGE('',*,*,#499,.F.);
#356=ORIENTED_EDGE('',*,*,#503,.F.);
#357=ORIENTED_EDGE('',*,*,#526,.F.);
#358=ORIENTED_EDGE('',*,*,#527,.F.);
#359=ORIENTED_EDGE('',*,*,#518,.T.);
#360=ORIENTED_EDGE('',*,*,#528,.T.);
#361=ORIENTED_EDGE('',*,*,#529,.F.);
#362=ORIENTED_EDGE('',*,*,#501,.F.);
#363=ORIENTED_EDGE('',*,*,#497,.F.);
#364=ORIENTED_EDGE('',*,*,#517,.T.);
#365=ORIENTED_EDGE('',*,*,#530,.T.);
#366=ORIENTED_EDGE('',*,*,#531,.F.);
#367=ORIENTED_EDGE('',*,*,#528,.F.);
#368=ORIENTED_EDGE('',*,*,#516,.T.);
#369=ORIENTED_EDGE('',*,*,#506,.F.);
#370=ORIENTED_EDGE('',*,*,#510,.F.);
#371=ORIENTED_EDGE('',*,*,#532,.F.);
#372=ORIENTED_EDGE('',*,*,#530,.F.);
#373=ORIENTED_EDGE('',*,*,#515,.T.);
#374=ORIENTED_EDGE('',*,*,#533,.T.);
#375=ORIENTED_EDGE('',*,*,#534,.F.);
#376=ORIENTED_EDGE('',*,*,#508,.F.);
#377=ORIENTED_EDGE('',*,*,#504,.F.);
#378=ORIENTED_EDGE('',*,*,#514,.T.);
#379=ORIENTED_EDGE('',*,*,#535,.T.);
#380=ORIENTED_EDGE('',*,*,#536,.F.);
#381=ORIENTED_EDGE('',*,*,#533,.F.);
#382=ORIENTED_EDGE('',*,*,#523,.T.);
#383=ORIENTED_EDGE('',*,*,#537,.T.);
#384=ORIENTED_EDGE('',*,*,#538,.F.);
#385=ORIENTED_EDGE('',*,*,#539,.F.);
#386=ORIENTED_EDGE('',*,*,#520,.T.);
#387=ORIENTED_EDGE('',*,*,#527,.T.);
#388=ORIENTED_EDGE('',*,*,#540,.F.);
#389=ORIENTED_EDGE('',*,*,#541,.F.);
#390=ORIENTED_EDGE('',*,*,#513,.T.);
#391=ORIENTED_EDGE('',*,*,#485,.F.);
#392=ORIENTED_EDGE('',*,*,#489,.F.);
#393=ORIENTED_EDGE('',*,*,#542,.F.);
#394=ORIENTED_EDGE('',*,*,#535,.F.);
#395=ORIENTED_EDGE('',*,*,#522,.T.);
#396=ORIENTED_EDGE('',*,*,#492,.F.);
#397=ORIENTED_EDGE('',*,*,#496,.F.);
#398=ORIENTED_EDGE('',*,*,#543,.F.);
#399=ORIENTED_EDGE('',*,*,#537,.F.);
#400=ORIENTED_EDGE('',*,*,#524,.T.);
#401=ORIENTED_EDGE('',*,*,#539,.T.);
#402=ORIENTED_EDGE('',*,*,#544,.F.);
#403=ORIENTED_EDGE('',*,*,#487,.F.);
#404=ORIENTED_EDGE('',*,*,#483,.F.);
#405=ORIENTED_EDGE('',*,*,#521,.T.);
#406=ORIENTED_EDGE('',*,*,#541,.T.);
#407=ORIENTED_EDGE('',*,*,#545,.F.);
#408=ORIENTED_EDGE('',*,*,#494,.F.);
#409=ORIENTED_EDGE('',*,*,#490,.F.);
#410=ORIENTED_EDGE('',*,*,#534,.T.);
#411=ORIENTED_EDGE('',*,*,#536,.T.);
#412=ORIENTED_EDGE('',*,*,#542,.T.);
#413=ORIENTED_EDGE('',*,*,#488,.F.);
#414=ORIENTED_EDGE('',*,*,#544,.T.);
#415=ORIENTED_EDGE('',*,*,#538,.T.);
#416=ORIENTED_EDGE('',*,*,#543,.T.);
#417=ORIENTED_EDGE('',*,*,#495,.F.);
#418=ORIENTED_EDGE('',*,*,#545,.T.);
#419=ORIENTED_EDGE('',*,*,#540,.T.);
#420=ORIENTED_EDGE('',*,*,#526,.T.);
#421=ORIENTED_EDGE('',*,*,#502,.F.);
#422=ORIENTED_EDGE('',*,*,#529,.T.);
#423=ORIENTED_EDGE('',*,*,#531,.T.);
#424=ORIENTED_EDGE('',*,*,#532,.T.);
#425=ORIENTED_EDGE('',*,*,#509,.F.);
#426=ORIENTED_EDGE('',*,*,#525,.T.);
#427=ORIENTED_EDGE('',*,*,#546,.F.);
#428=ORIENTED_EDGE('',*,*,#547,.F.);
#429=ORIENTED_EDGE('',*,*,#546,.T.);
#430=ORIENTED_EDGE('',*,*,#482,.F.);
#431=ORIENTED_EDGE('',*,*,#547,.T.);
#432=VERTEX_POINT('',#807);
#433=VERTEX_POINT('',#809);
#434=VERTEX_POINT('',#812);
#435=VERTEX_POINT('',#816);
#436=VERTEX_POINT('',#817);
#437=VERTEX_POINT('',#819);
#438=VERTEX_POINT('',#821);
#439=VERTEX_POINT('',#825);
#440=VERTEX_POINT('',#827);
#441=VERTEX_POINT('',#831);
#442=VERTEX_POINT('',#832);
#443=VERTEX_POINT('',#834);
#444=VERTEX_POINT('',#836);
#445=VERTEX_POINT('',#840);
#446=VERTEX_POINT('',#842);
#447=VERTEX_POINT('',#846);
#448=VERTEX_POINT('',#847);
#449=VERTEX_POINT('',#849);
#450=VERTEX_POINT('',#851);
#451=VERTEX_POINT('',#855);
#452=VERTEX_POINT('',#857);
#453=VERTEX_POINT('',#861);
#454=VERTEX_POINT('',#862);
#455=VERTEX_POINT('',#864);
#456=VERTEX_POINT('',#866);
#457=VERTEX_POINT('',#870);
#458=VERTEX_POINT('',#872);
#459=VERTEX_POINT('',#876);
#460=VERTEX_POINT('',#878);
#461=VERTEX_POINT('',#881);
#462=VERTEX_POINT('',#883);
#463=VERTEX_POINT('',#886);
#464=VERTEX_POINT('',#888);
#465=VERTEX_POINT('',#891);
#466=VERTEX_POINT('',#893);
#467=VERTEX_POINT('',#896);
#468=VERTEX_POINT('',#898);
#469=VERTEX_POINT('',#902);
#470=VERTEX_POINT('',#907);
#471=VERTEX_POINT('',#911);
#472=VERTEX_POINT('',#917);
#473=VERTEX_POINT('',#943);
#474=VERTEX_POINT('',#949);
#475=VERTEX_POINT('',#971);
#476=VERTEX_POINT('',#991);
#477=VERTEX_POINT('',#1013);
#478=VERTEX_POINT('',#1034);
#479=VERTEX_POINT('',#1037);
#480=EDGE_CURVE('',#432,#432,#548,.T.);
#481=EDGE_CURVE('',#433,#433,#549,.T.);
#482=EDGE_CURVE('',#434,#434,#550,.T.);
#483=EDGE_CURVE('',#435,#436,#154,.T.);
#484=EDGE_CURVE('',#436,#437,#551,.T.);
#485=EDGE_CURVE('',#437,#438,#155,.T.);
#486=EDGE_CURVE('',#438,#435,#552,.T.);
#487=EDGE_CURVE('',#436,#439,#117,.T.);
#488=EDGE_CURVE('',#439,#440,#553,.T.);
#489=EDGE_CURVE('',#440,#437,#118,.T.);
#490=EDGE_CURVE('',#441,#442,#156,.T.);
#491=EDGE_CURVE('',#442,#443,#554,.T.);
#492=EDGE_CURVE('',#443,#444,#157,.T.);
#493=EDGE_CURVE('',#444,#441,#555,.T.);
#494=EDGE_CURVE('',#442,#445,#119,.T.);
#495=EDGE_CURVE('',#445,#446,#556,.T.);
#496=EDGE_CURVE('',#446,#443,#120,.T.);
#497=EDGE_CURVE('',#447,#448,#158,.T.);
#498=EDGE_CURVE('',#448,#449,#557,.T.);
#499=EDGE_CURVE('',#449,#450,#159,.T.);
#500=EDGE_CURVE('',#450,#447,#558,.T.);
#501=EDGE_CURVE('',#448,#451,#121,.T.);
#502=EDGE_CURVE('',#451,#452,#559,.T.);
#503=EDGE_CURVE('',#452,#449,#122,.T.);
#504=EDGE_CURVE('',#453,#454,#160,.T.);
#505=EDGE_CURVE('',#454,#455,#560,.T.);
#506=EDGE_CURVE('',#455,#456,#161,.T.);
#507=EDGE_CURVE('',#456,#453,#561,.T.);
#508=EDGE_CURVE('',#454,#457,#123,.T.);
#509=EDGE_CURVE('',#457,#458,#562,.T.);
#510=EDGE_CURVE('',#458,#455,#124,.T.);
#511=EDGE_CURVE('',#459,#459,#563,.T.);
#512=EDGE_CURVE('',#460,#460,#564,.T.);
#513=EDGE_CURVE('',#461,#438,#565,.T.);
#514=EDGE_CURVE('',#462,#461,#162,.T.);
#515=EDGE_CURVE('',#453,#462,#566,.T.);
#516=EDGE_CURVE('',#463,#456,#567,.T.);
#517=EDGE_CURVE('',#464,#463,#163,.T.);
#518=EDGE_CURVE('',#447,#464,#568,.T.);
#519=EDGE_CURVE('',#465,#450,#569,.T.);
#520=EDGE_CURVE('',#466,#465,#164,.T.);
#521=EDGE_CURVE('',#441,#466,#570,.T.);
#522=EDGE_CURVE('',#467,#444,#571,.T.);
#523=EDGE_CURVE('',#468,#467,#165,.T.);
#524=EDGE_CURVE('',#435,#468,#572,.T.);
#525=EDGE_CURVE('',#469,#469,#573,.T.);
#526=EDGE_CURVE('',#470,#452,#108,.T.);
#527=EDGE_CURVE('',#465,#470,#125,.T.);
#528=EDGE_CURVE('',#464,#471,#126,.T.);
#529=EDGE_CURVE('',#451,#471,#109,.T.);
#530=EDGE_CURVE('',#463,#472,#127,.T.);
#531=EDGE_CURVE('',#471,#472,#104,.T.);
#532=EDGE_CURVE('',#472,#458,#110,.T.);
#533=EDGE_CURVE('',#462,#473,#128,.T.);
#534=EDGE_CURVE('',#457,#473,#111,.T.);
#535=EDGE_CURVE('',#461,#474,#129,.T.);
#536=EDGE_CURVE('',#473,#474,#105,.T.);
#537=EDGE_CURVE('',#467,#475,#130,.T.);
#538=EDGE_CURVE('',#476,#475,#106,.T.);
#539=EDGE_CURVE('',#468,#476,#131,.T.);
#540=EDGE_CURVE('',#477,#470,#107,.T.);
#541=EDGE_CURVE('',#466,#477,#132,.T.);
#542=EDGE_CURVE('',#474,#440,#112,.T.);
#543=EDGE_CURVE('',#475,#446,#113,.T.);
#544=EDGE_CURVE('',#439,#476,#114,.T.);
#545=EDGE_CURVE('',#445,#477,#115,.T.);
#546=EDGE_CURVE('',#478,#478,#574,.T.);
#547=EDGE_CURVE('',#479,#479,#575,.T.);
#548=CIRCLE('',#577,1.25);
#549=CIRCLE('',#578,0.973947500000002);
#550=CIRCLE('',#580,1.25);
#551=CIRCLE('',#584,1.21659707051284);
#552=CIRCLE('',#586,1.3219840834038);
#553=CIRCLE('',#588,0.785411531300816);
#554=CIRCLE('',#591,1.21659707051284);
#555=CIRCLE('',#593,1.3219840834038);
#556=CIRCLE('',#595,0.785411531300816);
#557=CIRCLE('',#598,1.21659707051284);
#558=CIRCLE('',#600,1.3219840834038);
#559=CIRCLE('',#602,0.785411531300816);
#560=CIRCLE('',#605,1.21659707051284);
#561=CIRCLE('',#607,1.3219840834038);
#562=CIRCLE('',#609,0.785411531300816);
#563=CIRCLE('',#611,2.08818927798052);
#564=CIRCLE('',#612,2.4700640839997);
#565=CIRCLE('',#614,3.99854051716778);
#566=CIRCLE('',#616,3.99854051716778);
#567=CIRCLE('',#617,3.99854051716778);
#568=CIRCLE('',#619,3.99854051716778);
#569=CIRCLE('',#620,3.99854051716778);
#570=CIRCLE('',#622,3.99854051716778);
#571=CIRCLE('',#623,3.99854051716778);
#572=CIRCLE('',#625,3.99854051716778);
#573=CIRCLE('',#627,2.5);
#574=CIRCLE('',#642,1.128215);
#575=CIRCLE('',#644,1.128215);
#576=AXIS2_PLACEMENT_3D('',#805,#647,#648);
#577=AXIS2_PLACEMENT_3D('',#806,#649,#650);
#578=AXIS2_PLACEMENT_3D('',#808,#651,#652);
#579=AXIS2_PLACEMENT_3D('',#810,#653,#654);
#580=AXIS2_PLACEMENT_3D('',#811,#655,#656);
#581=AXIS2_PLACEMENT_3D('',#813,#657,#658);
#582=AXIS2_PLACEMENT_3D('',#814,#659,#660);
#583=AXIS2_PLACEMENT_3D('',#815,#661,#662);
#584=AXIS2_PLACEMENT_3D('',#818,#663,#664);
#585=AXIS2_PLACEMENT_3D('',#820,#665,#666);
#586=AXIS2_PLACEMENT_3D('',#822,#667,#668);
#587=AXIS2_PLACEMENT_3D('',#823,#669,#670);
#588=AXIS2_PLACEMENT_3D('',#826,#672,#673);
#589=AXIS2_PLACEMENT_3D('',#829,#675,#676);
#590=AXIS2_PLACEMENT_3D('',#830,#677,#678);
#591=AXIS2_PLACEMENT_3D('',#833,#679,#680);
#592=AXIS2_PLACEMENT_3D('',#835,#681,#682);
#593=AXIS2_PLACEMENT_3D('',#837,#683,#684);
#594=AXIS2_PLACEMENT_3D('',#838,#685,#686);
#595=AXIS2_PLACEMENT_3D('',#841,#688,#689);
#596=AXIS2_PLACEMENT_3D('',#844,#691,#692);
#597=AXIS2_PLACEMENT_3D('',#845,#693,#694);
#598=AXIS2_PLACEMENT_3D('',#848,#695,#696);
#599=AXIS2_PLACEMENT_3D('',#850,#697,#698);
#600=AXIS2_PLACEMENT_3D('',#852,#699,#700);
#601=AXIS2_PLACEMENT_3D('',#853,#701,#702);
#602=AXIS2_PLACEMENT_3D('',#856,#704,#705);
#603=AXIS2_PLACEMENT_3D('',#859,#707,#708);
#604=AXIS2_PLACEMENT_3D('',#860,#709,#710);
#605=AXIS2_PLACEMENT_3D('',#863,#711,#712);
#606=AXIS2_PLACEMENT_3D('',#865,#713,#714);
#607=AXIS2_PLACEMENT_3D('',#867,#715,#716);
#608=AXIS2_PLACEMENT_3D('',#868,#717,#718);
#609=AXIS2_PLACEMENT_3D('',#871,#720,#721);
#610=AXIS2_PLACEMENT_3D('',#874,#723,#724);
#611=AXIS2_PLACEMENT_3D('',#875,#725,#726);
#612=AXIS2_PLACEMENT_3D('',#877,#727,#728);
#613=AXIS2_PLACEMENT_3D('',#879,#729,#730);
#614=AXIS2_PLACEMENT_3D('',#880,#731,#732);
#615=AXIS2_PLACEMENT_3D('',#882,#733,#734);
#616=AXIS2_PLACEMENT_3D('',#884,#735,#736);
#617=AXIS2_PLACEMENT_3D('',#885,#737,#738);
#618=AXIS2_PLACEMENT_3D('',#887,#739,#740);
#619=AXIS2_PLACEMENT_3D('',#889,#741,#742);
#620=AXIS2_PLACEMENT_3D('',#890,#743,#744);
#621=AXIS2_PLACEMENT_3D('',#892,#745,#746);
#622=AXIS2_PLACEMENT_3D('',#894,#747,#748);
#623=AXIS2_PLACEMENT_3D('',#895,#749,#750);
#624=AXIS2_PLACEMENT_3D('',#897,#751,#752);
#625=AXIS2_PLACEMENT_3D('',#899,#753,#754);
#626=AXIS2_PLACEMENT_3D('',#900,#755,#756);
#627=AXIS2_PLACEMENT_3D('',#901,#757,#758);
#628=AXIS2_PLACEMENT_3D('',#903,#759,#760);
#629=AXIS2_PLACEMENT_3D('',#909,#762,#763);
#630=AXIS2_PLACEMENT_3D('',#915,#765,#766);
#631=AXIS2_PLACEMENT_3D('',#937,#768,#769);
#632=AXIS2_PLACEMENT_3D('',#941,#770,#771);
#633=AXIS2_PLACEMENT_3D('',#947,#773,#774);
#634=AXIS2_PLACEMENT_3D('',#969,#776,#777);
#635=AXIS2_PLACEMENT_3D('',#993,#780,#781);
#636=AXIS2_PLACEMENT_3D('',#1015,#783,#784);
#637=AXIS2_PLACEMENT_3D('',#1019,#785,#786);
#638=AXIS2_PLACEMENT_3D('',#1023,#787,#788);
#639=AXIS2_PLACEMENT_3D('',#1027,#789,#790);
#640=AXIS2_PLACEMENT_3D('',#1031,#791,#792);
#641=AXIS2_PLACEMENT_3D('',#1032,#793,#794);
#642=AXIS2_PLACEMENT_3D('',#1033,#795,#796);
#643=AXIS2_PLACEMENT_3D('',#1035,#797,#798);
#644=AXIS2_PLACEMENT_3D('',#1036,#799,#800);
#645=AXIS2_PLACEMENT_3D('',#1038,#801,#802);
#646=AXIS2_PLACEMENT_3D('',#1039,#803,#804);
#647=DIRECTION('',(0.,0.,1.));
#648=DIRECTION('',(1.,0.,0.));
#649=DIRECTION('',(1.,-1.03258072777584E-33,0.));
#650=DIRECTION('',(0.,-1.,0.));
#651=DIRECTION('',(-1.,1.03258072777584E-33,0.));
#652=DIRECTION('',(0.,-1.,0.));
#653=DIRECTION('',(-1.,1.03258072777584E-33,0.));
#654=DIRECTION('',(5.07026420430197E-17,1.,0.));
#655=DIRECTION('',(1.,-1.03258072777584E-33,0.));
#656=DIRECTION('',(0.,1.,0.));
#657=DIRECTION('',(1.,-1.03258072777584E-33,0.));
#658=DIRECTION('',(0.,-1.,0.));
#659=DIRECTION('',(1.,-1.03258072777584E-33,0.));
#660=DIRECTION('',(0.,0.,1.));
#661=DIRECTION('',(-0.0871557427476589,-0.0198372844376013,0.995997167994089));
#662=DIRECTION('',(0.380675303338953,0.923262380391649,0.051700003688031));
#663=DIRECTION('',(1.,0.,0.));
#664=DIRECTION('',(0.,1.,7.51101277651821E-17));
#665=DIRECTION('',(-0.0871557427476588,-0.0198372844376017,-0.995997167994089));
#666=DIRECTION('',(-0.380675303337513,-0.923262380392249,0.0517000036879172));
#667=DIRECTION('',(-1.,1.03258072777584E-33,0.));
#668=DIRECTION('',(0.,1.,2.77555756156289E-17));
#669=DIRECTION('',(1.,-1.03258072777584E-33,0.));
#670=DIRECTION('',(0.,0.,1.));
#671=DIRECTION('',(0.894932372451515,-0.440750651566551,0.0695335306306443));
#672=DIRECTION('',(1.,-1.03258072777584E-33,0.));
#673=DIRECTION('',(0.,1.,0.));
#674=DIRECTION('',(-0.894932372451515,0.440750651566551,0.0695335306306443));
#675=DIRECTION('',(-1.,1.03258072777584E-33,0.));
#676=DIRECTION('',(2.15712235538196E-16,-1.,0.));
#677=DIRECTION('',(-0.0871557427476578,0.995997167994089,0.0198372844376017));
#678=DIRECTION('',(0.380675303332456,0.0517000036875163,-0.923262380394356));
#679=DIRECTION('',(1.,0.,0.));
#680=DIRECTION('',(0.,1.11022302462516E-16,-1.));
#681=DIRECTION('',(-0.087155742747658,-0.995997167994089,0.019837284437602));
#682=DIRECTION('',(-0.38067530334184,0.0517000036882599,0.923262380390446));
#683=DIRECTION('',(-1.,1.03258072777584E-33,0.));
#684=DIRECTION('',(0.,6.12323399573677E-17,-1.));
#685=DIRECTION('',(1.,-1.03258072777584E-33,0.));
#686=DIRECTION('',(0.,0.,1.));
#687=DIRECTION('',(0.894932372451515,0.069533530630644,0.440750651566552));
#688=DIRECTION('',(1.,-1.03258072777584E-33,0.));
#689=DIRECTION('',(0.,1.,0.));
#690=DIRECTION('',(-0.894932372451515,0.0695335306306439,-0.440750651566551));
#691=DIRECTION('',(-1.,1.03258072777584E-33,0.));
#692=DIRECTION('',(2.15712235538196E-16,-1.,0.));
#693=DIRECTION('',(-0.0871557427476589,0.0198372844376013,-0.995997167994089));
#694=DIRECTION('',(0.380675303338953,-0.923262380391649,-0.051700003688031));
#695=DIRECTION('',(1.,0.,0.));
#696=DIRECTION('',(0.,-1.,0.));
#697=DIRECTION('',(-0.0871557427476578,0.0198372844376013,0.995997167994089));
#698=DIRECTION('',(-0.380675303348811,0.92326238038754,-0.0517000036888114));
#699=DIRECTION('',(-1.,1.03258072777584E-33,0.));
#700=DIRECTION('',(0.,-1.,1.22464679914735E-16));
#701=DIRECTION('',(1.,-1.03258072777584E-33,0.));
#702=DIRECTION('',(0.,0.,1.));
#703=DIRECTION('',(0.894932372451515,0.440750651566551,-0.0695335306306443));
#704=DIRECTION('',(1.,-1.03258072777584E-33,0.));
#705=DIRECTION('',(0.,1.,0.));
#706=DIRECTION('',(-0.894932372451515,-0.440750651566551,-0.0695335306306443));
#707=DIRECTION('',(-1.,1.03258072777584E-33,0.));
#708=DIRECTION('',(2.15712235538196E-16,-1.,0.));
#709=DIRECTION('',(-0.0871557427476578,-0.995997167994089,-0.0198372844376017));
#710=DIRECTION('',(0.380675303332456,-0.0517000036875163,0.923262380394356));
#711=DIRECTION('',(1.,0.,0.));
#712=DIRECTION('',(0.,1.11022302462516E-16,1.));
#713=DIRECTION('',(-0.087155742747658,0.995997167994089,-0.019837284437602));
#714=DIRECTION('',(-0.38067530334184,-0.0517000036882599,-0.923262380390446));
#715=DIRECTION('',(-1.,1.03258072777584E-33,0.));
#716=DIRECTION('',(0.,6.12323399573677E-17,1.));
#717=DIRECTION('',(1.,-1.03258072777584E-33,0.));
#718=DIRECTION('',(0.,0.,1.));
#719=DIRECTION('',(0.894932372451515,-0.069533530630644,-0.440750651566552));
#720=DIRECTION('',(1.,-1.03258072777584E-33,0.));
#721=DIRECTION('',(0.,1.,0.));
#722=DIRECTION('',(-0.894932372451515,-0.0695335306306439,0.440750651566551));
#723=DIRECTION('',(-1.,1.03258072777584E-33,0.));
#724=DIRECTION('',(2.15712235538196E-16,-1.,0.));
#725=DIRECTION('',(1.,-1.03258072777584E-33,0.));
#726=DIRECTION('',(0.,-1.,1.22464679914735E-16));
#727=DIRECTION('',(-1.,0.,0.));
#728=DIRECTION('',(0.,-1.,0.));
#729=DIRECTION('',(1.,-1.03258072777584E-33,0.));
#730=DIRECTION('',(0.,0.,1.));
#731=DIRECTION('',(-0.0871557427476582,-0.0198372844376013,-0.995997167994089));
#732=DIRECTION('',(0.,-0.999801715369461,0.0199130596414541));
#733=DIRECTION('',(0.989222028272389,-0.103536898689937,-0.103536898689934));
#734=DIRECTION('',(0.146423286333351,0.699485416500185,0.6994857920808));
#735=DIRECTION('',(-0.0871557427476582,-0.995997167994089,-0.019837284437602));
#736=DIRECTION('',(0.,-0.0199130596414548,0.999801715369461));
#737=DIRECTION('',(-0.0871557427476582,0.995997167994089,-0.019837284437602));
#738=DIRECTION('',(0.,-0.0199130596414548,-0.999801715369461));
#739=DIRECTION('',(0.989222028272389,0.103536898689937,-0.103536898689934));
#740=DIRECTION('',(0.146423286333351,-0.699485792080925,0.69948541650006));
#741=DIRECTION('',(-0.0871557427476582,0.0198372844376014,-0.995997167994089));
#742=DIRECTION('',(0.,-0.999801715369461,-0.0199130596414542));
#743=DIRECTION('',(-0.0871557427476582,0.0198372844376014,0.995997167994089));
#744=DIRECTION('',(0.,0.999801715369461,-0.0199130596414542));
#745=DIRECTION('',(0.98922202827239,0.103536898689937,0.103536898689934));
#746=DIRECTION('',(0.146423286333351,-0.699485416500149,-0.699485792080836));
#747=DIRECTION('',(-0.0871557427476582,0.995997167994089,0.019837284437602));
#748=DIRECTION('',(0.,0.0199130596414548,-0.999801715369461));
#749=DIRECTION('',(-0.0871557427476582,-0.995997167994089,0.019837284437602));
#750=DIRECTION('',(0.,0.0199130596414548,0.999801715369461));
#751=DIRECTION('',(0.989222028272389,-0.103536898689937,0.103536898689934));
#752=DIRECTION('',(0.146423286333351,0.699485792080925,-0.69948541650006));
#753=DIRECTION('',(-0.0871557427476582,-0.0198372844376013,0.995997167994089));
#754=DIRECTION('',(0.,0.999801715369461,0.0199130596414541));
#755=DIRECTION('',(0.,0.,1.));
#756=DIRECTION('',(-1.,0.,5.55111512312578E-17));
#757=DIRECTION('',(1.,-1.03258072777584E-33,0.));
#758=DIRECTION('',(1.03258072777584E-33,1.,0.));
#759=DIRECTION('',(1.,-1.03258072777584E-33,0.));
#760=DIRECTION('',(3.44984310185884E-16,-1.,0.));
#761=DIRECTION('',(0.996194698091746,0.00173553750342926,0.0871384611034079));
#762=DIRECTION('',(-0.0871557427476582,0.0198372844376014,0.995997167994089));
#763=DIRECTION('',(2.16840434497101E-18,0.999801715369461,-0.0199130596414542));
#764=DIRECTION('',(0.996194698091746,0.00173553750342937,-0.087138461103408));
#765=DIRECTION('',(-0.0871557427476582,0.0198372844376014,-0.995997167994089));
#766=DIRECTION('',(-2.16840434497101E-18,-0.99980171536946,-0.0199130596414542));
#767=DIRECTION('',(0.996194698091746,0.087138461103408,-0.0017355375034294));
#768=DIRECTION('',(1.,0.,0.));
#769=DIRECTION('',(1.08828577437281E-16,-0.0199130596414532,0.99980171536946));
#770=DIRECTION('',(-0.0871557427476582,0.995997167994089,-0.019837284437602));
#771=DIRECTION('',(2.16840434497101E-18,-0.0199130596414548,-0.999801715369461));
#772=DIRECTION('',(0.996194698091746,-0.087138461103408,-0.0017355375034294));
#773=DIRECTION('',(-0.0871557427476582,-0.995997167994089,-0.019837284437602));
#774=DIRECTION('',(-2.16840434497101E-18,-0.0199130596414548,0.99980171536946));
#775=DIRECTION('',(0.996194698091746,-0.00173553750342925,-0.087138461103408));
#776=DIRECTION('',(1.,0.,0.));
#777=DIRECTION('',(1.08828577437281E-16,0.99980171536946,0.0199130596414548));
#778=DIRECTION('',(0.996194698091746,-0.087138461103408,0.0017355375034294));
#779=DIRECTION('',(0.996194698091746,-0.00173553750342933,0.087138461103408));
#780=DIRECTION('',(1.,0.,0.));
#781=DIRECTION('',(1.08828577437281E-16,0.0199130596414532,-0.99980171536946));
#782=DIRECTION('',(0.996194698091746,0.087138461103408,0.0017355375034294));
#783=DIRECTION('',(1.,0.,0.));
#784=DIRECTION('',(1.08828577437281E-16,-0.99980171536946,-0.0199130596414548));
#785=DIRECTION('',(-0.0871557427476582,-0.0198372844376013,-0.995997167994089));
#786=DIRECTION('',(2.16840434497101E-18,-0.999801715369461,0.0199130596414541));
#787=DIRECTION('',(-0.0871557427476582,-0.995997167994089,0.019837284437602));
#788=DIRECTION('',(2.16840434497101E-18,0.0199130596414548,0.999801715369461));
#789=DIRECTION('',(-0.0871557427476582,-0.0198372844376013,0.995997167994089));
#790=DIRECTION('',(-2.16840434497101E-18,0.99980171536946,0.0199130596414541));
#791=DIRECTION('',(-0.0871557427476582,0.995997167994089,0.019837284437602));
#792=DIRECTION('',(-2.16840434497101E-18,0.0199130596414548,-0.99980171536946));
#793=DIRECTION('',(-1.,1.03258072777584E-33,0.));
#794=DIRECTION('',(-5.37744042197504E-17,-1.,0.));
#795=DIRECTION('',(1.,-1.03258072777584E-33,0.));
#796=DIRECTION('',(1.03258072777584E-33,1.,0.));
#797=DIRECTION('',(1.,-1.03258072777584E-33,0.));
#798=DIRECTION('',(0.,0.,1.));
#799=DIRECTION('',(1.,-1.03258072777584E-33,0.));
#800=DIRECTION('',(0.,1.,0.));
#801=DIRECTION('',(1.,-1.03258072777584E-33,0.));
#802=DIRECTION('',(0.,-1.,0.));
#803=DIRECTION('',(1.,-1.03258072777584E-33,0.));
#804=DIRECTION('',(-5.22057993078445E-17,-1.,0.));
#805=CARTESIAN_POINT('',(0.,0.,0.));
#806=CARTESIAN_POINT('',(2.7238475,1.0764916985878E-32,0.));
#807=CARTESIAN_POINT('',(2.7238475,1.25,1.53080849893419E-16));
#808=CARTESIAN_POINT('',(3.,1.04797672364509E-32,0.));
#809=CARTESIAN_POINT('',(3.,0.973947500000002,-1.19274168841257E-16));
#810=CARTESIAN_POINT('',(2.86192375,1.06223421111644E-32,0.));
#811=CARTESIAN_POINT('',(0.900000000000001,1.26481867647801E-32,0.));
#812=CARTESIAN_POINT('',(0.900000000000001,1.25,0.));
#813=CARTESIAN_POINT('',(1.95,1.15639770006155E-32,0.));
#814=CARTESIAN_POINT('',(3.,0.625000000000001,0.));
#815=CARTESIAN_POINT('',(-1.79438684304787,1.27949164618632,-0.189318149542134));
#816=CARTESIAN_POINT('',(-1.87522954046863,1.30739816411958,-0.195836557439419));
#817=CARTESIAN_POINT('',(-1.832435117276,1.2009955006916,-0.194211010809871));
#818=CARTESIAN_POINT('',(-1.832435117276,0.,-5.7611409420594E-17));
#819=CARTESIAN_POINT('',(-1.832435117276,1.2009955006916,0.194211010809871));
#820=CARTESIAN_POINT('',(-1.79438684304787,1.27949164618632,0.189318149542135));
#821=CARTESIAN_POINT('',(-1.87522954046863,1.30739816411958,0.195836557439419));
#822=CARTESIAN_POINT('',(-1.87522954046863,1.57690581238572E-32,0.));
#823=CARTESIAN_POINT('',(-1.79406210534856,1.54300233741942E-32,0.));
#824=CARTESIAN_POINT('',(-1.43362396824542,1.00458258816534,-0.163224594293283));
#825=CARTESIAN_POINT('',(-0.967610718928327,0.775072907213131,-0.12701677843686));
#826=CARTESIAN_POINT('',(-0.967610718928327,1.45766456001331E-32,0.));
#827=CARTESIAN_POINT('',(-0.967610718928327,0.775072907213131,0.12701677843686));
#828=CARTESIAN_POINT('',(-1.43362396824542,1.00458258816534,0.163224594293283));
#829=CARTESIAN_POINT('',(-1.43362396824542,1.50578419002661E-32,0.));
#830=CARTESIAN_POINT('',(-1.7943868430479,-0.189318149542137,-1.2794916461863));
#831=CARTESIAN_POINT('',(-1.87522954046863,-0.195836557439418,-1.30739816411958));
#832=CARTESIAN_POINT('',(-1.832435117276,-0.19421101080987,-1.2009955006916));
#833=CARTESIAN_POINT('',(-1.832435117276,-6.05743225247072E-17,0.));
#834=CARTESIAN_POINT('',(-1.832435117276,0.19421101080987,-1.2009955006916));
#835=CARTESIAN_POINT('',(-1.79438684304785,0.189318149542131,-1.27949164618633));
#836=CARTESIAN_POINT('',(-1.87522954046863,0.195836557439418,-1.30739816411958));
#837=CARTESIAN_POINT('',(-1.87522954046863,1.57690581238572E-32,0.));
#838=CARTESIAN_POINT('',(-1.79406210534856,1.54300233741942E-32,0.));
#839=CARTESIAN_POINT('',(-1.43362396824542,-0.163224594293282,-1.00458258816534));
#840=CARTESIAN_POINT('',(-0.967610718928327,-0.12701677843686,-0.775072907213131));
#841=CARTESIAN_POINT('',(-0.967610718928327,1.45766456001331E-32,0.));
#842=CARTESIAN_POINT('',(-0.967610718928327,0.12701677843686,-0.775072907213131));
#843=CARTESIAN_POINT('',(-1.43362396824542,0.163224594293282,-1.00458258816534));
#844=CARTESIAN_POINT('',(-1.43362396824542,1.50578419002661E-32,0.));
#845=CARTESIAN_POINT('',(-1.79438684304787,-1.27949164618632,0.189318149542134));
#846=CARTESIAN_POINT('',(-1.87522954046863,-1.30739816411958,0.195836557439419));
#847=CARTESIAN_POINT('',(-1.832435117276,-1.2009955006916,0.194211010809871));
#848=CARTESIAN_POINT('',(-1.832435117276,0.,-1.4899017082556E-16));
#849=CARTESIAN_POINT('',(-1.832435117276,-1.2009955006916,-0.194211010809871));
#850=CARTESIAN_POINT('',(-1.79438684304781,-1.27949164618634,-0.189318149542129));
#851=CARTESIAN_POINT('',(-1.87522954046863,-1.30739816411958,-0.195836557439419));
#852=CARTESIAN_POINT('',(-1.87522954046863,1.57690581238572E-32,0.));
#853=CARTESIAN_POINT('',(-1.79406210534856,1.54300233741942E-32,0.));
#854=CARTESIAN_POINT('',(-1.43362396824542,-1.00458258816534,0.163224594293283));
#855=CARTESIAN_POINT('',(-0.967610718928327,-0.775072907213131,0.12701677843686));
#856=CARTESIAN_POINT('',(-0.967610718928327,1.45766456001331E-32,0.));
#857=CARTESIAN_POINT('',(-0.967610718928327,-0.775072907213131,-0.12701677843686));
#858=CARTESIAN_POINT('',(-1.43362396824542,-1.00458258816534,-0.163224594293283));
#859=CARTESIAN_POINT('',(-1.43362396824542,1.50578419002661E-32,0.));
#860=CARTESIAN_POINT('',(-1.7943868430479,0.189318149542137,1.2794916461863));
#861=CARTESIAN_POINT('',(-1.87522954046863,0.195836557439418,1.30739816411958));
#862=CARTESIAN_POINT('',(-1.832435117276,0.19421101080987,1.2009955006916));
#863=CARTESIAN_POINT('',(-1.832435117276,-6.05743225247072E-17,0.));
#864=CARTESIAN_POINT('',(-1.832435117276,-0.19421101080987,1.2009955006916));
#865=CARTESIAN_POINT('',(-1.79438684304785,-0.189318149542131,1.27949164618633));
#866=CARTESIAN_POINT('',(-1.87522954046863,-0.195836557439418,1.30739816411958));
#867=CARTESIAN_POINT('',(-1.87522954046863,1.57690581238572E-32,0.));
#868=CARTESIAN_POINT('',(-1.79406210534856,1.54300233741942E-32,0.));
#869=CARTESIAN_POINT('',(-1.43362396824542,0.163224594293282,1.00458258816534));
#870=CARTESIAN_POINT('',(-0.967610718928327,0.12701677843686,0.775072907213131));
#871=CARTESIAN_POINT('',(-0.967610718928327,1.45766456001331E-32,0.));
#872=CARTESIAN_POINT('',(-0.967610718928327,-0.12701677843686,0.775072907213131));
#873=CARTESIAN_POINT('',(-1.43362396824542,-0.163224594293282,1.00458258816534));
#874=CARTESIAN_POINT('',(-1.43362396824542,1.50578419002661E-32,0.));
#875=CARTESIAN_POINT('',(-1.5116660943485,1.80423282048859E-32,0.));
#876=CARTESIAN_POINT('',(-1.5116660943485,2.08818927798052,0.));
#877=CARTESIAN_POINT('',(-0.857252472840809,0.,-3.02495607415907E-16));
#878=CARTESIAN_POINT('',(-0.857252472840809,2.4700640839997,-6.04991214831813E-16));
#879=CARTESIAN_POINT('',(-0.829332875478808,1.44338625639087E-32,0.));
#880=CARTESIAN_POINT('',(1.89058325352266,-0.0021433203648867,-0.107612562608864));
#881=CARTESIAN_POINT('',(-2.07214236596467,0.410802402090645,0.230925119779358));
#882=CARTESIAN_POINT('',(-2.05219628671087,0.416149118672208,0.416149119775024));
#883=CARTESIAN_POINT('',(-2.07214236596467,0.230925119779358,0.410802402090645));
#884=CARTESIAN_POINT('',(1.89058325352266,-0.107612562608864,-0.00214332036488678));
#885=CARTESIAN_POINT('',(1.89058325352266,0.107612562608864,-0.00214332036488678));
#886=CARTESIAN_POINT('',(-2.07214236596467,-0.230925119779358,0.410802402090645));
#887=CARTESIAN_POINT('',(-2.05219628671087,-0.416149119775027,0.41614911867221));
#888=CARTESIAN_POINT('',(-2.07214236596467,-0.410802402090645,0.230925119779358));
#889=CARTESIAN_POINT('',(1.89058325352266,0.0021433203648867,-0.107612562608864));
#890=CARTESIAN_POINT('',(1.89058325352266,0.0021433203648867,0.107612562608864));
#891=CARTESIAN_POINT('',(-2.07214236596467,-0.410802402090645,-0.230925119779358));
#892=CARTESIAN_POINT('',(-2.05219628671087,-0.416149118672209,-0.416149119775026));
#893=CARTESIAN_POINT('',(-2.07214236596467,-0.230925119779358,-0.410802402090645));
#894=CARTESIAN_POINT('',(1.89058325352266,0.107612562608864,0.00214332036488678));
#895=CARTESIAN_POINT('',(1.89058325352266,-0.107612562608864,0.00214332036488677));
#896=CARTESIAN_POINT('',(-2.07214236596467,0.230925119779358,-0.410802402090645));
#897=CARTESIAN_POINT('',(-2.05219628671087,0.416149119775027,-0.41614911867221));
#898=CARTESIAN_POINT('',(-2.07214236596467,0.410802402090645,-0.230925119779358));
#899=CARTESIAN_POINT('',(1.89058325352266,-0.0021433203648867,0.107612562608864));
#900=CARTESIAN_POINT('',(1.9,0.,0.));
#901=CARTESIAN_POINT('',(0.,1.35775094197784E-32,0.));
#902=CARTESIAN_POINT('',(0.,2.5,0.));
#903=CARTESIAN_POINT('',(-0.628573358853814,1.42265621561241E-32,0.));
#904=CARTESIAN_POINT('',(-0.776040495538023,-0.408544376216085,-0.117553383673385));
#905=CARTESIAN_POINT('',(-0.842056753567639,-0.536813298621824,-0.120775470047574));
#906=CARTESIAN_POINT('',(-0.967610718928327,-0.775072907213129,-0.12701677843686));
#907=CARTESIAN_POINT('',(-0.776040495538024,-0.408544376216085,-0.117553383673385));
#908=CARTESIAN_POINT('',(-2.1,-0.410850934740656,-0.233361863685414));
#909=CARTESIAN_POINT('',(-2.1,-1.3327696725241,-0.215000000000001));
#910=CARTESIAN_POINT('',(-2.1,-0.410850934740656,0.233361863685414));
#911=CARTESIAN_POINT('',(-0.776040495538024,-0.408544376216085,0.117553383673384));
#912=CARTESIAN_POINT('',(-0.967610718928327,-0.775072907213129,0.12701677843686));
#913=CARTESIAN_POINT('',(-0.842056753567639,-0.536813298621823,0.120775470047574));
#914=CARTESIAN_POINT('',(-0.776040495538023,-0.408544376216085,0.117553383673384));
#915=CARTESIAN_POINT('',(-2.1,-0.410850934740656,0.233361863685414));
#916=CARTESIAN_POINT('',(-2.1,-0.233361863685413,0.410850934740656));
#917=CARTESIAN_POINT('',(-0.776040495538023,-0.117553383673384,0.408544376216085));
#918=CARTESIAN_POINT('',(-0.776040495538024,-0.408544376216085,0.117553383673384));
#919=CARTESIAN_POINT('',(-0.758588817206587,-0.374635941528061,0.116701611448833));
#920=CARTESIAN_POINT('',(-0.741437701466561,-0.339677502043554,0.12177540377287));
#921=CARTESIAN_POINT('',(-0.727548790940615,-0.306110858217606,0.133413578980464));
#922=CARTESIAN_POINT('',(-0.718148047857765,-0.283391193189036,0.141290906354371));
#923=CARTESIAN_POINT('',(-0.710104319810509,-0.260770698327026,0.152408103119155));
#924=CARTESIAN_POINT('',(-0.705277229094298,-0.23979930604241,0.166673772992599));
#925=CARTESIAN_POINT('',(-0.701185841766821,-0.222024191863457,0.178765192932597));
#926=CARTESIAN_POINT('',(-0.699448767696538,-0.205063498315939,0.193451966965474));
#927=CARTESIAN_POINT('',(-0.700579979778932,-0.190392028930644,0.20964964938626));
#928=CARTESIAN_POINT('',(-0.701710791009362,-0.17572575847084,0.225841592058574));
#929=CARTESIAN_POINT('',(-0.705672457395073,-0.16300633771491,0.243874476311592));
#930=CARTESIAN_POINT('',(-0.711446852104046,-0.152841285553112,0.262364617226019));
#931=CARTESIAN_POINT('',(-0.719514959636931,-0.138638457715362,0.288199436755061));
#932=CARTESIAN_POINT('',(-0.731133405094301,-0.128887542501735,0.315670598816334));
#933=CARTESIAN_POINT('',(-0.743775970911107,-0.123327927806791,0.342937956441534));
#934=CARTESIAN_POINT('',(-0.753887441178997,-0.118881371664357,0.364746272878741));
#935=CARTESIAN_POINT('',(-0.764856249482509,-0.117007508946512,0.386813499121871));
#936=CARTESIAN_POINT('',(-0.776040495538023,-0.117553383673384,0.408544376216085));
#937=CARTESIAN_POINT('',(-2.1,-0.414457824602038,0.414457824602039));
#938=CARTESIAN_POINT('',(-0.776040495538023,-0.117553383673384,0.408544376216085));
#939=CARTESIAN_POINT('',(-0.842056753567638,-0.120775470047573,0.536813298621821));
#940=CARTESIAN_POINT('',(-0.967610718928327,-0.12701677843686,0.775072907213129));
#941=CARTESIAN_POINT('',(-2.1,-0.215,1.3327696725241));
#942=CARTESIAN_POINT('',(-2.1,0.233361863685413,0.410850934740656));
#943=CARTESIAN_POINT('',(-0.776040495538023,0.117553383673384,0.408544376216085));
#944=CARTESIAN_POINT('',(-0.967610718928327,0.12701677843686,0.775072907213129));
#945=CARTESIAN_POINT('',(-0.842056753567639,0.120775470047573,0.536813298621824));
#946=CARTESIAN_POINT('',(-0.776040495538023,0.117553383673384,0.408544376216085));
#947=CARTESIAN_POINT('',(-2.1,0.233361863685413,0.410850934740656));
#948=CARTESIAN_POINT('',(-2.1,0.410850934740656,0.233361863685414));
#949=CARTESIAN_POINT('',(-0.776040495538023,0.408544376216085,0.117553383673385));
#950=CARTESIAN_POINT('',(-0.776040495538023,0.117553383673384,0.408544376216085));
#951=CARTESIAN_POINT('',(-0.758588817206587,0.116701611448832,0.374635941528062));
#952=CARTESIAN_POINT('',(-0.74143770146656,0.12177540377287,0.339677502043554));
#953=CARTESIAN_POINT('',(-0.727548790940615,0.133413578980463,0.306110858217606));
#954=CARTESIAN_POINT('',(-0.718148047857765,0.141290906354371,0.283391193189036));
#955=CARTESIAN_POINT('',(-0.710104319810509,0.152408103119154,0.260770698327026));
#956=CARTESIAN_POINT('',(-0.705277229094298,0.166673772992598,0.23979930604241));
#957=CARTESIAN_POINT('',(-0.701185841766821,0.178765192932596,0.222024191863457));
#958=CARTESIAN_POINT('',(-0.699448767696538,0.193451966965473,0.205063498315939));
#959=CARTESIAN_POINT('',(-0.700579979778932,0.20964964938626,0.190392028930645));
#960=CARTESIAN_POINT('',(-0.701710791009362,0.225841592058573,0.17572575847084));
#961=CARTESIAN_POINT('',(-0.705672457395072,0.243874476311591,0.163006337714911));
#962=CARTESIAN_POINT('',(-0.711446852104046,0.262364617226019,0.152841285553113));
#963=CARTESIAN_POINT('',(-0.719514959636931,0.28819943675506,0.138638457715363));
#964=CARTESIAN_POINT('',(-0.731133405094301,0.315670598816333,0.128887542501735));
#965=CARTESIAN_POINT('',(-0.743775970911107,0.342937956441534,0.123327927806792));
#966=CARTESIAN_POINT('',(-0.753887441178997,0.364746272878741,0.118881371664358));
#967=CARTESIAN_POINT('',(-0.764856249482509,0.386813499121871,0.117007508946513));
#968=CARTESIAN_POINT('',(-0.776040495538023,0.408544376216085,0.117553383673385));
#969=CARTESIAN_POINT('',(-2.1,0.414457824602038,0.414457824602039));
#970=CARTESIAN_POINT('',(-2.1,0.233361863685413,-0.410850934740656));
#971=CARTESIAN_POINT('',(-0.776040495538023,0.117553383673384,-0.408544376216085));
#972=CARTESIAN_POINT('',(-0.776040495538023,0.408544376216085,-0.117553383673385));
#973=CARTESIAN_POINT('',(-0.758588817206587,0.374635941528061,-0.116701611448833));
#974=CARTESIAN_POINT('',(-0.74143770146656,0.339677502043554,-0.121775403772871));
#975=CARTESIAN_POINT('',(-0.727548790940615,0.306110858217606,-0.133413578980464));
#976=CARTESIAN_POINT('',(-0.718148047857765,0.283391193189036,-0.141290906354371));
#977=CARTESIAN_POINT('',(-0.710104319810509,0.260770698327026,-0.152408103119155));
#978=CARTESIAN_POINT('',(-0.705277229094298,0.23979930604241,-0.166673772992599));
#979=CARTESIAN_POINT('',(-0.701185841766821,0.222024191863457,-0.178765192932597));
#980=CARTESIAN_POINT('',(-0.699448767696538,0.205063498315939,-0.193451966965474));
#981=CARTESIAN_POINT('',(-0.700579979778932,0.190392028930644,-0.20964964938626));
#982=CARTESIAN_POINT('',(-0.701710791009362,0.17572575847084,-0.225841592058574));
#983=CARTESIAN_POINT('',(-0.705672457395073,0.16300633771491,-0.243874476311592));
#984=CARTESIAN_POINT('',(-0.711446852104046,0.152841285553112,-0.262364617226019));
#985=CARTESIAN_POINT('',(-0.719514959636931,0.138638457715362,-0.288199436755061));
#986=CARTESIAN_POINT('',(-0.731133405094301,0.128887542501735,-0.315670598816334));
#987=CARTESIAN_POINT('',(-0.743775970911107,0.123327927806791,-0.342937956441534));
#988=CARTESIAN_POINT('',(-0.753887441178997,0.118881371664357,-0.364746272878741));
#989=CARTESIAN_POINT('',(-0.764856249482509,0.117007508946512,-0.386813499121871));
#990=CARTESIAN_POINT('',(-0.776040495538023,0.117553383673384,-0.408544376216085));
#991=CARTESIAN_POINT('',(-0.776040495538023,0.408544376216085,-0.117553383673385));
#992=CARTESIAN_POINT('',(-2.1,0.410850934740656,-0.233361863685414));
#993=CARTESIAN_POINT('',(-2.1,0.414457824602038,-0.414457824602039));
#994=CARTESIAN_POINT('',(-0.776040495538023,-0.117553383673384,-0.408544376216085));
#995=CARTESIAN_POINT('',(-0.758588817206587,-0.116701611448833,-0.374635941528061));
#996=CARTESIAN_POINT('',(-0.74143770146656,-0.12177540377287,-0.339677502043554));
#997=CARTESIAN_POINT('',(-0.727548790940615,-0.133413578980463,-0.306110858217606));
#998=CARTESIAN_POINT('',(-0.718148047857765,-0.141290906354371,-0.283391193189036));
#999=CARTESIAN_POINT('',(-0.710104319810509,-0.152408103119154,-0.260770698327026));
#1000=CARTESIAN_POINT('',(-0.705277229094298,-0.166673772992598,-0.23979930604241));
#1001=CARTESIAN_POINT('',(-0.701185841766821,-0.178765192932596,-0.222024191863457));
#1002=CARTESIAN_POINT('',(-0.699448767696538,-0.193451966965473,-0.205063498315939));
#1003=CARTESIAN_POINT('',(-0.700579979778932,-0.20964964938626,-0.190392028930645));
#1004=CARTESIAN_POINT('',(-0.701710791009362,-0.225841592058573,-0.17572575847084));
#1005=CARTESIAN_POINT('',(-0.705672457395072,-0.243874476311591,-0.163006337714911));
#1006=CARTESIAN_POINT('',(-0.711446852104046,-0.262364617226019,-0.152841285553113));
#1007=CARTESIAN_POINT('',(-0.719514959636931,-0.28819943675506,-0.138638457715363));
#1008=CARTESIAN_POINT('',(-0.731133405094301,-0.315670598816333,-0.128887542501735));
#1009=CARTESIAN_POINT('',(-0.743775970911107,-0.342937956441534,-0.123327927806792));
#1010=CARTESIAN_POINT('',(-0.753887441178997,-0.364746272878741,-0.118881371664358));
#1011=CARTESIAN_POINT('',(-0.764856249482509,-0.386813499121871,-0.117007508946513));
#1012=CARTESIAN_POINT('',(-0.776040495538024,-0.408544376216085,-0.117553383673385));
#1013=CARTESIAN_POINT('',(-0.776040495538023,-0.117553383673384,-0.408544376216085));
#1014=CARTESIAN_POINT('',(-2.1,-0.233361863685413,-0.410850934740656));
#1015=CARTESIAN_POINT('',(-2.1,-0.414457824602038,-0.414457824602039));
#1016=CARTESIAN_POINT('',(-0.776040495538023,0.408544376216085,0.117553383673385));
#1017=CARTESIAN_POINT('',(-0.842056753567644,0.536813298621832,0.120775470047574));
#1018=CARTESIAN_POINT('',(-0.967610718928327,0.775072907213129,0.12701677843686));
#1019=CARTESIAN_POINT('',(-2.1,1.3327696725241,0.215000000000001));
#1020=CARTESIAN_POINT('',(-0.776040495538023,0.117553383673384,-0.408544376216085));
#1021=CARTESIAN_POINT('',(-0.842056753567644,0.120775470047574,-0.536813298621832));
#1022=CARTESIAN_POINT('',(-0.967610718928327,0.12701677843686,-0.775072907213129));
#1023=CARTESIAN_POINT('',(-2.1,0.215,-1.3327696725241));
#1024=CARTESIAN_POINT('',(-0.967610718928327,0.775072907213129,-0.12701677843686));
#1025=CARTESIAN_POINT('',(-0.842056753567639,0.536813298621823,-0.120775470047574));
#1026=CARTESIAN_POINT('',(-0.776040495538023,0.408544376216085,-0.117553383673384));
#1027=CARTESIAN_POINT('',(-2.1,0.410850934740656,-0.233361863685414));
#1028=CARTESIAN_POINT('',(-0.967610718928327,-0.12701677843686,-0.775072907213129));
#1029=CARTESIAN_POINT('',(-0.842056753567639,-0.120775470047573,-0.536813298621824));
#1030=CARTESIAN_POINT('',(-0.776040495538023,-0.117553383673384,-0.408544376216085));
#1031=CARTESIAN_POINT('',(-2.1,-0.233361863685413,-0.410850934740656));
#1032=CARTESIAN_POINT('',(-0.758805359464164,1.43610372100941E-32,0.));
#1033=CARTESIAN_POINT('',(0.,1.35775094197784E-32,0.));
#1034=CARTESIAN_POINT('',(2.77555756156289E-16,1.128215,0.));
#1035=CARTESIAN_POINT('',(1.38777878078145E-16,1.8141075,0.));
#1036=CARTESIAN_POINT('',(0.623947500000002,1.29332332561345E-32,0.));
#1037=CARTESIAN_POINT('',(0.623947500000002,1.128215,0.));
#1038=CARTESIAN_POINT('',(0.311973750000001,1.32553713379564E-32,0.));
#1039=CARTESIAN_POINT('',(0.761973750000001,1.27907100104573E-32,0.));
#1040=MECHANICAL_DESIGN_GEOMETRIC_PRESENTATION_REPRESENTATION('',(#94),
#1041);
#1041=(
GEOMETRIC_REPRESENTATION_CONTEXT(3)
GLOBAL_UNCERTAINTY_ASSIGNED_CONTEXT((#1042))
GLOBAL_UNIT_ASSIGNED_CONTEXT((#1048,#1044,#1043))
REPRESENTATION_CONTEXT('RasPi Screws','TOP_LEVEL_ASSEMBLY_PART')
);
#1042=UNCERTAINTY_MEASURE_WITH_UNIT(LENGTH_MEASURE(0.0508),#1048,
'DISTANCE_ACCURACY_VALUE','Maximum Tolerance applied to model');
#1043=(
NAMED_UNIT(*)
SI_UNIT($,.STERADIAN.)
SOLID_ANGLE_UNIT()
);
#1044=(
CONVERSION_BASED_UNIT('DEGREE',#1046)
NAMED_UNIT(#1045)
PLANE_ANGLE_UNIT()
);
#1045=DIMENSIONAL_EXPONENTS(0.,0.,0.,0.,0.,0.,0.);
#1046=PLANE_ANGLE_MEASURE_WITH_UNIT(PLANE_ANGLE_MEASURE(0.0174532925),#1047);
#1047=(
NAMED_UNIT(*)
PLANE_ANGLE_UNIT()
SI_UNIT($,.RADIAN.)
);
#1048=(
LENGTH_UNIT()
NAMED_UNIT(*)
SI_UNIT(.MILLI.,.METRE.)
);
ENDSEC;
END-ISO-10303-21;
