ISO-10303-21;
HEADER;
/* Generated by software containing ST-Developer
 * from STEP Tools, Inc. (www.steptools.com) 
 */
/* OPTION: using custom schema-name function */

FILE_DESCRIPTION(
/* description */ (''),
/* implementation_level */ '2;1');

FILE_NAME(
/* name */ 'Collector Housing Plate Front 4 v2.0.stp',
/* time_stamp */ '2021-05-19T12:36:28+02:00',
/* author */ (''),
/* organization */ (''),
/* preprocessor_version */ 'ST-DEVELOPER v16.7',
/* originating_system */ 'SIEMENS PLM Software NX 12.0',
/* authorisation */ '');

FILE_SCHEMA (('AUTOMOTIVE_DESIGN { 1 0 10303 214 3 1 1 1 }'));
ENDSEC;

DATA;
#10=SHAPE_REPRESENTATION_RELATIONSHIP('None',
'relationship between Collector Housing Plate Front 4 v2.0-None and Co
llector Housing Plate Front 4 v2.0-None',#22,#11);
#11=ADVANCED_BREP_SHAPE_REPRESENTATION(
'Collector Housing Plate Front 4 v2.0-None',(#32),#295);
#12=SHAPE_DEFINITION_REPRESENTATION(#13,#22);
#13=PRODUCT_DEFINITION_SHAPE('','',#14);
#14=PRODUCT_DEFINITION(' ','',#16,#15);
#15=PRODUCT_DEFINITION_CONTEXT('part definition',#21,'design');
#16=PRODUCT_DEFINITION_FORMATION_WITH_SPECIFIED_SOURCE(' ',' ',#18,
 .NOT_KNOWN.);
#17=PRODUCT_RELATED_PRODUCT_CATEGORY('part','',(#18));
#18=PRODUCT('Collector Housing Plate Front 4 v2.0',
'Collector Housing Plate Front 4 v2.0',' ',(#19));
#19=PRODUCT_CONTEXT(' ',#21,'mechanical');
#20=APPLICATION_PROTOCOL_DEFINITION('international standard',
'automotive_design',2010,#21);
#21=APPLICATION_CONTEXT(
'core data for automotive mechanical design processes');
#22=SHAPE_REPRESENTATION('Collector Housing Plate Front 4 v2.0-None',(#188),
#295);
#23=PRESENTATION_LAYER_ASSIGNMENT('1','Layer 1',(#32));
#24=STYLED_ITEM('',(#25),#32);
#25=PRESENTATION_STYLE_ASSIGNMENT((#26));
#26=SURFACE_STYLE_USAGE(.BOTH.,#27);
#27=SURFACE_SIDE_STYLE('',(#28));
#28=SURFACE_STYLE_FILL_AREA(#29);
#29=FILL_AREA_STYLE('',(#30));
#30=FILL_AREA_STYLE_COLOUR('',#31);
#31=COLOUR_RGB('Medium Gray',0.490196078431373,0.490196078431373,0.490196078431373);
#32=MANIFOLD_SOLID_BREP('',#33);
#33=CLOSED_SHELL('',(#58,#59,#60,#61,#62,#63,#64,#65,#66,#67));
#34=CONICAL_SURFACE('',#203,5.,45.);
#35=CONICAL_SURFACE('',#204,5.,45.);
#36=CYLINDRICAL_SURFACE('',#200,2.);
#37=CYLINDRICAL_SURFACE('',#202,2.);
#38=FACE_BOUND('',#82,.T.);
#39=FACE_BOUND('',#83,.T.);
#40=FACE_BOUND('',#84,.T.);
#41=FACE_BOUND('',#85,.T.);
#42=FACE_BOUND('',#86,.T.);
#43=FACE_BOUND('',#87,.T.);
#44=FACE_BOUND('',#88,.T.);
#45=FACE_BOUND('',#89,.T.);
#46=FACE_BOUND('',#90,.T.);
#47=FACE_BOUND('',#91,.T.);
#48=FACE_BOUND('',#92,.T.);
#49=FACE_BOUND('',#93,.T.);
#50=FACE_BOUND('',#94,.T.);
#51=FACE_BOUND('',#95,.T.);
#52=CIRCLE('',#193,5.);
#53=CIRCLE('',#194,5.);
#54=CIRCLE('',#196,2.);
#55=CIRCLE('',#197,2.);
#56=CIRCLE('',#199,2.);
#57=CIRCLE('',#201,2.);
#58=ADVANCED_FACE('',(#74),#68,.F.);
#59=ADVANCED_FACE('',(#75),#69,.F.);
#60=ADVANCED_FACE('',(#76),#70,.F.);
#61=ADVANCED_FACE('',(#77),#71,.F.);
#62=ADVANCED_FACE('',(#38,#39,#40),#72,.T.);
#63=ADVANCED_FACE('',(#41,#42,#43),#73,.F.);
#64=ADVANCED_FACE('',(#44,#45),#36,.F.);
#65=ADVANCED_FACE('',(#46,#47),#37,.F.);
#66=ADVANCED_FACE('',(#48,#49),#34,.F.);
#67=ADVANCED_FACE('',(#50,#51),#35,.F.);
#68=PLANE('',#189);
#69=PLANE('',#190);
#70=PLANE('',#191);
#71=PLANE('',#192);
#72=PLANE('',#195);
#73=PLANE('',#198);
#74=FACE_OUTER_BOUND('',#78,.T.);
#75=FACE_OUTER_BOUND('',#79,.T.);
#76=FACE_OUTER_BOUND('',#80,.T.);
#77=FACE_OUTER_BOUND('',#81,.T.);
#78=EDGE_LOOP('',(#96,#97,#98,#99));
#79=EDGE_LOOP('',(#100,#101,#102,#103));
#80=EDGE_LOOP('',(#104,#105,#106,#107));
#81=EDGE_LOOP('',(#108,#109,#110,#111));
#82=EDGE_LOOP('',(#112));
#83=EDGE_LOOP('',(#113));
#84=EDGE_LOOP('',(#114,#115,#116,#117));
#85=EDGE_LOOP('',(#118));
#86=EDGE_LOOP('',(#119));
#87=EDGE_LOOP('',(#120,#121,#122,#123));
#88=EDGE_LOOP('',(#124));
#89=EDGE_LOOP('',(#125));
#90=EDGE_LOOP('',(#126));
#91=EDGE_LOOP('',(#127));
#92=EDGE_LOOP('',(#128));
#93=EDGE_LOOP('',(#129));
#94=EDGE_LOOP('',(#130));
#95=EDGE_LOOP('',(#131));
#96=ORIENTED_EDGE('',*,*,#146,.T.);
#97=ORIENTED_EDGE('',*,*,#147,.F.);
#98=ORIENTED_EDGE('',*,*,#148,.F.);
#99=ORIENTED_EDGE('',*,*,#149,.T.);
#100=ORIENTED_EDGE('',*,*,#150,.T.);
#101=ORIENTED_EDGE('',*,*,#151,.F.);
#102=ORIENTED_EDGE('',*,*,#152,.F.);
#103=ORIENTED_EDGE('',*,*,#147,.T.);
#104=ORIENTED_EDGE('',*,*,#153,.T.);
#105=ORIENTED_EDGE('',*,*,#154,.F.);
#106=ORIENTED_EDGE('',*,*,#155,.F.);
#107=ORIENTED_EDGE('',*,*,#151,.T.);
#108=ORIENTED_EDGE('',*,*,#156,.T.);
#109=ORIENTED_EDGE('',*,*,#149,.F.);
#110=ORIENTED_EDGE('',*,*,#157,.F.);
#111=ORIENTED_EDGE('',*,*,#154,.T.);
#112=ORIENTED_EDGE('',*,*,#158,.T.);
#113=ORIENTED_EDGE('',*,*,#159,.T.);
#114=ORIENTED_EDGE('',*,*,#148,.T.);
#115=ORIENTED_EDGE('',*,*,#152,.T.);
#116=ORIENTED_EDGE('',*,*,#155,.T.);
#117=ORIENTED_EDGE('',*,*,#157,.T.);
#118=ORIENTED_EDGE('',*,*,#160,.T.);
#119=ORIENTED_EDGE('',*,*,#161,.T.);
#120=ORIENTED_EDGE('',*,*,#146,.F.);
#121=ORIENTED_EDGE('',*,*,#156,.F.);
#122=ORIENTED_EDGE('',*,*,#153,.F.);
#123=ORIENTED_EDGE('',*,*,#150,.F.);
#124=ORIENTED_EDGE('',*,*,#162,.T.);
#125=ORIENTED_EDGE('',*,*,#161,.F.);
#126=ORIENTED_EDGE('',*,*,#163,.T.);
#127=ORIENTED_EDGE('',*,*,#160,.F.);
#128=ORIENTED_EDGE('',*,*,#163,.F.);
#129=ORIENTED_EDGE('',*,*,#158,.F.);
#130=ORIENTED_EDGE('',*,*,#162,.F.);
#131=ORIENTED_EDGE('',*,*,#159,.F.);
#132=VERTEX_POINT('',#253);
#133=VERTEX_POINT('',#254);
#134=VERTEX_POINT('',#256);
#135=VERTEX_POINT('',#258);
#136=VERTEX_POINT('',#262);
#137=VERTEX_POINT('',#264);
#138=VERTEX_POINT('',#268);
#139=VERTEX_POINT('',#270);
#140=VERTEX_POINT('',#277);
#141=VERTEX_POINT('',#279);
#142=VERTEX_POINT('',#282);
#143=VERTEX_POINT('',#284);
#144=VERTEX_POINT('',#287);
#145=VERTEX_POINT('',#290);
#146=EDGE_CURVE('',#132,#133,#164,.T.);
#147=EDGE_CURVE('',#134,#133,#165,.T.);
#148=EDGE_CURVE('',#135,#134,#166,.T.);
#149=EDGE_CURVE('',#135,#132,#167,.T.);
#150=EDGE_CURVE('',#133,#136,#168,.T.);
#151=EDGE_CURVE('',#137,#136,#169,.T.);
#152=EDGE_CURVE('',#134,#137,#170,.T.);
#153=EDGE_CURVE('',#136,#138,#171,.T.);
#154=EDGE_CURVE('',#139,#138,#172,.T.);
#155=EDGE_CURVE('',#137,#139,#173,.T.);
#156=EDGE_CURVE('',#138,#132,#174,.T.);
#157=EDGE_CURVE('',#139,#135,#175,.T.);
#158=EDGE_CURVE('',#140,#140,#52,.T.);
#159=EDGE_CURVE('',#141,#141,#53,.T.);
#160=EDGE_CURVE('',#142,#142,#54,.T.);
#161=EDGE_CURVE('',#143,#143,#55,.T.);
#162=EDGE_CURVE('',#144,#144,#56,.T.);
#163=EDGE_CURVE('',#145,#145,#57,.T.);
#164=LINE('',#252,#176);
#165=LINE('',#255,#177);
#166=LINE('',#257,#178);
#167=LINE('',#259,#179);
#168=LINE('',#261,#180);
#169=LINE('',#263,#181);
#170=LINE('',#265,#182);
#171=LINE('',#267,#183);
#172=LINE('',#269,#184);
#173=LINE('',#271,#185);
#174=LINE('',#273,#186);
#175=LINE('',#274,#187);
#176=VECTOR('',#207,1.);
#177=VECTOR('',#208,1.);
#178=VECTOR('',#209,1.);
#179=VECTOR('',#210,1.);
#180=VECTOR('',#213,1.);
#181=VECTOR('',#214,1.);
#182=VECTOR('',#215,1.);
#183=VECTOR('',#218,1.);
#184=VECTOR('',#219,1.);
#185=VECTOR('',#220,1.);
#186=VECTOR('',#223,1.);
#187=VECTOR('',#224,1.);
#188=AXIS2_PLACEMENT_3D('',#251,#205,#206);
#189=AXIS2_PLACEMENT_3D('',#260,#211,#212);
#190=AXIS2_PLACEMENT_3D('',#266,#216,#217);
#191=AXIS2_PLACEMENT_3D('',#272,#221,#222);
#192=AXIS2_PLACEMENT_3D('',#275,#225,#226);
#193=AXIS2_PLACEMENT_3D('',#276,#227,#228);
#194=AXIS2_PLACEMENT_3D('',#278,#229,#230);
#195=AXIS2_PLACEMENT_3D('',#280,#231,#232);
#196=AXIS2_PLACEMENT_3D('',#281,#233,#234);
#197=AXIS2_PLACEMENT_3D('',#283,#235,#236);
#198=AXIS2_PLACEMENT_3D('',#285,#237,#238);
#199=AXIS2_PLACEMENT_3D('',#286,#239,#240);
#200=AXIS2_PLACEMENT_3D('',#288,#241,#242);
#201=AXIS2_PLACEMENT_3D('',#289,#243,#244);
#202=AXIS2_PLACEMENT_3D('',#291,#245,#246);
#203=AXIS2_PLACEMENT_3D('',#292,#247,#248);
#204=AXIS2_PLACEMENT_3D('',#293,#249,#250);
#205=DIRECTION('',(0.,0.,1.));
#206=DIRECTION('',(1.,0.,0.));
#207=DIRECTION('',(3.57188649751312E-17,-1.,0.));
#208=DIRECTION('',(0.,0.,-1.));
#209=DIRECTION('',(3.57188649751312E-17,-1.,0.));
#210=DIRECTION('',(0.,0.,-1.));
#211=DIRECTION('',(1.,3.57188649751312E-17,0.));
#212=DIRECTION('',(-3.57188649751312E-17,1.,0.));
#213=DIRECTION('',(1.,0.,0.));
#214=DIRECTION('',(0.,0.,-1.));
#215=DIRECTION('',(1.,0.,0.));
#216=DIRECTION('',(0.,1.,0.));
#217=DIRECTION('',(0.,0.,1.));
#218=DIRECTION('',(0.,1.,0.));
#219=DIRECTION('',(0.,0.,-1.));
#220=DIRECTION('',(0.,1.,0.));
#221=DIRECTION('',(-1.,0.,0.));
#222=DIRECTION('',(0.,0.,1.));
#223=DIRECTION('',(-1.,-1.44560289664734E-16,0.));
#224=DIRECTION('',(-1.,-1.44560289664734E-16,0.));
#225=DIRECTION('',(1.44560289664734E-16,-1.,0.));
#226=DIRECTION('',(1.,1.45716771982052E-16,0.));
#227=DIRECTION('',(0.,0.,-1.));
#228=DIRECTION('',(1.,0.,0.));
#229=DIRECTION('',(0.,0.,-1.));
#230=DIRECTION('',(1.,0.,0.));
#231=DIRECTION('',(0.,0.,1.));
#232=DIRECTION('',(1.,0.,0.));
#233=DIRECTION('',(0.,0.,1.));
#234=DIRECTION('',(1.,0.,0.));
#235=DIRECTION('',(0.,0.,1.));
#236=DIRECTION('',(1.,0.,0.));
#237=DIRECTION('',(0.,0.,1.));
#238=DIRECTION('',(1.,0.,0.));
#239=DIRECTION('',(0.,0.,1.));
#240=DIRECTION('',(1.,0.,0.));
#241=DIRECTION('',(0.,0.,-1.));
#242=DIRECTION('',(-1.,0.,0.));
#243=DIRECTION('',(0.,0.,1.));
#244=DIRECTION('',(1.,0.,0.));
#245=DIRECTION('',(0.,0.,-1.));
#246=DIRECTION('',(-1.,0.,0.));
#247=DIRECTION('',(0.,0.,1.));
#248=DIRECTION('',(1.,0.,-1.06154720171715E-16));
#249=DIRECTION('',(0.,0.,1.));
#250=DIRECTION('',(1.,0.,-1.06154720171715E-16));
#251=CARTESIAN_POINT('',(0.,0.,0.));
#252=CARTESIAN_POINT('',(-1.07156594925393E-15,30.,0.));
#253=CARTESIAN_POINT('',(-1.07156594925393E-15,30.,0.));
#254=CARTESIAN_POINT('',(1.92592994438724E-31,0.,0.));
#255=CARTESIAN_POINT('',(1.92592994438724E-31,0.,5.));
#256=CARTESIAN_POINT('',(1.92592994438724E-31,0.,5.));
#257=CARTESIAN_POINT('',(-1.07156594925393E-15,30.,5.));
#258=CARTESIAN_POINT('',(-1.07156594925393E-15,30.,5.));
#259=CARTESIAN_POINT('',(-1.07156594925393E-15,30.,5.));
#260=CARTESIAN_POINT('',(-1.07156594925393E-15,30.,5.));
#261=CARTESIAN_POINT('',(0.,0.,0.));
#262=CARTESIAN_POINT('',(264.,0.,0.));
#263=CARTESIAN_POINT('',(264.,0.,5.));
#264=CARTESIAN_POINT('',(264.,0.,5.));
#265=CARTESIAN_POINT('',(0.,0.,5.));
#266=CARTESIAN_POINT('',(0.,0.,5.));
#267=CARTESIAN_POINT('',(264.,0.,0.));
#268=CARTESIAN_POINT('',(264.,30.,0.));
#269=CARTESIAN_POINT('',(264.,30.,5.));
#270=CARTESIAN_POINT('',(264.,30.,5.));
#271=CARTESIAN_POINT('',(264.,0.,5.));
#272=CARTESIAN_POINT('',(264.,0.,5.));
#273=CARTESIAN_POINT('',(264.,30.,0.));
#274=CARTESIAN_POINT('',(264.,30.,5.));
#275=CARTESIAN_POINT('',(264.,30.,5.));
#276=CARTESIAN_POINT('',(254.,15.,5.));
#277=CARTESIAN_POINT('',(259.,15.,5.));
#278=CARTESIAN_POINT('',(10.,15.,5.));
#279=CARTESIAN_POINT('',(15.,15.,5.));
#280=CARTESIAN_POINT('',(0.,0.,5.));
#281=CARTESIAN_POINT('',(254.,15.,0.));
#282=CARTESIAN_POINT('',(256.,15.,0.));
#283=CARTESIAN_POINT('',(10.,15.,0.));
#284=CARTESIAN_POINT('',(12.,15.,0.));
#285=CARTESIAN_POINT('',(0.,0.,0.));
#286=CARTESIAN_POINT('',(10.,15.,2.));
#287=CARTESIAN_POINT('',(12.,15.,2.));
#288=CARTESIAN_POINT('',(10.,15.,5.5));
#289=CARTESIAN_POINT('',(254.,15.,2.));
#290=CARTESIAN_POINT('',(256.,15.,2.));
#291=CARTESIAN_POINT('',(254.,15.,5.5));
#292=CARTESIAN_POINT('',(254.,15.,5.));
#293=CARTESIAN_POINT('',(10.,15.,5.));
#294=MECHANICAL_DESIGN_GEOMETRIC_PRESENTATION_REPRESENTATION('',(#24),#295);
#295=(
GEOMETRIC_REPRESENTATION_CONTEXT(3)
GLOBAL_UNCERTAINTY_ASSIGNED_CONTEXT((#296))
GLOBAL_UNIT_ASSIGNED_CONTEXT((#302,#298,#297))
REPRESENTATION_CONTEXT('Collector Housing Plate Front 4 v2',
'TOP_LEVEL_ASSEMBLY_PART')
);
#296=UNCERTAINTY_MEASURE_WITH_UNIT(LENGTH_MEASURE(2.E-5),#302,
'DISTANCE_ACCURACY_VALUE','Maximum Tolerance applied to model');
#297=(
NAMED_UNIT(*)
SI_UNIT($,.STERADIAN.)
SOLID_ANGLE_UNIT()
);
#298=(
CONVERSION_BASED_UNIT('DEGREE',#300)
NAMED_UNIT(#299)
PLANE_ANGLE_UNIT()
);
#299=DIMENSIONAL_EXPONENTS(0.,0.,0.,0.,0.,0.,0.);
#300=PLANE_ANGLE_MEASURE_WITH_UNIT(PLANE_ANGLE_MEASURE(0.0174532925),#301);
#301=(
NAMED_UNIT(*)
PLANE_ANGLE_UNIT()
SI_UNIT($,.RADIAN.)
);
#302=(
LENGTH_UNIT()
NAMED_UNIT(*)
SI_UNIT(.MILLI.,.METRE.)
);
ENDSEC;
END-ISO-10303-21;
