ISO-10303-21;
HEADER;
/* Generated by software containing ST-Developer
 * from STEP Tools, Inc. (www.steptools.com) 
 */
/* OPTION: using custom schema-name function */

FILE_DESCRIPTION(
/* description */ (''),
/* implementation_level */ '2;1');

FILE_NAME(
/* name */ 'Collector Housing Spacer v1.1.stp',
/* time_stamp */ '2021-05-19T12:36:27+02:00',
/* author */ (''),
/* organization */ (''),
/* preprocessor_version */ 'ST-DEVELOPER v16.7',
/* originating_system */ 'SIEMENS PLM Software NX 12.0',
/* authorisation */ '');

FILE_SCHEMA (('AUTOMOTIVE_DESIGN { 1 0 10303 214 3 1 1 1 }'));
ENDSEC;

DATA;
#10=SHAPE_REPRESENTATION_RELATIONSHIP('None',
'relationship between Collector Housing Spacer v1.1-None and Collector
 Housing Spacer v1.1-None',#22,#11);
#11=ADVANCED_BREP_SHAPE_REPRESENTATION(
'Collector Housing Spacer v1.1-None',(#32),#381);
#12=SHAPE_DEFINITION_REPRESENTATION(#13,#22);
#13=PRODUCT_DEFINITION_SHAPE('','',#14);
#14=PRODUCT_DEFINITION(' ','',#16,#15);
#15=PRODUCT_DEFINITION_CONTEXT('part definition',#21,'design');
#16=PRODUCT_DEFINITION_FORMATION_WITH_SPECIFIED_SOURCE(' ',' ',#18,
 .NOT_KNOWN.);
#17=PRODUCT_RELATED_PRODUCT_CATEGORY('part','',(#18));
#18=PRODUCT('Collector Housing Spacer v1.1',
'Collector Housing Spacer v1.1',' ',(#19));
#19=PRODUCT_CONTEXT(' ',#21,'mechanical');
#20=APPLICATION_PROTOCOL_DEFINITION('international standard',
'automotive_design',2010,#21);
#21=APPLICATION_CONTEXT(
'core data for automotive mechanical design processes');
#22=SHAPE_REPRESENTATION('Collector Housing Spacer v1.1-None',(#233),#381);
#23=PRESENTATION_LAYER_ASSIGNMENT('1','Layer 1',(#32));
#24=STYLED_ITEM('',(#25),#32);
#25=PRESENTATION_STYLE_ASSIGNMENT((#26));
#26=SURFACE_STYLE_USAGE(.BOTH.,#27);
#27=SURFACE_SIDE_STYLE('',(#28));
#28=SURFACE_STYLE_FILL_AREA(#29);
#29=FILL_AREA_STYLE('',(#30));
#30=FILL_AREA_STYLE_COLOUR('',#31);
#31=COLOUR_RGB('Medium Gray',0.490196078431373,0.490196078431373,0.490196078431373);
#32=MANIFOLD_SOLID_BREP('',#33);
#33=CLOSED_SHELL('',(#59,#60,#61,#62,#63,#64,#65,#66,#67,#68,#69,#70));
#34=CONICAL_SURFACE('',#256,3.,45.);
#35=CYLINDRICAL_SURFACE('',#240,3.);
#36=CYLINDRICAL_SURFACE('',#252,5.);
#37=CYLINDRICAL_SURFACE('',#253,5.);
#38=CYLINDRICAL_SURFACE('',#254,5.);
#39=CYLINDRICAL_SURFACE('',#255,5.);
#40=FACE_BOUND('',#89,.T.);
#41=FACE_BOUND('',#90,.T.);
#42=FACE_BOUND('',#91,.T.);
#43=FACE_BOUND('',#92,.T.);
#44=FACE_BOUND('',#93,.T.);
#45=FACE_BOUND('',#94,.T.);
#46=FACE_BOUND('',#99,.T.);
#47=FACE_BOUND('',#100,.T.);
#48=CIRCLE('',#238,3.);
#49=CIRCLE('',#239,3.);
#50=CIRCLE('',#241,6.);
#51=CIRCLE('',#242,5.);
#52=CIRCLE('',#243,5.);
#53=CIRCLE('',#244,5.);
#54=CIRCLE('',#245,5.);
#55=CIRCLE('',#247,5.);
#56=CIRCLE('',#248,5.);
#57=CIRCLE('',#249,5.);
#58=CIRCLE('',#250,5.);
#59=ADVANCED_FACE('',(#77),#71,.T.);
#60=ADVANCED_FACE('',(#78),#72,.T.);
#61=ADVANCED_FACE('',(#79),#73,.T.);
#62=ADVANCED_FACE('',(#80),#74,.T.);
#63=ADVANCED_FACE('',(#40,#41),#35,.F.);
#64=ADVANCED_FACE('',(#42,#43),#75,.T.);
#65=ADVANCED_FACE('',(#44,#45),#76,.F.);
#66=ADVANCED_FACE('',(#81),#36,.T.);
#67=ADVANCED_FACE('',(#82),#37,.T.);
#68=ADVANCED_FACE('',(#83),#38,.T.);
#69=ADVANCED_FACE('',(#84),#39,.T.);
#70=ADVANCED_FACE('',(#46,#47),#34,.F.);
#71=PLANE('',#234);
#72=PLANE('',#235);
#73=PLANE('',#236);
#74=PLANE('',#237);
#75=PLANE('',#246);
#76=PLANE('',#251);
#77=FACE_OUTER_BOUND('',#85,.T.);
#78=FACE_OUTER_BOUND('',#86,.T.);
#79=FACE_OUTER_BOUND('',#87,.T.);
#80=FACE_OUTER_BOUND('',#88,.T.);
#81=FACE_OUTER_BOUND('',#95,.T.);
#82=FACE_OUTER_BOUND('',#96,.T.);
#83=FACE_OUTER_BOUND('',#97,.T.);
#84=FACE_OUTER_BOUND('',#98,.T.);
#85=EDGE_LOOP('',(#101,#102,#103,#104));
#86=EDGE_LOOP('',(#105,#106,#107,#108));
#87=EDGE_LOOP('',(#109,#110,#111,#112));
#88=EDGE_LOOP('',(#113,#114,#115,#116));
#89=EDGE_LOOP('',(#117));
#90=EDGE_LOOP('',(#118));
#91=EDGE_LOOP('',(#119));
#92=EDGE_LOOP('',(#120,#121,#122,#123,#124,#125,#126,#127));
#93=EDGE_LOOP('',(#128,#129,#130,#131,#132,#133,#134,#135));
#94=EDGE_LOOP('',(#136));
#95=EDGE_LOOP('',(#137,#138,#139,#140));
#96=EDGE_LOOP('',(#141,#142,#143,#144));
#97=EDGE_LOOP('',(#145,#146,#147,#148));
#98=EDGE_LOOP('',(#149,#150,#151,#152));
#99=EDGE_LOOP('',(#153));
#100=EDGE_LOOP('',(#154));
#101=ORIENTED_EDGE('',*,*,#174,.T.);
#102=ORIENTED_EDGE('',*,*,#175,.T.);
#103=ORIENTED_EDGE('',*,*,#176,.F.);
#104=ORIENTED_EDGE('',*,*,#177,.T.);
#105=ORIENTED_EDGE('',*,*,#178,.T.);
#106=ORIENTED_EDGE('',*,*,#179,.T.);
#107=ORIENTED_EDGE('',*,*,#180,.F.);
#108=ORIENTED_EDGE('',*,*,#181,.T.);
#109=ORIENTED_EDGE('',*,*,#182,.F.);
#110=ORIENTED_EDGE('',*,*,#183,.T.);
#111=ORIENTED_EDGE('',*,*,#184,.T.);
#112=ORIENTED_EDGE('',*,*,#185,.T.);
#113=ORIENTED_EDGE('',*,*,#186,.F.);
#114=ORIENTED_EDGE('',*,*,#187,.T.);
#115=ORIENTED_EDGE('',*,*,#188,.T.);
#116=ORIENTED_EDGE('',*,*,#189,.T.);
#117=ORIENTED_EDGE('',*,*,#190,.T.);
#118=ORIENTED_EDGE('',*,*,#191,.F.);
#119=ORIENTED_EDGE('',*,*,#192,.T.);
#120=ORIENTED_EDGE('',*,*,#184,.F.);
#121=ORIENTED_EDGE('',*,*,#193,.T.);
#122=ORIENTED_EDGE('',*,*,#178,.F.);
#123=ORIENTED_EDGE('',*,*,#194,.T.);
#124=ORIENTED_EDGE('',*,*,#174,.F.);
#125=ORIENTED_EDGE('',*,*,#195,.T.);
#126=ORIENTED_EDGE('',*,*,#188,.F.);
#127=ORIENTED_EDGE('',*,*,#196,.T.);
#128=ORIENTED_EDGE('',*,*,#180,.T.);
#129=ORIENTED_EDGE('',*,*,#197,.T.);
#130=ORIENTED_EDGE('',*,*,#182,.T.);
#131=ORIENTED_EDGE('',*,*,#198,.T.);
#132=ORIENTED_EDGE('',*,*,#186,.T.);
#133=ORIENTED_EDGE('',*,*,#199,.T.);
#134=ORIENTED_EDGE('',*,*,#176,.T.);
#135=ORIENTED_EDGE('',*,*,#200,.T.);
#136=ORIENTED_EDGE('',*,*,#191,.T.);
#137=ORIENTED_EDGE('',*,*,#193,.F.);
#138=ORIENTED_EDGE('',*,*,#183,.F.);
#139=ORIENTED_EDGE('',*,*,#197,.F.);
#140=ORIENTED_EDGE('',*,*,#179,.F.);
#141=ORIENTED_EDGE('',*,*,#194,.F.);
#142=ORIENTED_EDGE('',*,*,#181,.F.);
#143=ORIENTED_EDGE('',*,*,#200,.F.);
#144=ORIENTED_EDGE('',*,*,#175,.F.);
#145=ORIENTED_EDGE('',*,*,#196,.F.);
#146=ORIENTED_EDGE('',*,*,#187,.F.);
#147=ORIENTED_EDGE('',*,*,#198,.F.);
#148=ORIENTED_EDGE('',*,*,#185,.F.);
#149=ORIENTED_EDGE('',*,*,#195,.F.);
#150=ORIENTED_EDGE('',*,*,#177,.F.);
#151=ORIENTED_EDGE('',*,*,#199,.F.);
#152=ORIENTED_EDGE('',*,*,#189,.F.);
#153=ORIENTED_EDGE('',*,*,#192,.F.);
#154=ORIENTED_EDGE('',*,*,#190,.F.);
#155=VERTEX_POINT('',#323);
#156=VERTEX_POINT('',#324);
#157=VERTEX_POINT('',#326);
#158=VERTEX_POINT('',#328);
#159=VERTEX_POINT('',#332);
#160=VERTEX_POINT('',#333);
#161=VERTEX_POINT('',#335);
#162=VERTEX_POINT('',#337);
#163=VERTEX_POINT('',#341);
#164=VERTEX_POINT('',#342);
#165=VERTEX_POINT('',#344);
#166=VERTEX_POINT('',#346);
#167=VERTEX_POINT('',#350);
#168=VERTEX_POINT('',#351);
#169=VERTEX_POINT('',#353);
#170=VERTEX_POINT('',#355);
#171=VERTEX_POINT('',#359);
#172=VERTEX_POINT('',#361);
#173=VERTEX_POINT('',#364);
#174=EDGE_CURVE('',#155,#156,#201,.T.);
#175=EDGE_CURVE('',#156,#157,#202,.T.);
#176=EDGE_CURVE('',#158,#157,#203,.T.);
#177=EDGE_CURVE('',#158,#155,#204,.T.);
#178=EDGE_CURVE('',#159,#160,#205,.T.);
#179=EDGE_CURVE('',#160,#161,#206,.T.);
#180=EDGE_CURVE('',#162,#161,#207,.T.);
#181=EDGE_CURVE('',#162,#159,#208,.T.);
#182=EDGE_CURVE('',#163,#164,#209,.T.);
#183=EDGE_CURVE('',#163,#165,#210,.T.);
#184=EDGE_CURVE('',#165,#166,#211,.T.);
#185=EDGE_CURVE('',#166,#164,#212,.T.);
#186=EDGE_CURVE('',#167,#168,#213,.T.);
#187=EDGE_CURVE('',#167,#169,#214,.T.);
#188=EDGE_CURVE('',#169,#170,#215,.T.);
#189=EDGE_CURVE('',#170,#168,#216,.T.);
#190=EDGE_CURVE('',#171,#171,#48,.T.);
#191=EDGE_CURVE('',#172,#172,#49,.T.);
#192=EDGE_CURVE('',#173,#173,#50,.T.);
#193=EDGE_CURVE('',#165,#160,#51,.T.);
#194=EDGE_CURVE('',#159,#156,#52,.T.);
#195=EDGE_CURVE('',#155,#170,#53,.T.);
#196=EDGE_CURVE('',#169,#166,#54,.T.);
#197=EDGE_CURVE('',#161,#163,#55,.T.);
#198=EDGE_CURVE('',#164,#167,#56,.T.);
#199=EDGE_CURVE('',#168,#158,#57,.T.);
#200=EDGE_CURVE('',#157,#162,#58,.T.);
#201=LINE('',#322,#217);
#202=LINE('',#325,#218);
#203=LINE('',#327,#219);
#204=LINE('',#329,#220);
#205=LINE('',#331,#221);
#206=LINE('',#334,#222);
#207=LINE('',#336,#223);
#208=LINE('',#338,#224);
#209=LINE('',#340,#225);
#210=LINE('',#343,#226);
#211=LINE('',#345,#227);
#212=LINE('',#347,#228);
#213=LINE('',#349,#229);
#214=LINE('',#352,#230);
#215=LINE('',#354,#231);
#216=LINE('',#356,#232);
#217=VECTOR('',#259,1.);
#218=VECTOR('',#260,1.);
#219=VECTOR('',#261,1.);
#220=VECTOR('',#262,1.);
#221=VECTOR('',#265,1.);
#222=VECTOR('',#266,1.);
#223=VECTOR('',#267,1.);
#224=VECTOR('',#268,1.);
#225=VECTOR('',#271,1.);
#226=VECTOR('',#272,1.);
#227=VECTOR('',#273,1.);
#228=VECTOR('',#274,1.);
#229=VECTOR('',#277,1.);
#230=VECTOR('',#278,1.);
#231=VECTOR('',#279,1.);
#232=VECTOR('',#280,1.);
#233=AXIS2_PLACEMENT_3D('',#321,#257,#258);
#234=AXIS2_PLACEMENT_3D('',#330,#263,#264);
#235=AXIS2_PLACEMENT_3D('',#339,#269,#270);
#236=AXIS2_PLACEMENT_3D('',#348,#275,#276);
#237=AXIS2_PLACEMENT_3D('',#357,#281,#282);
#238=AXIS2_PLACEMENT_3D('',#358,#283,#284);
#239=AXIS2_PLACEMENT_3D('',#360,#285,#286);
#240=AXIS2_PLACEMENT_3D('',#362,#287,#288);
#241=AXIS2_PLACEMENT_3D('',#363,#289,#290);
#242=AXIS2_PLACEMENT_3D('',#365,#291,#292);
#243=AXIS2_PLACEMENT_3D('',#366,#293,#294);
#244=AXIS2_PLACEMENT_3D('',#367,#295,#296);
#245=AXIS2_PLACEMENT_3D('',#368,#297,#298);
#246=AXIS2_PLACEMENT_3D('',#369,#299,#300);
#247=AXIS2_PLACEMENT_3D('',#370,#301,#302);
#248=AXIS2_PLACEMENT_3D('',#371,#303,#304);
#249=AXIS2_PLACEMENT_3D('',#372,#305,#306);
#250=AXIS2_PLACEMENT_3D('',#373,#307,#308);
#251=AXIS2_PLACEMENT_3D('',#374,#309,#310);
#252=AXIS2_PLACEMENT_3D('',#375,#311,#312);
#253=AXIS2_PLACEMENT_3D('',#376,#313,#314);
#254=AXIS2_PLACEMENT_3D('',#377,#315,#316);
#255=AXIS2_PLACEMENT_3D('',#378,#317,#318);
#256=AXIS2_PLACEMENT_3D('',#379,#319,#320);
#257=DIRECTION('',(0.,0.,1.));
#258=DIRECTION('',(1.,0.,0.));
#259=DIRECTION('',(-1.,0.,0.));
#260=DIRECTION('',(0.,0.,-1.));
#261=DIRECTION('',(-1.,0.,0.));
#262=DIRECTION('',(0.,0.,1.));
#263=DIRECTION('',(0.,-1.,0.));
#264=DIRECTION('',(0.,0.,-1.));
#265=DIRECTION('',(8.67361737988404E-17,1.,0.));
#266=DIRECTION('',(0.,0.,-1.));
#267=DIRECTION('',(8.67361737988404E-17,1.,0.));
#268=DIRECTION('',(0.,0.,1.));
#269=DIRECTION('',(-1.,8.67361737988404E-17,0.));
#270=DIRECTION('',(-8.67361737988404E-17,-1.,0.));
#271=DIRECTION('',(1.,0.,0.));
#272=DIRECTION('',(0.,0.,1.));
#273=DIRECTION('',(1.,0.,0.));
#274=DIRECTION('',(0.,0.,-1.));
#275=DIRECTION('',(0.,1.,0.));
#276=DIRECTION('',(0.,0.,1.));
#277=DIRECTION('',(8.67361737988404E-17,-1.,0.));
#278=DIRECTION('',(0.,0.,1.));
#279=DIRECTION('',(8.67361737988404E-17,-1.,0.));
#280=DIRECTION('',(0.,0.,-1.));
#281=DIRECTION('',(1.,8.67361737988404E-17,0.));
#282=DIRECTION('',(-8.67361737988404E-17,1.,0.));
#283=DIRECTION('',(0.,0.,1.));
#284=DIRECTION('',(1.,0.,0.));
#285=DIRECTION('',(0.,0.,1.));
#286=DIRECTION('',(1.,0.,0.));
#287=DIRECTION('',(0.,0.,-1.));
#288=DIRECTION('',(-1.,0.,0.));
#289=DIRECTION('',(0.,0.,-1.));
#290=DIRECTION('',(1.,0.,0.));
#291=DIRECTION('',(0.,0.,1.));
#292=DIRECTION('',(1.,0.,0.));
#293=DIRECTION('',(0.,0.,1.));
#294=DIRECTION('',(1.,0.,0.));
#295=DIRECTION('',(0.,0.,1.));
#296=DIRECTION('',(1.,0.,0.));
#297=DIRECTION('',(0.,0.,1.));
#298=DIRECTION('',(1.,0.,0.));
#299=DIRECTION('',(0.,0.,1.));
#300=DIRECTION('',(1.,0.,0.));
#301=DIRECTION('',(0.,0.,-1.));
#302=DIRECTION('',(1.,0.,0.));
#303=DIRECTION('',(0.,0.,-1.));
#304=DIRECTION('',(1.,0.,0.));
#305=DIRECTION('',(0.,0.,-1.));
#306=DIRECTION('',(1.,0.,0.));
#307=DIRECTION('',(0.,0.,-1.));
#308=DIRECTION('',(1.,0.,0.));
#309=DIRECTION('',(0.,0.,1.));
#310=DIRECTION('',(1.,0.,0.));
#311=DIRECTION('',(0.,0.,-1.));
#312=DIRECTION('',(-1.,0.,0.));
#313=DIRECTION('',(0.,0.,-1.));
#314=DIRECTION('',(-1.,0.,0.));
#315=DIRECTION('',(0.,0.,-1.));
#316=DIRECTION('',(-1.,0.,0.));
#317=DIRECTION('',(0.,0.,-1.));
#318=DIRECTION('',(-1.,0.,0.));
#319=DIRECTION('',(0.,0.,1.));
#320=DIRECTION('',(1.,0.,1.72953487136272E-18));
#321=CARTESIAN_POINT('',(0.,0.,0.));
#322=CARTESIAN_POINT('',(10.,-10.,5.));
#323=CARTESIAN_POINT('',(5.,-10.,5.));
#324=CARTESIAN_POINT('',(-5.,-10.,5.));
#325=CARTESIAN_POINT('',(-5.,-10.,5.));
#326=CARTESIAN_POINT('',(-5.,-10.,0.));
#327=CARTESIAN_POINT('',(10.,-10.,0.));
#328=CARTESIAN_POINT('',(5.,-10.,0.));
#329=CARTESIAN_POINT('',(5.,-10.,5.));
#330=CARTESIAN_POINT('',(10.,-10.,5.));
#331=CARTESIAN_POINT('',(-10.,-10.,5.));
#332=CARTESIAN_POINT('',(-10.,-5.,5.));
#333=CARTESIAN_POINT('',(-10.,5.,5.));
#334=CARTESIAN_POINT('',(-10.,5.,5.));
#335=CARTESIAN_POINT('',(-10.,5.,0.));
#336=CARTESIAN_POINT('',(-10.,-10.,0.));
#337=CARTESIAN_POINT('',(-10.,-5.,0.));
#338=CARTESIAN_POINT('',(-10.,-5.,5.));
#339=CARTESIAN_POINT('',(-10.,-10.,5.));
#340=CARTESIAN_POINT('',(-10.,10.,0.));
#341=CARTESIAN_POINT('',(-5.,10.,0.));
#342=CARTESIAN_POINT('',(5.,10.,0.));
#343=CARTESIAN_POINT('',(-5.,10.,5.));
#344=CARTESIAN_POINT('',(-5.,10.,5.));
#345=CARTESIAN_POINT('',(-10.,10.,5.));
#346=CARTESIAN_POINT('',(5.,10.,5.));
#347=CARTESIAN_POINT('',(5.,10.,5.));
#348=CARTESIAN_POINT('',(-10.,10.,5.));
#349=CARTESIAN_POINT('',(10.,10.,0.));
#350=CARTESIAN_POINT('',(10.,5.,0.));
#351=CARTESIAN_POINT('',(10.,-5.,0.));
#352=CARTESIAN_POINT('',(10.,5.,5.));
#353=CARTESIAN_POINT('',(10.,5.,5.));
#354=CARTESIAN_POINT('',(10.,10.,5.));
#355=CARTESIAN_POINT('',(10.,-5.,5.));
#356=CARTESIAN_POINT('',(10.,-5.,5.));
#357=CARTESIAN_POINT('',(10.,10.,5.));
#358=CARTESIAN_POINT('',(0.,0.,2.));
#359=CARTESIAN_POINT('',(3.,0.,2.));
#360=CARTESIAN_POINT('',(0.,0.,0.));
#361=CARTESIAN_POINT('',(3.,0.,0.));
#362=CARTESIAN_POINT('',(0.,0.,5.));
#363=CARTESIAN_POINT('',(0.,0.,5.));
#364=CARTESIAN_POINT('',(6.,0.,5.));
#365=CARTESIAN_POINT('',(-5.,5.,5.));
#366=CARTESIAN_POINT('',(-5.,-5.,5.));
#367=CARTESIAN_POINT('',(5.,-5.,5.));
#368=CARTESIAN_POINT('',(5.,5.,5.));
#369=CARTESIAN_POINT('',(0.,0.,5.));
#370=CARTESIAN_POINT('',(-5.,5.,0.));
#371=CARTESIAN_POINT('',(5.,5.,0.));
#372=CARTESIAN_POINT('',(5.,-5.,0.));
#373=CARTESIAN_POINT('',(-5.,-5.,0.));
#374=CARTESIAN_POINT('',(0.,0.,0.));
#375=CARTESIAN_POINT('',(-5.,5.,5.));
#376=CARTESIAN_POINT('',(-5.,-5.,5.));
#377=CARTESIAN_POINT('',(5.,5.,5.));
#378=CARTESIAN_POINT('',(5.,-5.,5.));
#379=CARTESIAN_POINT('',(0.,0.,2.));
#380=MECHANICAL_DESIGN_GEOMETRIC_PRESENTATION_REPRESENTATION('',(#24),#381);
#381=(
GEOMETRIC_REPRESENTATION_CONTEXT(3)
GLOBAL_UNCERTAINTY_ASSIGNED_CONTEXT((#382))
GLOBAL_UNIT_ASSIGNED_CONTEXT((#388,#384,#383))
REPRESENTATION_CONTEXT('Collector Housing Spacer v1',
'TOP_LEVEL_ASSEMBLY_PART')
);
#382=UNCERTAINTY_MEASURE_WITH_UNIT(LENGTH_MEASURE(2.E-5),#388,
'DISTANCE_ACCURACY_VALUE','Maximum Tolerance applied to model');
#383=(
NAMED_UNIT(*)
SI_UNIT($,.STERADIAN.)
SOLID_ANGLE_UNIT()
);
#384=(
CONVERSION_BASED_UNIT('DEGREE',#386)
NAMED_UNIT(#385)
PLANE_ANGLE_UNIT()
);
#385=DIMENSIONAL_EXPONENTS(0.,0.,0.,0.,0.,0.,0.);
#386=PLANE_ANGLE_MEASURE_WITH_UNIT(PLANE_ANGLE_MEASURE(0.0174532925),#387);
#387=(
NAMED_UNIT(*)
PLANE_ANGLE_UNIT()
SI_UNIT($,.RADIAN.)
);
#388=(
LENGTH_UNIT()
NAMED_UNIT(*)
SI_UNIT(.MILLI.,.METRE.)
);
ENDSEC;
END-ISO-10303-21;
