ISO-10303-21;
HEADER;
/* Generated by software containing ST-Developer
 * from STEP Tools, Inc. (www.steptools.com) 
 */
/* OPTION: using custom schema-name function */

FILE_DESCRIPTION(
/* description */ (''),
/* implementation_level */ '2;1');

FILE_NAME(
/* name */ 'Rack Front Wall.stp',
/* time_stamp */ '2021-05-19T12:36:21+02:00',
/* author */ (''),
/* organization */ (''),
/* preprocessor_version */ 'ST-DEVELOPER v16.7',
/* originating_system */ 'SIEMENS PLM Software NX 12.0',
/* authorisation */ '');

FILE_SCHEMA (('AUTOMOTIVE_DESIGN { 1 0 10303 214 3 1 1 1 }'));
ENDSEC;

DATA;
#10=SHAPE_REPRESENTATION_RELATIONSHIP('None',
'relationship between Rack Front Wall-None and Rack Front Wall-None',#22,
#11);
#11=ADVANCED_BREP_SHAPE_REPRESENTATION('Rack Front Wall-None',(#32),#2207);
#12=SHAPE_DEFINITION_REPRESENTATION(#13,#22);
#13=PRODUCT_DEFINITION_SHAPE('','',#14);
#14=PRODUCT_DEFINITION(' ','',#16,#15);
#15=PRODUCT_DEFINITION_CONTEXT('part definition',#21,'design');
#16=PRODUCT_DEFINITION_FORMATION_WITH_SPECIFIED_SOURCE(' ',' ',#18,
 .NOT_KNOWN.);
#17=PRODUCT_RELATED_PRODUCT_CATEGORY('part','',(#18));
#18=PRODUCT('Rack Front Wall','Rack Front Wall',' ',(#19));
#19=PRODUCT_CONTEXT(' ',#21,'mechanical');
#20=APPLICATION_PROTOCOL_DEFINITION('international standard',
'automotive_design',2010,#21);
#21=APPLICATION_CONTEXT(
'core data for automotive mechanical design processes');
#22=SHAPE_REPRESENTATION('Rack Front Wall-None',(#1426),#2207);
#23=PRESENTATION_LAYER_ASSIGNMENT('1','Layer 1',(#32));
#24=STYLED_ITEM('',(#25),#32);
#25=PRESENTATION_STYLE_ASSIGNMENT((#26));
#26=SURFACE_STYLE_USAGE(.BOTH.,#27);
#27=SURFACE_SIDE_STYLE('',(#28));
#28=SURFACE_STYLE_FILL_AREA(#29);
#29=FILL_AREA_STYLE('',(#30));
#30=FILL_AREA_STYLE_COLOUR('',#31);
#31=COLOUR_RGB('Ash Gray',0.874494544899672,0.874494544899672,0.874494544899672);
#32=MANIFOLD_SOLID_BREP('',#33);
#33=CLOSED_SHELL('',(#56,#57,#58,#59,#60,#61,#62,#63,#64,#65,#66,#67,#68,
#69,#70,#71,#72,#73,#74,#75,#76,#77,#78,#79,#80,#81,#82,#83,#84,#85,#86,
#87,#88,#89,#90,#91,#92,#93,#94,#95,#96,#97,#98,#99,#100,#101,#102,#103,
#104,#105,#106,#107,#108,#109,#110,#111,#112,#113,#114,#115,#116,#117,#118,
#119,#120,#121));
#34=FACE_BOUND('',#257,.T.);
#35=FACE_BOUND('',#258,.T.);
#36=FACE_BOUND('',#259,.T.);
#37=FACE_BOUND('',#260,.T.);
#38=FACE_BOUND('',#261,.T.);
#39=FACE_BOUND('',#262,.T.);
#40=FACE_BOUND('',#263,.T.);
#41=FACE_BOUND('',#264,.T.);
#42=FACE_BOUND('',#265,.T.);
#43=FACE_BOUND('',#266,.T.);
#44=FACE_BOUND('',#267,.T.);
#45=FACE_BOUND('',#268,.T.);
#46=FACE_BOUND('',#269,.T.);
#47=FACE_BOUND('',#270,.T.);
#48=FACE_BOUND('',#271,.T.);
#49=FACE_BOUND('',#272,.T.);
#50=FACE_BOUND('',#273,.T.);
#51=FACE_BOUND('',#274,.T.);
#52=FACE_BOUND('',#275,.T.);
#53=FACE_BOUND('',#276,.T.);
#54=FACE_BOUND('',#277,.T.);
#55=FACE_BOUND('',#278,.T.);
#56=ADVANCED_FACE('',(#188),#122,.F.);
#57=ADVANCED_FACE('',(#189),#123,.F.);
#58=ADVANCED_FACE('',(#190),#124,.F.);
#59=ADVANCED_FACE('',(#191),#125,.F.);
#60=ADVANCED_FACE('',(#192),#126,.F.);
#61=ADVANCED_FACE('',(#34,#35,#36,#37,#38,#39,#40,#41,#42,#43,#44),#127,
 .T.);
#62=ADVANCED_FACE('',(#45,#46,#47,#48,#49,#50,#51,#52,#53,#54,#55),#128,
 .F.);
#63=ADVANCED_FACE('',(#193),#129,.F.);
#64=ADVANCED_FACE('',(#194),#130,.F.);
#65=ADVANCED_FACE('',(#195),#131,.F.);
#66=ADVANCED_FACE('',(#196),#132,.F.);
#67=ADVANCED_FACE('',(#197),#133,.F.);
#68=ADVANCED_FACE('',(#198),#134,.F.);
#69=ADVANCED_FACE('',(#199),#135,.F.);
#70=ADVANCED_FACE('',(#200),#136,.F.);
#71=ADVANCED_FACE('',(#201),#137,.F.);
#72=ADVANCED_FACE('',(#202),#138,.F.);
#73=ADVANCED_FACE('',(#203),#139,.F.);
#74=ADVANCED_FACE('',(#204),#140,.F.);
#75=ADVANCED_FACE('',(#205),#141,.F.);
#76=ADVANCED_FACE('',(#206),#142,.F.);
#77=ADVANCED_FACE('',(#207),#143,.F.);
#78=ADVANCED_FACE('',(#208),#144,.F.);
#79=ADVANCED_FACE('',(#209),#145,.F.);
#80=ADVANCED_FACE('',(#210),#146,.F.);
#81=ADVANCED_FACE('',(#211),#147,.F.);
#82=ADVANCED_FACE('',(#212),#148,.F.);
#83=ADVANCED_FACE('',(#213),#149,.F.);
#84=ADVANCED_FACE('',(#214),#150,.F.);
#85=ADVANCED_FACE('',(#215),#151,.F.);
#86=ADVANCED_FACE('',(#216),#152,.F.);
#87=ADVANCED_FACE('',(#217),#153,.F.);
#88=ADVANCED_FACE('',(#218),#154,.F.);
#89=ADVANCED_FACE('',(#219),#155,.F.);
#90=ADVANCED_FACE('',(#220),#156,.F.);
#91=ADVANCED_FACE('',(#221),#157,.F.);
#92=ADVANCED_FACE('',(#222),#158,.F.);
#93=ADVANCED_FACE('',(#223),#159,.F.);
#94=ADVANCED_FACE('',(#224),#160,.F.);
#95=ADVANCED_FACE('',(#225),#161,.F.);
#96=ADVANCED_FACE('',(#226),#162,.F.);
#97=ADVANCED_FACE('',(#227),#163,.F.);
#98=ADVANCED_FACE('',(#228),#164,.F.);
#99=ADVANCED_FACE('',(#229),#165,.F.);
#100=ADVANCED_FACE('',(#230),#166,.F.);
#101=ADVANCED_FACE('',(#231),#167,.F.);
#102=ADVANCED_FACE('',(#232),#168,.F.);
#103=ADVANCED_FACE('',(#233),#169,.F.);
#104=ADVANCED_FACE('',(#234),#170,.F.);
#105=ADVANCED_FACE('',(#235),#171,.F.);
#106=ADVANCED_FACE('',(#236),#172,.F.);
#107=ADVANCED_FACE('',(#237),#173,.F.);
#108=ADVANCED_FACE('',(#238),#174,.F.);
#109=ADVANCED_FACE('',(#239),#175,.F.);
#110=ADVANCED_FACE('',(#240),#176,.F.);
#111=ADVANCED_FACE('',(#241),#177,.F.);
#112=ADVANCED_FACE('',(#242),#178,.F.);
#113=ADVANCED_FACE('',(#243),#179,.F.);
#114=ADVANCED_FACE('',(#244),#180,.F.);
#115=ADVANCED_FACE('',(#245),#181,.F.);
#116=ADVANCED_FACE('',(#246),#182,.F.);
#117=ADVANCED_FACE('',(#247),#183,.F.);
#118=ADVANCED_FACE('',(#248),#184,.F.);
#119=ADVANCED_FACE('',(#249),#185,.F.);
#120=ADVANCED_FACE('',(#250),#186,.F.);
#121=ADVANCED_FACE('',(#251),#187,.F.);
#122=PLANE('',#1427);
#123=PLANE('',#1428);
#124=PLANE('',#1429);
#125=PLANE('',#1430);
#126=PLANE('',#1431);
#127=PLANE('',#1432);
#128=PLANE('',#1433);
#129=PLANE('',#1434);
#130=PLANE('',#1435);
#131=PLANE('',#1436);
#132=PLANE('',#1437);
#133=PLANE('',#1438);
#134=PLANE('',#1439);
#135=PLANE('',#1440);
#136=PLANE('',#1441);
#137=PLANE('',#1442);
#138=PLANE('',#1443);
#139=PLANE('',#1444);
#140=PLANE('',#1445);
#141=PLANE('',#1446);
#142=PLANE('',#1447);
#143=PLANE('',#1448);
#144=PLANE('',#1449);
#145=PLANE('',#1450);
#146=PLANE('',#1451);
#147=PLANE('',#1452);
#148=PLANE('',#1453);
#149=PLANE('',#1454);
#150=PLANE('',#1455);
#151=PLANE('',#1456);
#152=PLANE('',#1457);
#153=PLANE('',#1458);
#154=PLANE('',#1459);
#155=PLANE('',#1460);
#156=PLANE('',#1461);
#157=PLANE('',#1462);
#158=PLANE('',#1463);
#159=PLANE('',#1464);
#160=PLANE('',#1465);
#161=PLANE('',#1466);
#162=PLANE('',#1467);
#163=PLANE('',#1468);
#164=PLANE('',#1469);
#165=PLANE('',#1470);
#166=PLANE('',#1471);
#167=PLANE('',#1472);
#168=PLANE('',#1473);
#169=PLANE('',#1474);
#170=PLANE('',#1475);
#171=PLANE('',#1476);
#172=PLANE('',#1477);
#173=PLANE('',#1478);
#174=PLANE('',#1479);
#175=PLANE('',#1480);
#176=PLANE('',#1481);
#177=PLANE('',#1482);
#178=PLANE('',#1483);
#179=PLANE('',#1484);
#180=PLANE('',#1485);
#181=PLANE('',#1486);
#182=PLANE('',#1487);
#183=PLANE('',#1488);
#184=PLANE('',#1489);
#185=PLANE('',#1490);
#186=PLANE('',#1491);
#187=PLANE('',#1492);
#188=FACE_OUTER_BOUND('',#252,.T.);
#189=FACE_OUTER_BOUND('',#253,.T.);
#190=FACE_OUTER_BOUND('',#254,.T.);
#191=FACE_OUTER_BOUND('',#255,.T.);
#192=FACE_OUTER_BOUND('',#256,.T.);
#193=FACE_OUTER_BOUND('',#279,.T.);
#194=FACE_OUTER_BOUND('',#280,.T.);
#195=FACE_OUTER_BOUND('',#281,.T.);
#196=FACE_OUTER_BOUND('',#282,.T.);
#197=FACE_OUTER_BOUND('',#283,.T.);
#198=FACE_OUTER_BOUND('',#284,.T.);
#199=FACE_OUTER_BOUND('',#285,.T.);
#200=FACE_OUTER_BOUND('',#286,.T.);
#201=FACE_OUTER_BOUND('',#287,.T.);
#202=FACE_OUTER_BOUND('',#288,.T.);
#203=FACE_OUTER_BOUND('',#289,.T.);
#204=FACE_OUTER_BOUND('',#290,.T.);
#205=FACE_OUTER_BOUND('',#291,.T.);
#206=FACE_OUTER_BOUND('',#292,.T.);
#207=FACE_OUTER_BOUND('',#293,.T.);
#208=FACE_OUTER_BOUND('',#294,.T.);
#209=FACE_OUTER_BOUND('',#295,.T.);
#210=FACE_OUTER_BOUND('',#296,.T.);
#211=FACE_OUTER_BOUND('',#297,.T.);
#212=FACE_OUTER_BOUND('',#298,.T.);
#213=FACE_OUTER_BOUND('',#299,.T.);
#214=FACE_OUTER_BOUND('',#300,.T.);
#215=FACE_OUTER_BOUND('',#301,.T.);
#216=FACE_OUTER_BOUND('',#302,.T.);
#217=FACE_OUTER_BOUND('',#303,.T.);
#218=FACE_OUTER_BOUND('',#304,.T.);
#219=FACE_OUTER_BOUND('',#305,.T.);
#220=FACE_OUTER_BOUND('',#306,.T.);
#221=FACE_OUTER_BOUND('',#307,.T.);
#222=FACE_OUTER_BOUND('',#308,.T.);
#223=FACE_OUTER_BOUND('',#309,.T.);
#224=FACE_OUTER_BOUND('',#310,.T.);
#225=FACE_OUTER_BOUND('',#311,.T.);
#226=FACE_OUTER_BOUND('',#312,.T.);
#227=FACE_OUTER_BOUND('',#313,.T.);
#228=FACE_OUTER_BOUND('',#314,.T.);
#229=FACE_OUTER_BOUND('',#315,.T.);
#230=FACE_OUTER_BOUND('',#316,.T.);
#231=FACE_OUTER_BOUND('',#317,.T.);
#232=FACE_OUTER_BOUND('',#318,.T.);
#233=FACE_OUTER_BOUND('',#319,.T.);
#234=FACE_OUTER_BOUND('',#320,.T.);
#235=FACE_OUTER_BOUND('',#321,.T.);
#236=FACE_OUTER_BOUND('',#322,.T.);
#237=FACE_OUTER_BOUND('',#323,.T.);
#238=FACE_OUTER_BOUND('',#324,.T.);
#239=FACE_OUTER_BOUND('',#325,.T.);
#240=FACE_OUTER_BOUND('',#326,.T.);
#241=FACE_OUTER_BOUND('',#327,.T.);
#242=FACE_OUTER_BOUND('',#328,.T.);
#243=FACE_OUTER_BOUND('',#329,.T.);
#244=FACE_OUTER_BOUND('',#330,.T.);
#245=FACE_OUTER_BOUND('',#331,.T.);
#246=FACE_OUTER_BOUND('',#332,.T.);
#247=FACE_OUTER_BOUND('',#333,.T.);
#248=FACE_OUTER_BOUND('',#334,.T.);
#249=FACE_OUTER_BOUND('',#335,.T.);
#250=FACE_OUTER_BOUND('',#336,.T.);
#251=FACE_OUTER_BOUND('',#337,.T.);
#252=EDGE_LOOP('',(#338,#339,#340,#341));
#253=EDGE_LOOP('',(#342,#343,#344,#345));
#254=EDGE_LOOP('',(#346,#347,#348,#349));
#255=EDGE_LOOP('',(#350,#351,#352,#353));
#256=EDGE_LOOP('',(#354,#355,#356,#357));
#257=EDGE_LOOP('',(#358,#359,#360,#361,#362,#363,#364,#365,#366,#367,#368,
#369,#370,#371,#372,#373,#374,#375,#376,#377,#378,#379,#380,#381));
#258=EDGE_LOOP('',(#382,#383,#384,#385));
#259=EDGE_LOOP('',(#386,#387,#388,#389));
#260=EDGE_LOOP('',(#390,#391,#392,#393));
#261=EDGE_LOOP('',(#394,#395,#396,#397));
#262=EDGE_LOOP('',(#398,#399,#400,#401));
#263=EDGE_LOOP('',(#402,#403,#404,#405));
#264=EDGE_LOOP('',(#406,#407,#408,#409));
#265=EDGE_LOOP('',(#410,#411,#412,#413));
#266=EDGE_LOOP('',(#414,#415,#416,#417));
#267=EDGE_LOOP('',(#418,#419,#420,#421));
#268=EDGE_LOOP('',(#422,#423,#424,#425));
#269=EDGE_LOOP('',(#426,#427,#428,#429));
#270=EDGE_LOOP('',(#430,#431,#432,#433));
#271=EDGE_LOOP('',(#434,#435,#436,#437));
#272=EDGE_LOOP('',(#438,#439,#440,#441));
#273=EDGE_LOOP('',(#442,#443,#444,#445));
#274=EDGE_LOOP('',(#446,#447,#448,#449));
#275=EDGE_LOOP('',(#450,#451,#452,#453));
#276=EDGE_LOOP('',(#454,#455,#456,#457));
#277=EDGE_LOOP('',(#458,#459,#460,#461));
#278=EDGE_LOOP('',(#462,#463,#464,#465,#466,#467,#468,#469,#470,#471,#472,
#473,#474,#475,#476,#477,#478,#479,#480,#481,#482,#483,#484,#485));
#279=EDGE_LOOP('',(#486,#487,#488,#489));
#280=EDGE_LOOP('',(#490,#491,#492,#493));
#281=EDGE_LOOP('',(#494,#495,#496,#497));
#282=EDGE_LOOP('',(#498,#499,#500,#501));
#283=EDGE_LOOP('',(#502,#503,#504,#505));
#284=EDGE_LOOP('',(#506,#507,#508,#509));
#285=EDGE_LOOP('',(#510,#511,#512,#513));
#286=EDGE_LOOP('',(#514,#515,#516,#517));
#287=EDGE_LOOP('',(#518,#519,#520,#521));
#288=EDGE_LOOP('',(#522,#523,#524,#525));
#289=EDGE_LOOP('',(#526,#527,#528,#529));
#290=EDGE_LOOP('',(#530,#531,#532,#533));
#291=EDGE_LOOP('',(#534,#535,#536,#537));
#292=EDGE_LOOP('',(#538,#539,#540,#541));
#293=EDGE_LOOP('',(#542,#543,#544,#545));
#294=EDGE_LOOP('',(#546,#547,#548,#549));
#295=EDGE_LOOP('',(#550,#551,#552,#553));
#296=EDGE_LOOP('',(#554,#555,#556,#557));
#297=EDGE_LOOP('',(#558,#559,#560,#561));
#298=EDGE_LOOP('',(#562,#563,#564,#565));
#299=EDGE_LOOP('',(#566,#567,#568,#569));
#300=EDGE_LOOP('',(#570,#571,#572,#573));
#301=EDGE_LOOP('',(#574,#575,#576,#577));
#302=EDGE_LOOP('',(#578,#579,#580,#581));
#303=EDGE_LOOP('',(#582,#583,#584,#585));
#304=EDGE_LOOP('',(#586,#587,#588,#589));
#305=EDGE_LOOP('',(#590,#591,#592,#593));
#306=EDGE_LOOP('',(#594,#595,#596,#597));
#307=EDGE_LOOP('',(#598,#599,#600,#601));
#308=EDGE_LOOP('',(#602,#603,#604,#605));
#309=EDGE_LOOP('',(#606,#607,#608,#609));
#310=EDGE_LOOP('',(#610,#611,#612,#613));
#311=EDGE_LOOP('',(#614,#615,#616,#617));
#312=EDGE_LOOP('',(#618,#619,#620,#621));
#313=EDGE_LOOP('',(#622,#623,#624,#625));
#314=EDGE_LOOP('',(#626,#627,#628,#629));
#315=EDGE_LOOP('',(#630,#631,#632,#633));
#316=EDGE_LOOP('',(#634,#635,#636,#637));
#317=EDGE_LOOP('',(#638,#639,#640,#641));
#318=EDGE_LOOP('',(#642,#643,#644,#645));
#319=EDGE_LOOP('',(#646,#647,#648,#649));
#320=EDGE_LOOP('',(#650,#651,#652,#653));
#321=EDGE_LOOP('',(#654,#655,#656,#657));
#322=EDGE_LOOP('',(#658,#659,#660,#661));
#323=EDGE_LOOP('',(#662,#663,#664,#665));
#324=EDGE_LOOP('',(#666,#667,#668,#669));
#325=EDGE_LOOP('',(#670,#671,#672,#673));
#326=EDGE_LOOP('',(#674,#675,#676,#677));
#327=EDGE_LOOP('',(#678,#679,#680,#681));
#328=EDGE_LOOP('',(#682,#683,#684,#685));
#329=EDGE_LOOP('',(#686,#687,#688,#689));
#330=EDGE_LOOP('',(#690,#691,#692,#693));
#331=EDGE_LOOP('',(#694,#695,#696,#697));
#332=EDGE_LOOP('',(#698,#699,#700,#701));
#333=EDGE_LOOP('',(#702,#703,#704,#705));
#334=EDGE_LOOP('',(#706,#707,#708,#709));
#335=EDGE_LOOP('',(#710,#711,#712,#713));
#336=EDGE_LOOP('',(#714,#715,#716,#717));
#337=EDGE_LOOP('',(#718,#719,#720,#721));
#338=ORIENTED_EDGE('',*,*,#850,.F.);
#339=ORIENTED_EDGE('',*,*,#851,.F.);
#340=ORIENTED_EDGE('',*,*,#852,.T.);
#341=ORIENTED_EDGE('',*,*,#853,.T.);
#342=ORIENTED_EDGE('',*,*,#854,.F.);
#343=ORIENTED_EDGE('',*,*,#855,.F.);
#344=ORIENTED_EDGE('',*,*,#856,.T.);
#345=ORIENTED_EDGE('',*,*,#857,.T.);
#346=ORIENTED_EDGE('',*,*,#858,.F.);
#347=ORIENTED_EDGE('',*,*,#859,.F.);
#348=ORIENTED_EDGE('',*,*,#860,.T.);
#349=ORIENTED_EDGE('',*,*,#861,.T.);
#350=ORIENTED_EDGE('',*,*,#862,.F.);
#351=ORIENTED_EDGE('',*,*,#863,.T.);
#352=ORIENTED_EDGE('',*,*,#864,.T.);
#353=ORIENTED_EDGE('',*,*,#865,.F.);
#354=ORIENTED_EDGE('',*,*,#866,.F.);
#355=ORIENTED_EDGE('',*,*,#867,.T.);
#356=ORIENTED_EDGE('',*,*,#868,.T.);
#357=ORIENTED_EDGE('',*,*,#869,.F.);
#358=ORIENTED_EDGE('',*,*,#870,.F.);
#359=ORIENTED_EDGE('',*,*,#871,.F.);
#360=ORIENTED_EDGE('',*,*,#872,.F.);
#361=ORIENTED_EDGE('',*,*,#873,.T.);
#362=ORIENTED_EDGE('',*,*,#859,.T.);
#363=ORIENTED_EDGE('',*,*,#874,.T.);
#364=ORIENTED_EDGE('',*,*,#875,.T.);
#365=ORIENTED_EDGE('',*,*,#876,.T.);
#366=ORIENTED_EDGE('',*,*,#862,.T.);
#367=ORIENTED_EDGE('',*,*,#877,.T.);
#368=ORIENTED_EDGE('',*,*,#878,.T.);
#369=ORIENTED_EDGE('',*,*,#879,.T.);
#370=ORIENTED_EDGE('',*,*,#866,.T.);
#371=ORIENTED_EDGE('',*,*,#880,.T.);
#372=ORIENTED_EDGE('',*,*,#881,.T.);
#373=ORIENTED_EDGE('',*,*,#882,.T.);
#374=ORIENTED_EDGE('',*,*,#883,.T.);
#375=ORIENTED_EDGE('',*,*,#855,.T.);
#376=ORIENTED_EDGE('',*,*,#884,.F.);
#377=ORIENTED_EDGE('',*,*,#885,.F.);
#378=ORIENTED_EDGE('',*,*,#886,.F.);
#379=ORIENTED_EDGE('',*,*,#887,.T.);
#380=ORIENTED_EDGE('',*,*,#888,.T.);
#381=ORIENTED_EDGE('',*,*,#851,.T.);
#382=ORIENTED_EDGE('',*,*,#889,.F.);
#383=ORIENTED_EDGE('',*,*,#890,.F.);
#384=ORIENTED_EDGE('',*,*,#891,.F.);
#385=ORIENTED_EDGE('',*,*,#892,.F.);
#386=ORIENTED_EDGE('',*,*,#893,.T.);
#387=ORIENTED_EDGE('',*,*,#894,.T.);
#388=ORIENTED_EDGE('',*,*,#895,.T.);
#389=ORIENTED_EDGE('',*,*,#896,.T.);
#390=ORIENTED_EDGE('',*,*,#897,.T.);
#391=ORIENTED_EDGE('',*,*,#898,.T.);
#392=ORIENTED_EDGE('',*,*,#899,.T.);
#393=ORIENTED_EDGE('',*,*,#900,.T.);
#394=ORIENTED_EDGE('',*,*,#901,.T.);
#395=ORIENTED_EDGE('',*,*,#902,.T.);
#396=ORIENTED_EDGE('',*,*,#903,.T.);
#397=ORIENTED_EDGE('',*,*,#904,.T.);
#398=ORIENTED_EDGE('',*,*,#905,.T.);
#399=ORIENTED_EDGE('',*,*,#906,.T.);
#400=ORIENTED_EDGE('',*,*,#907,.T.);
#401=ORIENTED_EDGE('',*,*,#908,.T.);
#402=ORIENTED_EDGE('',*,*,#909,.T.);
#403=ORIENTED_EDGE('',*,*,#910,.T.);
#404=ORIENTED_EDGE('',*,*,#911,.T.);
#405=ORIENTED_EDGE('',*,*,#912,.T.);
#406=ORIENTED_EDGE('',*,*,#913,.T.);
#407=ORIENTED_EDGE('',*,*,#914,.T.);
#408=ORIENTED_EDGE('',*,*,#915,.T.);
#409=ORIENTED_EDGE('',*,*,#916,.T.);
#410=ORIENTED_EDGE('',*,*,#917,.T.);
#411=ORIENTED_EDGE('',*,*,#918,.T.);
#412=ORIENTED_EDGE('',*,*,#919,.T.);
#413=ORIENTED_EDGE('',*,*,#920,.T.);
#414=ORIENTED_EDGE('',*,*,#921,.T.);
#415=ORIENTED_EDGE('',*,*,#922,.T.);
#416=ORIENTED_EDGE('',*,*,#923,.T.);
#417=ORIENTED_EDGE('',*,*,#924,.T.);
#418=ORIENTED_EDGE('',*,*,#925,.T.);
#419=ORIENTED_EDGE('',*,*,#926,.T.);
#420=ORIENTED_EDGE('',*,*,#927,.T.);
#421=ORIENTED_EDGE('',*,*,#928,.T.);
#422=ORIENTED_EDGE('',*,*,#929,.T.);
#423=ORIENTED_EDGE('',*,*,#930,.T.);
#424=ORIENTED_EDGE('',*,*,#931,.T.);
#425=ORIENTED_EDGE('',*,*,#932,.T.);
#426=ORIENTED_EDGE('',*,*,#933,.F.);
#427=ORIENTED_EDGE('',*,*,#934,.F.);
#428=ORIENTED_EDGE('',*,*,#935,.F.);
#429=ORIENTED_EDGE('',*,*,#936,.F.);
#430=ORIENTED_EDGE('',*,*,#937,.F.);
#431=ORIENTED_EDGE('',*,*,#938,.F.);
#432=ORIENTED_EDGE('',*,*,#939,.F.);
#433=ORIENTED_EDGE('',*,*,#940,.F.);
#434=ORIENTED_EDGE('',*,*,#941,.F.);
#435=ORIENTED_EDGE('',*,*,#942,.F.);
#436=ORIENTED_EDGE('',*,*,#943,.F.);
#437=ORIENTED_EDGE('',*,*,#944,.F.);
#438=ORIENTED_EDGE('',*,*,#945,.F.);
#439=ORIENTED_EDGE('',*,*,#946,.F.);
#440=ORIENTED_EDGE('',*,*,#947,.F.);
#441=ORIENTED_EDGE('',*,*,#948,.F.);
#442=ORIENTED_EDGE('',*,*,#949,.F.);
#443=ORIENTED_EDGE('',*,*,#950,.F.);
#444=ORIENTED_EDGE('',*,*,#951,.F.);
#445=ORIENTED_EDGE('',*,*,#952,.F.);
#446=ORIENTED_EDGE('',*,*,#953,.F.);
#447=ORIENTED_EDGE('',*,*,#954,.F.);
#448=ORIENTED_EDGE('',*,*,#955,.F.);
#449=ORIENTED_EDGE('',*,*,#956,.F.);
#450=ORIENTED_EDGE('',*,*,#957,.F.);
#451=ORIENTED_EDGE('',*,*,#958,.F.);
#452=ORIENTED_EDGE('',*,*,#959,.F.);
#453=ORIENTED_EDGE('',*,*,#960,.F.);
#454=ORIENTED_EDGE('',*,*,#961,.F.);
#455=ORIENTED_EDGE('',*,*,#962,.F.);
#456=ORIENTED_EDGE('',*,*,#963,.F.);
#457=ORIENTED_EDGE('',*,*,#964,.F.);
#458=ORIENTED_EDGE('',*,*,#965,.F.);
#459=ORIENTED_EDGE('',*,*,#966,.F.);
#460=ORIENTED_EDGE('',*,*,#967,.F.);
#461=ORIENTED_EDGE('',*,*,#968,.F.);
#462=ORIENTED_EDGE('',*,*,#969,.T.);
#463=ORIENTED_EDGE('',*,*,#970,.T.);
#464=ORIENTED_EDGE('',*,*,#853,.F.);
#465=ORIENTED_EDGE('',*,*,#971,.F.);
#466=ORIENTED_EDGE('',*,*,#972,.F.);
#467=ORIENTED_EDGE('',*,*,#973,.T.);
#468=ORIENTED_EDGE('',*,*,#974,.T.);
#469=ORIENTED_EDGE('',*,*,#975,.T.);
#470=ORIENTED_EDGE('',*,*,#857,.F.);
#471=ORIENTED_EDGE('',*,*,#976,.F.);
#472=ORIENTED_EDGE('',*,*,#977,.F.);
#473=ORIENTED_EDGE('',*,*,#978,.F.);
#474=ORIENTED_EDGE('',*,*,#979,.F.);
#475=ORIENTED_EDGE('',*,*,#868,.F.);
#476=ORIENTED_EDGE('',*,*,#980,.F.);
#477=ORIENTED_EDGE('',*,*,#981,.F.);
#478=ORIENTED_EDGE('',*,*,#982,.F.);
#479=ORIENTED_EDGE('',*,*,#864,.F.);
#480=ORIENTED_EDGE('',*,*,#983,.F.);
#481=ORIENTED_EDGE('',*,*,#984,.F.);
#482=ORIENTED_EDGE('',*,*,#985,.F.);
#483=ORIENTED_EDGE('',*,*,#861,.F.);
#484=ORIENTED_EDGE('',*,*,#986,.F.);
#485=ORIENTED_EDGE('',*,*,#987,.T.);
#486=ORIENTED_EDGE('',*,*,#873,.F.);
#487=ORIENTED_EDGE('',*,*,#988,.T.);
#488=ORIENTED_EDGE('',*,*,#986,.T.);
#489=ORIENTED_EDGE('',*,*,#860,.F.);
#490=ORIENTED_EDGE('',*,*,#883,.F.);
#491=ORIENTED_EDGE('',*,*,#989,.T.);
#492=ORIENTED_EDGE('',*,*,#976,.T.);
#493=ORIENTED_EDGE('',*,*,#856,.F.);
#494=ORIENTED_EDGE('',*,*,#887,.F.);
#495=ORIENTED_EDGE('',*,*,#990,.T.);
#496=ORIENTED_EDGE('',*,*,#972,.T.);
#497=ORIENTED_EDGE('',*,*,#991,.F.);
#498=ORIENTED_EDGE('',*,*,#971,.T.);
#499=ORIENTED_EDGE('',*,*,#852,.F.);
#500=ORIENTED_EDGE('',*,*,#888,.F.);
#501=ORIENTED_EDGE('',*,*,#991,.T.);
#502=ORIENTED_EDGE('',*,*,#979,.T.);
#503=ORIENTED_EDGE('',*,*,#992,.T.);
#504=ORIENTED_EDGE('',*,*,#880,.F.);
#505=ORIENTED_EDGE('',*,*,#869,.T.);
#506=ORIENTED_EDGE('',*,*,#978,.T.);
#507=ORIENTED_EDGE('',*,*,#993,.T.);
#508=ORIENTED_EDGE('',*,*,#881,.F.);
#509=ORIENTED_EDGE('',*,*,#992,.F.);
#510=ORIENTED_EDGE('',*,*,#977,.T.);
#511=ORIENTED_EDGE('',*,*,#989,.F.);
#512=ORIENTED_EDGE('',*,*,#882,.F.);
#513=ORIENTED_EDGE('',*,*,#993,.F.);
#514=ORIENTED_EDGE('',*,*,#982,.T.);
#515=ORIENTED_EDGE('',*,*,#994,.T.);
#516=ORIENTED_EDGE('',*,*,#877,.F.);
#517=ORIENTED_EDGE('',*,*,#865,.T.);
#518=ORIENTED_EDGE('',*,*,#981,.T.);
#519=ORIENTED_EDGE('',*,*,#995,.T.);
#520=ORIENTED_EDGE('',*,*,#878,.F.);
#521=ORIENTED_EDGE('',*,*,#994,.F.);
#522=ORIENTED_EDGE('',*,*,#980,.T.);
#523=ORIENTED_EDGE('',*,*,#867,.F.);
#524=ORIENTED_EDGE('',*,*,#879,.F.);
#525=ORIENTED_EDGE('',*,*,#995,.F.);
#526=ORIENTED_EDGE('',*,*,#985,.T.);
#527=ORIENTED_EDGE('',*,*,#996,.T.);
#528=ORIENTED_EDGE('',*,*,#874,.F.);
#529=ORIENTED_EDGE('',*,*,#858,.T.);
#530=ORIENTED_EDGE('',*,*,#984,.T.);
#531=ORIENTED_EDGE('',*,*,#997,.T.);
#532=ORIENTED_EDGE('',*,*,#875,.F.);
#533=ORIENTED_EDGE('',*,*,#996,.F.);
#534=ORIENTED_EDGE('',*,*,#983,.T.);
#535=ORIENTED_EDGE('',*,*,#863,.F.);
#536=ORIENTED_EDGE('',*,*,#876,.F.);
#537=ORIENTED_EDGE('',*,*,#997,.F.);
#538=ORIENTED_EDGE('',*,*,#966,.T.);
#539=ORIENTED_EDGE('',*,*,#998,.T.);
#540=ORIENTED_EDGE('',*,*,#925,.F.);
#541=ORIENTED_EDGE('',*,*,#999,.F.);
#542=ORIENTED_EDGE('',*,*,#965,.T.);
#543=ORIENTED_EDGE('',*,*,#1000,.T.);
#544=ORIENTED_EDGE('',*,*,#926,.F.);
#545=ORIENTED_EDGE('',*,*,#998,.F.);
#546=ORIENTED_EDGE('',*,*,#968,.T.);
#547=ORIENTED_EDGE('',*,*,#1001,.T.);
#548=ORIENTED_EDGE('',*,*,#927,.F.);
#549=ORIENTED_EDGE('',*,*,#1000,.F.);
#550=ORIENTED_EDGE('',*,*,#967,.T.);
#551=ORIENTED_EDGE('',*,*,#999,.T.);
#552=ORIENTED_EDGE('',*,*,#928,.F.);
#553=ORIENTED_EDGE('',*,*,#1001,.F.);
#554=ORIENTED_EDGE('',*,*,#962,.T.);
#555=ORIENTED_EDGE('',*,*,#1002,.T.);
#556=ORIENTED_EDGE('',*,*,#921,.F.);
#557=ORIENTED_EDGE('',*,*,#1003,.F.);
#558=ORIENTED_EDGE('',*,*,#961,.T.);
#559=ORIENTED_EDGE('',*,*,#1004,.T.);
#560=ORIENTED_EDGE('',*,*,#922,.F.);
#561=ORIENTED_EDGE('',*,*,#1002,.F.);
#562=ORIENTED_EDGE('',*,*,#964,.T.);
#563=ORIENTED_EDGE('',*,*,#1005,.T.);
#564=ORIENTED_EDGE('',*,*,#923,.F.);
#565=ORIENTED_EDGE('',*,*,#1004,.F.);
#566=ORIENTED_EDGE('',*,*,#963,.T.);
#567=ORIENTED_EDGE('',*,*,#1003,.T.);
#568=ORIENTED_EDGE('',*,*,#924,.F.);
#569=ORIENTED_EDGE('',*,*,#1005,.F.);
#570=ORIENTED_EDGE('',*,*,#958,.T.);
#571=ORIENTED_EDGE('',*,*,#1006,.T.);
#572=ORIENTED_EDGE('',*,*,#917,.F.);
#573=ORIENTED_EDGE('',*,*,#1007,.F.);
#574=ORIENTED_EDGE('',*,*,#957,.T.);
#575=ORIENTED_EDGE('',*,*,#1008,.T.);
#576=ORIENTED_EDGE('',*,*,#918,.F.);
#577=ORIENTED_EDGE('',*,*,#1006,.F.);
#578=ORIENTED_EDGE('',*,*,#960,.T.);
#579=ORIENTED_EDGE('',*,*,#1009,.T.);
#580=ORIENTED_EDGE('',*,*,#919,.F.);
#581=ORIENTED_EDGE('',*,*,#1008,.F.);
#582=ORIENTED_EDGE('',*,*,#959,.T.);
#583=ORIENTED_EDGE('',*,*,#1007,.T.);
#584=ORIENTED_EDGE('',*,*,#920,.F.);
#585=ORIENTED_EDGE('',*,*,#1009,.F.);
#586=ORIENTED_EDGE('',*,*,#954,.T.);
#587=ORIENTED_EDGE('',*,*,#1010,.T.);
#588=ORIENTED_EDGE('',*,*,#913,.F.);
#589=ORIENTED_EDGE('',*,*,#1011,.F.);
#590=ORIENTED_EDGE('',*,*,#953,.T.);
#591=ORIENTED_EDGE('',*,*,#1012,.T.);
#592=ORIENTED_EDGE('',*,*,#914,.F.);
#593=ORIENTED_EDGE('',*,*,#1010,.F.);
#594=ORIENTED_EDGE('',*,*,#956,.T.);
#595=ORIENTED_EDGE('',*,*,#1013,.T.);
#596=ORIENTED_EDGE('',*,*,#915,.F.);
#597=ORIENTED_EDGE('',*,*,#1012,.F.);
#598=ORIENTED_EDGE('',*,*,#955,.T.);
#599=ORIENTED_EDGE('',*,*,#1011,.T.);
#600=ORIENTED_EDGE('',*,*,#916,.F.);
#601=ORIENTED_EDGE('',*,*,#1013,.F.);
#602=ORIENTED_EDGE('',*,*,#950,.T.);
#603=ORIENTED_EDGE('',*,*,#1014,.T.);
#604=ORIENTED_EDGE('',*,*,#909,.F.);
#605=ORIENTED_EDGE('',*,*,#1015,.F.);
#606=ORIENTED_EDGE('',*,*,#949,.T.);
#607=ORIENTED_EDGE('',*,*,#1016,.T.);
#608=ORIENTED_EDGE('',*,*,#910,.F.);
#609=ORIENTED_EDGE('',*,*,#1014,.F.);
#610=ORIENTED_EDGE('',*,*,#952,.T.);
#611=ORIENTED_EDGE('',*,*,#1017,.T.);
#612=ORIENTED_EDGE('',*,*,#911,.F.);
#613=ORIENTED_EDGE('',*,*,#1016,.F.);
#614=ORIENTED_EDGE('',*,*,#951,.T.);
#615=ORIENTED_EDGE('',*,*,#1015,.T.);
#616=ORIENTED_EDGE('',*,*,#912,.F.);
#617=ORIENTED_EDGE('',*,*,#1017,.F.);
#618=ORIENTED_EDGE('',*,*,#946,.T.);
#619=ORIENTED_EDGE('',*,*,#1018,.T.);
#620=ORIENTED_EDGE('',*,*,#905,.F.);
#621=ORIENTED_EDGE('',*,*,#1019,.F.);
#622=ORIENTED_EDGE('',*,*,#945,.T.);
#623=ORIENTED_EDGE('',*,*,#1020,.T.);
#624=ORIENTED_EDGE('',*,*,#906,.F.);
#625=ORIENTED_EDGE('',*,*,#1018,.F.);
#626=ORIENTED_EDGE('',*,*,#948,.T.);
#627=ORIENTED_EDGE('',*,*,#1021,.T.);
#628=ORIENTED_EDGE('',*,*,#907,.F.);
#629=ORIENTED_EDGE('',*,*,#1020,.F.);
#630=ORIENTED_EDGE('',*,*,#947,.T.);
#631=ORIENTED_EDGE('',*,*,#1019,.T.);
#632=ORIENTED_EDGE('',*,*,#908,.F.);
#633=ORIENTED_EDGE('',*,*,#1021,.F.);
#634=ORIENTED_EDGE('',*,*,#942,.T.);
#635=ORIENTED_EDGE('',*,*,#1022,.T.);
#636=ORIENTED_EDGE('',*,*,#901,.F.);
#637=ORIENTED_EDGE('',*,*,#1023,.F.);
#638=ORIENTED_EDGE('',*,*,#941,.T.);
#639=ORIENTED_EDGE('',*,*,#1024,.T.);
#640=ORIENTED_EDGE('',*,*,#902,.F.);
#641=ORIENTED_EDGE('',*,*,#1022,.F.);
#642=ORIENTED_EDGE('',*,*,#944,.T.);
#643=ORIENTED_EDGE('',*,*,#1025,.T.);
#644=ORIENTED_EDGE('',*,*,#903,.F.);
#645=ORIENTED_EDGE('',*,*,#1024,.F.);
#646=ORIENTED_EDGE('',*,*,#943,.T.);
#647=ORIENTED_EDGE('',*,*,#1023,.T.);
#648=ORIENTED_EDGE('',*,*,#904,.F.);
#649=ORIENTED_EDGE('',*,*,#1025,.F.);
#650=ORIENTED_EDGE('',*,*,#938,.T.);
#651=ORIENTED_EDGE('',*,*,#1026,.T.);
#652=ORIENTED_EDGE('',*,*,#897,.F.);
#653=ORIENTED_EDGE('',*,*,#1027,.F.);
#654=ORIENTED_EDGE('',*,*,#937,.T.);
#655=ORIENTED_EDGE('',*,*,#1028,.T.);
#656=ORIENTED_EDGE('',*,*,#898,.F.);
#657=ORIENTED_EDGE('',*,*,#1026,.F.);
#658=ORIENTED_EDGE('',*,*,#940,.T.);
#659=ORIENTED_EDGE('',*,*,#1029,.T.);
#660=ORIENTED_EDGE('',*,*,#899,.F.);
#661=ORIENTED_EDGE('',*,*,#1028,.F.);
#662=ORIENTED_EDGE('',*,*,#939,.T.);
#663=ORIENTED_EDGE('',*,*,#1027,.T.);
#664=ORIENTED_EDGE('',*,*,#900,.F.);
#665=ORIENTED_EDGE('',*,*,#1029,.F.);
#666=ORIENTED_EDGE('',*,*,#934,.T.);
#667=ORIENTED_EDGE('',*,*,#1030,.T.);
#668=ORIENTED_EDGE('',*,*,#893,.F.);
#669=ORIENTED_EDGE('',*,*,#1031,.F.);
#670=ORIENTED_EDGE('',*,*,#933,.T.);
#671=ORIENTED_EDGE('',*,*,#1032,.T.);
#672=ORIENTED_EDGE('',*,*,#894,.F.);
#673=ORIENTED_EDGE('',*,*,#1030,.F.);
#674=ORIENTED_EDGE('',*,*,#936,.T.);
#675=ORIENTED_EDGE('',*,*,#1033,.T.);
#676=ORIENTED_EDGE('',*,*,#895,.F.);
#677=ORIENTED_EDGE('',*,*,#1032,.F.);
#678=ORIENTED_EDGE('',*,*,#935,.T.);
#679=ORIENTED_EDGE('',*,*,#1031,.T.);
#680=ORIENTED_EDGE('',*,*,#896,.F.);
#681=ORIENTED_EDGE('',*,*,#1033,.F.);
#682=ORIENTED_EDGE('',*,*,#889,.T.);
#683=ORIENTED_EDGE('',*,*,#1034,.F.);
#684=ORIENTED_EDGE('',*,*,#930,.F.);
#685=ORIENTED_EDGE('',*,*,#1035,.T.);
#686=ORIENTED_EDGE('',*,*,#890,.T.);
#687=ORIENTED_EDGE('',*,*,#1035,.F.);
#688=ORIENTED_EDGE('',*,*,#929,.F.);
#689=ORIENTED_EDGE('',*,*,#1036,.T.);
#690=ORIENTED_EDGE('',*,*,#891,.T.);
#691=ORIENTED_EDGE('',*,*,#1036,.F.);
#692=ORIENTED_EDGE('',*,*,#932,.F.);
#693=ORIENTED_EDGE('',*,*,#1037,.T.);
#694=ORIENTED_EDGE('',*,*,#892,.T.);
#695=ORIENTED_EDGE('',*,*,#1037,.F.);
#696=ORIENTED_EDGE('',*,*,#931,.F.);
#697=ORIENTED_EDGE('',*,*,#1034,.T.);
#698=ORIENTED_EDGE('',*,*,#885,.T.);
#699=ORIENTED_EDGE('',*,*,#1038,.F.);
#700=ORIENTED_EDGE('',*,*,#974,.F.);
#701=ORIENTED_EDGE('',*,*,#1039,.T.);
#702=ORIENTED_EDGE('',*,*,#886,.T.);
#703=ORIENTED_EDGE('',*,*,#1039,.F.);
#704=ORIENTED_EDGE('',*,*,#973,.F.);
#705=ORIENTED_EDGE('',*,*,#990,.F.);
#706=ORIENTED_EDGE('',*,*,#884,.T.);
#707=ORIENTED_EDGE('',*,*,#854,.T.);
#708=ORIENTED_EDGE('',*,*,#975,.F.);
#709=ORIENTED_EDGE('',*,*,#1038,.T.);
#710=ORIENTED_EDGE('',*,*,#870,.T.);
#711=ORIENTED_EDGE('',*,*,#850,.T.);
#712=ORIENTED_EDGE('',*,*,#970,.F.);
#713=ORIENTED_EDGE('',*,*,#1040,.T.);
#714=ORIENTED_EDGE('',*,*,#871,.T.);
#715=ORIENTED_EDGE('',*,*,#1040,.F.);
#716=ORIENTED_EDGE('',*,*,#969,.F.);
#717=ORIENTED_EDGE('',*,*,#1041,.T.);
#718=ORIENTED_EDGE('',*,*,#872,.T.);
#719=ORIENTED_EDGE('',*,*,#1041,.F.);
#720=ORIENTED_EDGE('',*,*,#987,.F.);
#721=ORIENTED_EDGE('',*,*,#988,.F.);
#722=VERTEX_POINT('',#1821);
#723=VERTEX_POINT('',#1822);
#724=VERTEX_POINT('',#1824);
#725=VERTEX_POINT('',#1826);
#726=VERTEX_POINT('',#1830);
#727=VERTEX_POINT('',#1831);
#728=VERTEX_POINT('',#1833);
#729=VERTEX_POINT('',#1835);
#730=VERTEX_POINT('',#1839);
#731=VERTEX_POINT('',#1840);
#732=VERTEX_POINT('',#1842);
#733=VERTEX_POINT('',#1844);
#734=VERTEX_POINT('',#1848);
#735=VERTEX_POINT('',#1849);
#736=VERTEX_POINT('',#1851);
#737=VERTEX_POINT('',#1853);
#738=VERTEX_POINT('',#1857);
#739=VERTEX_POINT('',#1858);
#740=VERTEX_POINT('',#1860);
#741=VERTEX_POINT('',#1862);
#742=VERTEX_POINT('',#1866);
#743=VERTEX_POINT('',#1868);
#744=VERTEX_POINT('',#1870);
#745=VERTEX_POINT('',#1873);
#746=VERTEX_POINT('',#1875);
#747=VERTEX_POINT('',#1878);
#748=VERTEX_POINT('',#1880);
#749=VERTEX_POINT('',#1883);
#750=VERTEX_POINT('',#1885);
#751=VERTEX_POINT('',#1887);
#752=VERTEX_POINT('',#1890);
#753=VERTEX_POINT('',#1892);
#754=VERTEX_POINT('',#1894);
#755=VERTEX_POINT('',#1896);
#756=VERTEX_POINT('',#1899);
#757=VERTEX_POINT('',#1900);
#758=VERTEX_POINT('',#1902);
#759=VERTEX_POINT('',#1904);
#760=VERTEX_POINT('',#1907);
#761=VERTEX_POINT('',#1908);
#762=VERTEX_POINT('',#1910);
#763=VERTEX_POINT('',#1912);
#764=VERTEX_POINT('',#1915);
#765=VERTEX_POINT('',#1916);
#766=VERTEX_POINT('',#1918);
#767=VERTEX_POINT('',#1920);
#768=VERTEX_POINT('',#1923);
#769=VERTEX_POINT('',#1924);
#770=VERTEX_POINT('',#1926);
#771=VERTEX_POINT('',#1928);
#772=VERTEX_POINT('',#1931);
#773=VERTEX_POINT('',#1932);
#774=VERTEX_POINT('',#1934);
#775=VERTEX_POINT('',#1936);
#776=VERTEX_POINT('',#1939);
#777=VERTEX_POINT('',#1940);
#778=VERTEX_POINT('',#1942);
#779=VERTEX_POINT('',#1944);
#780=VERTEX_POINT('',#1947);
#781=VERTEX_POINT('',#1948);
#782=VERTEX_POINT('',#1950);
#783=VERTEX_POINT('',#1952);
#784=VERTEX_POINT('',#1955);
#785=VERTEX_POINT('',#1956);
#786=VERTEX_POINT('',#1958);
#787=VERTEX_POINT('',#1960);
#788=VERTEX_POINT('',#1963);
#789=VERTEX_POINT('',#1964);
#790=VERTEX_POINT('',#1966);
#791=VERTEX_POINT('',#1968);
#792=VERTEX_POINT('',#1971);
#793=VERTEX_POINT('',#1972);
#794=VERTEX_POINT('',#1974);
#795=VERTEX_POINT('',#1976);
#796=VERTEX_POINT('',#1980);
#797=VERTEX_POINT('',#1981);
#798=VERTEX_POINT('',#1983);
#799=VERTEX_POINT('',#1985);
#800=VERTEX_POINT('',#1988);
#801=VERTEX_POINT('',#1989);
#802=VERTEX_POINT('',#1991);
#803=VERTEX_POINT('',#1993);
#804=VERTEX_POINT('',#1996);
#805=VERTEX_POINT('',#1997);
#806=VERTEX_POINT('',#1999);
#807=VERTEX_POINT('',#2001);
#808=VERTEX_POINT('',#2004);
#809=VERTEX_POINT('',#2005);
#810=VERTEX_POINT('',#2007);
#811=VERTEX_POINT('',#2009);
#812=VERTEX_POINT('',#2012);
#813=VERTEX_POINT('',#2013);
#814=VERTEX_POINT('',#2015);
#815=VERTEX_POINT('',#2017);
#816=VERTEX_POINT('',#2020);
#817=VERTEX_POINT('',#2021);
#818=VERTEX_POINT('',#2023);
#819=VERTEX_POINT('',#2025);
#820=VERTEX_POINT('',#2028);
#821=VERTEX_POINT('',#2029);
#822=VERTEX_POINT('',#2031);
#823=VERTEX_POINT('',#2033);
#824=VERTEX_POINT('',#2036);
#825=VERTEX_POINT('',#2037);
#826=VERTEX_POINT('',#2039);
#827=VERTEX_POINT('',#2041);
#828=VERTEX_POINT('',#2044);
#829=VERTEX_POINT('',#2045);
#830=VERTEX_POINT('',#2047);
#831=VERTEX_POINT('',#2049);
#832=VERTEX_POINT('',#2052);
#833=VERTEX_POINT('',#2053);
#834=VERTEX_POINT('',#2055);
#835=VERTEX_POINT('',#2057);
#836=VERTEX_POINT('',#2060);
#837=VERTEX_POINT('',#2061);
#838=VERTEX_POINT('',#2064);
#839=VERTEX_POINT('',#2066);
#840=VERTEX_POINT('',#2068);
#841=VERTEX_POINT('',#2070);
#842=VERTEX_POINT('',#2073);
#843=VERTEX_POINT('',#2075);
#844=VERTEX_POINT('',#2077);
#845=VERTEX_POINT('',#2080);
#846=VERTEX_POINT('',#2082);
#847=VERTEX_POINT('',#2085);
#848=VERTEX_POINT('',#2087);
#849=VERTEX_POINT('',#2090);
#850=EDGE_CURVE('',#722,#723,#1042,.T.);
#851=EDGE_CURVE('',#724,#722,#1043,.T.);
#852=EDGE_CURVE('',#724,#725,#1044,.T.);
#853=EDGE_CURVE('',#725,#723,#1045,.T.);
#854=EDGE_CURVE('',#726,#727,#1046,.T.);
#855=EDGE_CURVE('',#728,#726,#1047,.T.);
#856=EDGE_CURVE('',#728,#729,#1048,.T.);
#857=EDGE_CURVE('',#729,#727,#1049,.T.);
#858=EDGE_CURVE('',#730,#731,#1050,.T.);
#859=EDGE_CURVE('',#732,#730,#1051,.T.);
#860=EDGE_CURVE('',#732,#733,#1052,.T.);
#861=EDGE_CURVE('',#733,#731,#1053,.T.);
#862=EDGE_CURVE('',#734,#735,#1054,.T.);
#863=EDGE_CURVE('',#734,#736,#1055,.T.);
#864=EDGE_CURVE('',#736,#737,#1056,.T.);
#865=EDGE_CURVE('',#735,#737,#1057,.T.);
#866=EDGE_CURVE('',#738,#739,#1058,.T.);
#867=EDGE_CURVE('',#738,#740,#1059,.T.);
#868=EDGE_CURVE('',#740,#741,#1060,.T.);
#869=EDGE_CURVE('',#739,#741,#1061,.T.);
#870=EDGE_CURVE('',#742,#722,#1062,.T.);
#871=EDGE_CURVE('',#743,#742,#1063,.T.);
#872=EDGE_CURVE('',#744,#743,#1064,.T.);
#873=EDGE_CURVE('',#744,#732,#1065,.T.);
#874=EDGE_CURVE('',#730,#745,#1066,.T.);
#875=EDGE_CURVE('',#745,#746,#1067,.T.);
#876=EDGE_CURVE('',#746,#734,#1068,.T.);
#877=EDGE_CURVE('',#735,#747,#1069,.T.);
#878=EDGE_CURVE('',#747,#748,#1070,.T.);
#879=EDGE_CURVE('',#748,#738,#1071,.T.);
#880=EDGE_CURVE('',#739,#749,#1072,.T.);
#881=EDGE_CURVE('',#749,#750,#1073,.T.);
#882=EDGE_CURVE('',#750,#751,#1074,.T.);
#883=EDGE_CURVE('',#751,#728,#1075,.T.);
#884=EDGE_CURVE('',#752,#726,#1076,.T.);
#885=EDGE_CURVE('',#753,#752,#1077,.T.);
#886=EDGE_CURVE('',#754,#753,#1078,.T.);
#887=EDGE_CURVE('',#754,#755,#1079,.T.);
#888=EDGE_CURVE('',#755,#724,#1080,.T.);
#889=EDGE_CURVE('',#756,#757,#1081,.T.);
#890=EDGE_CURVE('',#758,#756,#1082,.T.);
#891=EDGE_CURVE('',#759,#758,#1083,.T.);
#892=EDGE_CURVE('',#757,#759,#1084,.T.);
#893=EDGE_CURVE('',#760,#761,#1085,.T.);
#894=EDGE_CURVE('',#761,#762,#1086,.T.);
#895=EDGE_CURVE('',#762,#763,#1087,.T.);
#896=EDGE_CURVE('',#763,#760,#1088,.T.);
#897=EDGE_CURVE('',#764,#765,#1089,.T.);
#898=EDGE_CURVE('',#765,#766,#1090,.T.);
#899=EDGE_CURVE('',#766,#767,#1091,.T.);
#900=EDGE_CURVE('',#767,#764,#1092,.T.);
#901=EDGE_CURVE('',#768,#769,#1093,.T.);
#902=EDGE_CURVE('',#769,#770,#1094,.T.);
#903=EDGE_CURVE('',#770,#771,#1095,.T.);
#904=EDGE_CURVE('',#771,#768,#1096,.T.);
#905=EDGE_CURVE('',#772,#773,#1097,.T.);
#906=EDGE_CURVE('',#773,#774,#1098,.T.);
#907=EDGE_CURVE('',#774,#775,#1099,.T.);
#908=EDGE_CURVE('',#775,#772,#1100,.T.);
#909=EDGE_CURVE('',#776,#777,#1101,.T.);
#910=EDGE_CURVE('',#777,#778,#1102,.T.);
#911=EDGE_CURVE('',#778,#779,#1103,.T.);
#912=EDGE_CURVE('',#779,#776,#1104,.T.);
#913=EDGE_CURVE('',#780,#781,#1105,.T.);
#914=EDGE_CURVE('',#781,#782,#1106,.T.);
#915=EDGE_CURVE('',#782,#783,#1107,.T.);
#916=EDGE_CURVE('',#783,#780,#1108,.T.);
#917=EDGE_CURVE('',#784,#785,#1109,.T.);
#918=EDGE_CURVE('',#785,#786,#1110,.T.);
#919=EDGE_CURVE('',#786,#787,#1111,.T.);
#920=EDGE_CURVE('',#787,#784,#1112,.T.);
#921=EDGE_CURVE('',#788,#789,#1113,.T.);
#922=EDGE_CURVE('',#789,#790,#1114,.T.);
#923=EDGE_CURVE('',#790,#791,#1115,.T.);
#924=EDGE_CURVE('',#791,#788,#1116,.T.);
#925=EDGE_CURVE('',#792,#793,#1117,.T.);
#926=EDGE_CURVE('',#793,#794,#1118,.T.);
#927=EDGE_CURVE('',#794,#795,#1119,.T.);
#928=EDGE_CURVE('',#795,#792,#1120,.T.);
#929=EDGE_CURVE('',#796,#797,#1121,.T.);
#930=EDGE_CURVE('',#797,#798,#1122,.T.);
#931=EDGE_CURVE('',#798,#799,#1123,.T.);
#932=EDGE_CURVE('',#799,#796,#1124,.T.);
#933=EDGE_CURVE('',#800,#801,#1125,.T.);
#934=EDGE_CURVE('',#802,#800,#1126,.T.);
#935=EDGE_CURVE('',#803,#802,#1127,.T.);
#936=EDGE_CURVE('',#801,#803,#1128,.T.);
#937=EDGE_CURVE('',#804,#805,#1129,.T.);
#938=EDGE_CURVE('',#806,#804,#1130,.T.);
#939=EDGE_CURVE('',#807,#806,#1131,.T.);
#940=EDGE_CURVE('',#805,#807,#1132,.T.);
#941=EDGE_CURVE('',#808,#809,#1133,.T.);
#942=EDGE_CURVE('',#810,#808,#1134,.T.);
#943=EDGE_CURVE('',#811,#810,#1135,.T.);
#944=EDGE_CURVE('',#809,#811,#1136,.T.);
#945=EDGE_CURVE('',#812,#813,#1137,.T.);
#946=EDGE_CURVE('',#814,#812,#1138,.T.);
#947=EDGE_CURVE('',#815,#814,#1139,.T.);
#948=EDGE_CURVE('',#813,#815,#1140,.T.);
#949=EDGE_CURVE('',#816,#817,#1141,.T.);
#950=EDGE_CURVE('',#818,#816,#1142,.T.);
#951=EDGE_CURVE('',#819,#818,#1143,.T.);
#952=EDGE_CURVE('',#817,#819,#1144,.T.);
#953=EDGE_CURVE('',#820,#821,#1145,.T.);
#954=EDGE_CURVE('',#822,#820,#1146,.T.);
#955=EDGE_CURVE('',#823,#822,#1147,.T.);
#956=EDGE_CURVE('',#821,#823,#1148,.T.);
#957=EDGE_CURVE('',#824,#825,#1149,.T.);
#958=EDGE_CURVE('',#826,#824,#1150,.T.);
#959=EDGE_CURVE('',#827,#826,#1151,.T.);
#960=EDGE_CURVE('',#825,#827,#1152,.T.);
#961=EDGE_CURVE('',#828,#829,#1153,.T.);
#962=EDGE_CURVE('',#830,#828,#1154,.T.);
#963=EDGE_CURVE('',#831,#830,#1155,.T.);
#964=EDGE_CURVE('',#829,#831,#1156,.T.);
#965=EDGE_CURVE('',#832,#833,#1157,.T.);
#966=EDGE_CURVE('',#834,#832,#1158,.T.);
#967=EDGE_CURVE('',#835,#834,#1159,.T.);
#968=EDGE_CURVE('',#833,#835,#1160,.T.);
#969=EDGE_CURVE('',#836,#837,#1161,.T.);
#970=EDGE_CURVE('',#837,#723,#1162,.T.);
#971=EDGE_CURVE('',#838,#725,#1163,.T.);
#972=EDGE_CURVE('',#839,#838,#1164,.T.);
#973=EDGE_CURVE('',#839,#840,#1165,.T.);
#974=EDGE_CURVE('',#840,#841,#1166,.T.);
#975=EDGE_CURVE('',#841,#727,#1167,.T.);
#976=EDGE_CURVE('',#842,#729,#1168,.T.);
#977=EDGE_CURVE('',#843,#842,#1169,.T.);
#978=EDGE_CURVE('',#844,#843,#1170,.T.);
#979=EDGE_CURVE('',#741,#844,#1171,.T.);
#980=EDGE_CURVE('',#845,#740,#1172,.T.);
#981=EDGE_CURVE('',#846,#845,#1173,.T.);
#982=EDGE_CURVE('',#737,#846,#1174,.T.);
#983=EDGE_CURVE('',#847,#736,#1175,.T.);
#984=EDGE_CURVE('',#848,#847,#1176,.T.);
#985=EDGE_CURVE('',#731,#848,#1177,.T.);
#986=EDGE_CURVE('',#849,#733,#1178,.T.);
#987=EDGE_CURVE('',#849,#836,#1179,.T.);
#988=EDGE_CURVE('',#744,#849,#1180,.T.);
#989=EDGE_CURVE('',#751,#842,#1181,.T.);
#990=EDGE_CURVE('',#754,#839,#1182,.T.);
#991=EDGE_CURVE('',#755,#838,#1183,.T.);
#992=EDGE_CURVE('',#844,#749,#1184,.T.);
#993=EDGE_CURVE('',#843,#750,#1185,.T.);
#994=EDGE_CURVE('',#846,#747,#1186,.T.);
#995=EDGE_CURVE('',#845,#748,#1187,.T.);
#996=EDGE_CURVE('',#848,#745,#1188,.T.);
#997=EDGE_CURVE('',#847,#746,#1189,.T.);
#998=EDGE_CURVE('',#832,#793,#1190,.T.);
#999=EDGE_CURVE('',#834,#792,#1191,.T.);
#1000=EDGE_CURVE('',#833,#794,#1192,.T.);
#1001=EDGE_CURVE('',#835,#795,#1193,.T.);
#1002=EDGE_CURVE('',#828,#789,#1194,.T.);
#1003=EDGE_CURVE('',#830,#788,#1195,.T.);
#1004=EDGE_CURVE('',#829,#790,#1196,.T.);
#1005=EDGE_CURVE('',#831,#791,#1197,.T.);
#1006=EDGE_CURVE('',#824,#785,#1198,.T.);
#1007=EDGE_CURVE('',#826,#784,#1199,.T.);
#1008=EDGE_CURVE('',#825,#786,#1200,.T.);
#1009=EDGE_CURVE('',#827,#787,#1201,.T.);
#1010=EDGE_CURVE('',#820,#781,#1202,.T.);
#1011=EDGE_CURVE('',#822,#780,#1203,.T.);
#1012=EDGE_CURVE('',#821,#782,#1204,.T.);
#1013=EDGE_CURVE('',#823,#783,#1205,.T.);
#1014=EDGE_CURVE('',#816,#777,#1206,.T.);
#1015=EDGE_CURVE('',#818,#776,#1207,.T.);
#1016=EDGE_CURVE('',#817,#778,#1208,.T.);
#1017=EDGE_CURVE('',#819,#779,#1209,.T.);
#1018=EDGE_CURVE('',#812,#773,#1210,.T.);
#1019=EDGE_CURVE('',#814,#772,#1211,.T.);
#1020=EDGE_CURVE('',#813,#774,#1212,.T.);
#1021=EDGE_CURVE('',#815,#775,#1213,.T.);
#1022=EDGE_CURVE('',#808,#769,#1214,.T.);
#1023=EDGE_CURVE('',#810,#768,#1215,.T.);
#1024=EDGE_CURVE('',#809,#770,#1216,.T.);
#1025=EDGE_CURVE('',#811,#771,#1217,.T.);
#1026=EDGE_CURVE('',#804,#765,#1218,.T.);
#1027=EDGE_CURVE('',#806,#764,#1219,.T.);
#1028=EDGE_CURVE('',#805,#766,#1220,.T.);
#1029=EDGE_CURVE('',#807,#767,#1221,.T.);
#1030=EDGE_CURVE('',#800,#761,#1222,.T.);
#1031=EDGE_CURVE('',#802,#760,#1223,.T.);
#1032=EDGE_CURVE('',#801,#762,#1224,.T.);
#1033=EDGE_CURVE('',#803,#763,#1225,.T.);
#1034=EDGE_CURVE('',#798,#757,#1226,.T.);
#1035=EDGE_CURVE('',#797,#756,#1227,.T.);
#1036=EDGE_CURVE('',#796,#758,#1228,.T.);
#1037=EDGE_CURVE('',#799,#759,#1229,.T.);
#1038=EDGE_CURVE('',#841,#752,#1230,.T.);
#1039=EDGE_CURVE('',#840,#753,#1231,.T.);
#1040=EDGE_CURVE('',#837,#742,#1232,.T.);
#1041=EDGE_CURVE('',#836,#743,#1233,.T.);
#1042=LINE('',#1820,#1234);
#1043=LINE('',#1823,#1235);
#1044=LINE('',#1825,#1236);
#1045=LINE('',#1827,#1237);
#1046=LINE('',#1829,#1238);
#1047=LINE('',#1832,#1239);
#1048=LINE('',#1834,#1240);
#1049=LINE('',#1836,#1241);
#1050=LINE('',#1838,#1242);
#1051=LINE('',#1841,#1243);
#1052=LINE('',#1843,#1244);
#1053=LINE('',#1845,#1245);
#1054=LINE('',#1847,#1246);
#1055=LINE('',#1850,#1247);
#1056=LINE('',#1852,#1248);
#1057=LINE('',#1854,#1249);
#1058=LINE('',#1856,#1250);
#1059=LINE('',#1859,#1251);
#1060=LINE('',#1861,#1252);
#1061=LINE('',#1863,#1253);
#1062=LINE('',#1865,#1254);
#1063=LINE('',#1867,#1255);
#1064=LINE('',#1869,#1256);
#1065=LINE('',#1871,#1257);
#1066=LINE('',#1872,#1258);
#1067=LINE('',#1874,#1259);
#1068=LINE('',#1876,#1260);
#1069=LINE('',#1877,#1261);
#1070=LINE('',#1879,#1262);
#1071=LINE('',#1881,#1263);
#1072=LINE('',#1882,#1264);
#1073=LINE('',#1884,#1265);
#1074=LINE('',#1886,#1266);
#1075=LINE('',#1888,#1267);
#1076=LINE('',#1889,#1268);
#1077=LINE('',#1891,#1269);
#1078=LINE('',#1893,#1270);
#1079=LINE('',#1895,#1271);
#1080=LINE('',#1897,#1272);
#1081=LINE('',#1898,#1273);
#1082=LINE('',#1901,#1274);
#1083=LINE('',#1903,#1275);
#1084=LINE('',#1905,#1276);
#1085=LINE('',#1906,#1277);
#1086=LINE('',#1909,#1278);
#1087=LINE('',#1911,#1279);
#1088=LINE('',#1913,#1280);
#1089=LINE('',#1914,#1281);
#1090=LINE('',#1917,#1282);
#1091=LINE('',#1919,#1283);
#1092=LINE('',#1921,#1284);
#1093=LINE('',#1922,#1285);
#1094=LINE('',#1925,#1286);
#1095=LINE('',#1927,#1287);
#1096=LINE('',#1929,#1288);
#1097=LINE('',#1930,#1289);
#1098=LINE('',#1933,#1290);
#1099=LINE('',#1935,#1291);
#1100=LINE('',#1937,#1292);
#1101=LINE('',#1938,#1293);
#1102=LINE('',#1941,#1294);
#1103=LINE('',#1943,#1295);
#1104=LINE('',#1945,#1296);
#1105=LINE('',#1946,#1297);
#1106=LINE('',#1949,#1298);
#1107=LINE('',#1951,#1299);
#1108=LINE('',#1953,#1300);
#1109=LINE('',#1954,#1301);
#1110=LINE('',#1957,#1302);
#1111=LINE('',#1959,#1303);
#1112=LINE('',#1961,#1304);
#1113=LINE('',#1962,#1305);
#1114=LINE('',#1965,#1306);
#1115=LINE('',#1967,#1307);
#1116=LINE('',#1969,#1308);
#1117=LINE('',#1970,#1309);
#1118=LINE('',#1973,#1310);
#1119=LINE('',#1975,#1311);
#1120=LINE('',#1977,#1312);
#1121=LINE('',#1979,#1313);
#1122=LINE('',#1982,#1314);
#1123=LINE('',#1984,#1315);
#1124=LINE('',#1986,#1316);
#1125=LINE('',#1987,#1317);
#1126=LINE('',#1990,#1318);
#1127=LINE('',#1992,#1319);
#1128=LINE('',#1994,#1320);
#1129=LINE('',#1995,#1321);
#1130=LINE('',#1998,#1322);
#1131=LINE('',#2000,#1323);
#1132=LINE('',#2002,#1324);
#1133=LINE('',#2003,#1325);
#1134=LINE('',#2006,#1326);
#1135=LINE('',#2008,#1327);
#1136=LINE('',#2010,#1328);
#1137=LINE('',#2011,#1329);
#1138=LINE('',#2014,#1330);
#1139=LINE('',#2016,#1331);
#1140=LINE('',#2018,#1332);
#1141=LINE('',#2019,#1333);
#1142=LINE('',#2022,#1334);
#1143=LINE('',#2024,#1335);
#1144=LINE('',#2026,#1336);
#1145=LINE('',#2027,#1337);
#1146=LINE('',#2030,#1338);
#1147=LINE('',#2032,#1339);
#1148=LINE('',#2034,#1340);
#1149=LINE('',#2035,#1341);
#1150=LINE('',#2038,#1342);
#1151=LINE('',#2040,#1343);
#1152=LINE('',#2042,#1344);
#1153=LINE('',#2043,#1345);
#1154=LINE('',#2046,#1346);
#1155=LINE('',#2048,#1347);
#1156=LINE('',#2050,#1348);
#1157=LINE('',#2051,#1349);
#1158=LINE('',#2054,#1350);
#1159=LINE('',#2056,#1351);
#1160=LINE('',#2058,#1352);
#1161=LINE('',#2059,#1353);
#1162=LINE('',#2062,#1354);
#1163=LINE('',#2063,#1355);
#1164=LINE('',#2065,#1356);
#1165=LINE('',#2067,#1357);
#1166=LINE('',#2069,#1358);
#1167=LINE('',#2071,#1359);
#1168=LINE('',#2072,#1360);
#1169=LINE('',#2074,#1361);
#1170=LINE('',#2076,#1362);
#1171=LINE('',#2078,#1363);
#1172=LINE('',#2079,#1364);
#1173=LINE('',#2081,#1365);
#1174=LINE('',#2083,#1366);
#1175=LINE('',#2084,#1367);
#1176=LINE('',#2086,#1368);
#1177=LINE('',#2088,#1369);
#1178=LINE('',#2089,#1370);
#1179=LINE('',#2091,#1371);
#1180=LINE('',#2093,#1372);
#1181=LINE('',#2095,#1373);
#1182=LINE('',#2097,#1374);
#1183=LINE('',#2098,#1375);
#1184=LINE('',#2101,#1376);
#1185=LINE('',#2103,#1377);
#1186=LINE('',#2106,#1378);
#1187=LINE('',#2108,#1379);
#1188=LINE('',#2111,#1380);
#1189=LINE('',#2113,#1381);
#1190=LINE('',#2116,#1382);
#1191=LINE('',#2117,#1383);
#1192=LINE('',#2119,#1384);
#1193=LINE('',#2121,#1385);
#1194=LINE('',#2124,#1386);
#1195=LINE('',#2125,#1387);
#1196=LINE('',#2127,#1388);
#1197=LINE('',#2129,#1389);
#1198=LINE('',#2132,#1390);
#1199=LINE('',#2133,#1391);
#1200=LINE('',#2135,#1392);
#1201=LINE('',#2137,#1393);
#1202=LINE('',#2140,#1394);
#1203=LINE('',#2141,#1395);
#1204=LINE('',#2143,#1396);
#1205=LINE('',#2145,#1397);
#1206=LINE('',#2148,#1398);
#1207=LINE('',#2149,#1399);
#1208=LINE('',#2151,#1400);
#1209=LINE('',#2153,#1401);
#1210=LINE('',#2156,#1402);
#1211=LINE('',#2157,#1403);
#1212=LINE('',#2159,#1404);
#1213=LINE('',#2161,#1405);
#1214=LINE('',#2164,#1406);
#1215=LINE('',#2165,#1407);
#1216=LINE('',#2167,#1408);
#1217=LINE('',#2169,#1409);
#1218=LINE('',#2172,#1410);
#1219=LINE('',#2173,#1411);
#1220=LINE('',#2175,#1412);
#1221=LINE('',#2177,#1413);
#1222=LINE('',#2180,#1414);
#1223=LINE('',#2181,#1415);
#1224=LINE('',#2183,#1416);
#1225=LINE('',#2185,#1417);
#1226=LINE('',#2188,#1418);
#1227=LINE('',#2189,#1419);
#1228=LINE('',#2191,#1420);
#1229=LINE('',#2193,#1421);
#1230=LINE('',#2196,#1422);
#1231=LINE('',#2197,#1423);
#1232=LINE('',#2201,#1424);
#1233=LINE('',#2203,#1425);
#1234=VECTOR('',#1495,1.);
#1235=VECTOR('',#1496,1.);
#1236=VECTOR('',#1497,1.);
#1237=VECTOR('',#1498,1.);
#1238=VECTOR('',#1501,1.);
#1239=VECTOR('',#1502,1.);
#1240=VECTOR('',#1503,1.);
#1241=VECTOR('',#1504,1.);
#1242=VECTOR('',#1507,1.);
#1243=VECTOR('',#1508,1.);
#1244=VECTOR('',#1509,1.);
#1245=VECTOR('',#1510,1.);
#1246=VECTOR('',#1513,1.);
#1247=VECTOR('',#1514,1.);
#1248=VECTOR('',#1515,1.);
#1249=VECTOR('',#1516,1.);
#1250=VECTOR('',#1519,1.);
#1251=VECTOR('',#1520,1.);
#1252=VECTOR('',#1521,1.);
#1253=VECTOR('',#1522,1.);
#1254=VECTOR('',#1525,1.);
#1255=VECTOR('',#1526,1.);
#1256=VECTOR('',#1527,1.);
#1257=VECTOR('',#1528,1.);
#1258=VECTOR('',#1529,1.);
#1259=VECTOR('',#1530,1.);
#1260=VECTOR('',#1531,1.);
#1261=VECTOR('',#1532,1.);
#1262=VECTOR('',#1533,1.);
#1263=VECTOR('',#1534,1.);
#1264=VECTOR('',#1535,1.);
#1265=VECTOR('',#1536,1.);
#1266=VECTOR('',#1537,1.);
#1267=VECTOR('',#1538,1.);
#1268=VECTOR('',#1539,1.);
#1269=VECTOR('',#1540,1.);
#1270=VECTOR('',#1541,1.);
#1271=VECTOR('',#1542,1.);
#1272=VECTOR('',#1543,1.);
#1273=VECTOR('',#1544,1.);
#1274=VECTOR('',#1545,1.);
#1275=VECTOR('',#1546,1.);
#1276=VECTOR('',#1547,1.);
#1277=VECTOR('',#1548,1.);
#1278=VECTOR('',#1549,1.);
#1279=VECTOR('',#1550,1.);
#1280=VECTOR('',#1551,1.);
#1281=VECTOR('',#1552,1.);
#1282=VECTOR('',#1553,1.);
#1283=VECTOR('',#1554,1.);
#1284=VECTOR('',#1555,1.);
#1285=VECTOR('',#1556,1.);
#1286=VECTOR('',#1557,1.);
#1287=VECTOR('',#1558,1.);
#1288=VECTOR('',#1559,1.);
#1289=VECTOR('',#1560,1.);
#1290=VECTOR('',#1561,1.);
#1291=VECTOR('',#1562,1.);
#1292=VECTOR('',#1563,1.);
#1293=VECTOR('',#1564,1.);
#1294=VECTOR('',#1565,1.);
#1295=VECTOR('',#1566,1.);
#1296=VECTOR('',#1567,1.);
#1297=VECTOR('',#1568,1.);
#1298=VECTOR('',#1569,1.);
#1299=VECTOR('',#1570,1.);
#1300=VECTOR('',#1571,1.);
#1301=VECTOR('',#1572,1.);
#1302=VECTOR('',#1573,1.);
#1303=VECTOR('',#1574,1.);
#1304=VECTOR('',#1575,1.);
#1305=VECTOR('',#1576,1.);
#1306=VECTOR('',#1577,1.);
#1307=VECTOR('',#1578,1.);
#1308=VECTOR('',#1579,1.);
#1309=VECTOR('',#1580,1.);
#1310=VECTOR('',#1581,1.);
#1311=VECTOR('',#1582,1.);
#1312=VECTOR('',#1583,1.);
#1313=VECTOR('',#1586,1.);
#1314=VECTOR('',#1587,1.);
#1315=VECTOR('',#1588,1.);
#1316=VECTOR('',#1589,1.);
#1317=VECTOR('',#1590,1.);
#1318=VECTOR('',#1591,1.);
#1319=VECTOR('',#1592,1.);
#1320=VECTOR('',#1593,1.);
#1321=VECTOR('',#1594,1.);
#1322=VECTOR('',#1595,1.);
#1323=VECTOR('',#1596,1.);
#1324=VECTOR('',#1597,1.);
#1325=VECTOR('',#1598,1.);
#1326=VECTOR('',#1599,1.);
#1327=VECTOR('',#1600,1.);
#1328=VECTOR('',#1601,1.);
#1329=VECTOR('',#1602,1.);
#1330=VECTOR('',#1603,1.);
#1331=VECTOR('',#1604,1.);
#1332=VECTOR('',#1605,1.);
#1333=VECTOR('',#1606,1.);
#1334=VECTOR('',#1607,1.);
#1335=VECTOR('',#1608,1.);
#1336=VECTOR('',#1609,1.);
#1337=VECTOR('',#1610,1.);
#1338=VECTOR('',#1611,1.);
#1339=VECTOR('',#1612,1.);
#1340=VECTOR('',#1613,1.);
#1341=VECTOR('',#1614,1.);
#1342=VECTOR('',#1615,1.);
#1343=VECTOR('',#1616,1.);
#1344=VECTOR('',#1617,1.);
#1345=VECTOR('',#1618,1.);
#1346=VECTOR('',#1619,1.);
#1347=VECTOR('',#1620,1.);
#1348=VECTOR('',#1621,1.);
#1349=VECTOR('',#1622,1.);
#1350=VECTOR('',#1623,1.);
#1351=VECTOR('',#1624,1.);
#1352=VECTOR('',#1625,1.);
#1353=VECTOR('',#1626,1.);
#1354=VECTOR('',#1627,1.);
#1355=VECTOR('',#1628,1.);
#1356=VECTOR('',#1629,1.);
#1357=VECTOR('',#1630,1.);
#1358=VECTOR('',#1631,1.);
#1359=VECTOR('',#1632,1.);
#1360=VECTOR('',#1633,1.);
#1361=VECTOR('',#1634,1.);
#1362=VECTOR('',#1635,1.);
#1363=VECTOR('',#1636,1.);
#1364=VECTOR('',#1637,1.);
#1365=VECTOR('',#1638,1.);
#1366=VECTOR('',#1639,1.);
#1367=VECTOR('',#1640,1.);
#1368=VECTOR('',#1641,1.);
#1369=VECTOR('',#1642,1.);
#1370=VECTOR('',#1643,1.);
#1371=VECTOR('',#1644,1.);
#1372=VECTOR('',#1647,1.);
#1373=VECTOR('',#1650,1.);
#1374=VECTOR('',#1653,1.);
#1375=VECTOR('',#1654,1.);
#1376=VECTOR('',#1659,1.);
#1377=VECTOR('',#1662,1.);
#1378=VECTOR('',#1667,1.);
#1379=VECTOR('',#1670,1.);
#1380=VECTOR('',#1675,1.);
#1381=VECTOR('',#1678,1.);
#1382=VECTOR('',#1683,1.);
#1383=VECTOR('',#1684,1.);
#1384=VECTOR('',#1687,1.);
#1385=VECTOR('',#1690,1.);
#1386=VECTOR('',#1695,1.);
#1387=VECTOR('',#1696,1.);
#1388=VECTOR('',#1699,1.);
#1389=VECTOR('',#1702,1.);
#1390=VECTOR('',#1707,1.);
#1391=VECTOR('',#1708,1.);
#1392=VECTOR('',#1711,1.);
#1393=VECTOR('',#1714,1.);
#1394=VECTOR('',#1719,1.);
#1395=VECTOR('',#1720,1.);
#1396=VECTOR('',#1723,1.);
#1397=VECTOR('',#1726,1.);
#1398=VECTOR('',#1731,1.);
#1399=VECTOR('',#1732,1.);
#1400=VECTOR('',#1735,1.);
#1401=VECTOR('',#1738,1.);
#1402=VECTOR('',#1743,1.);
#1403=VECTOR('',#1744,1.);
#1404=VECTOR('',#1747,1.);
#1405=VECTOR('',#1750,1.);
#1406=VECTOR('',#1755,1.);
#1407=VECTOR('',#1756,1.);
#1408=VECTOR('',#1759,1.);
#1409=VECTOR('',#1762,1.);
#1410=VECTOR('',#1767,1.);
#1411=VECTOR('',#1768,1.);
#1412=VECTOR('',#1771,1.);
#1413=VECTOR('',#1774,1.);
#1414=VECTOR('',#1779,1.);
#1415=VECTOR('',#1780,1.);
#1416=VECTOR('',#1783,1.);
#1417=VECTOR('',#1786,1.);
#1418=VECTOR('',#1791,1.);
#1419=VECTOR('',#1792,1.);
#1420=VECTOR('',#1795,1.);
#1421=VECTOR('',#1798,1.);
#1422=VECTOR('',#1803,1.);
#1423=VECTOR('',#1804,1.);
#1424=VECTOR('',#1811,1.);
#1425=VECTOR('',#1814,1.);
#1426=AXIS2_PLACEMENT_3D('',#1819,#1493,#1494);
#1427=AXIS2_PLACEMENT_3D('',#1828,#1499,#1500);
#1428=AXIS2_PLACEMENT_3D('',#1837,#1505,#1506);
#1429=AXIS2_PLACEMENT_3D('',#1846,#1511,#1512);
#1430=AXIS2_PLACEMENT_3D('',#1855,#1517,#1518);
#1431=AXIS2_PLACEMENT_3D('',#1864,#1523,#1524);
#1432=AXIS2_PLACEMENT_3D('',#1978,#1584,#1585);
#1433=AXIS2_PLACEMENT_3D('',#2092,#1645,#1646);
#1434=AXIS2_PLACEMENT_3D('',#2094,#1648,#1649);
#1435=AXIS2_PLACEMENT_3D('',#2096,#1651,#1652);
#1436=AXIS2_PLACEMENT_3D('',#2099,#1655,#1656);
#1437=AXIS2_PLACEMENT_3D('',#2100,#1657,#1658);
#1438=AXIS2_PLACEMENT_3D('',#2102,#1660,#1661);
#1439=AXIS2_PLACEMENT_3D('',#2104,#1663,#1664);
#1440=AXIS2_PLACEMENT_3D('',#2105,#1665,#1666);
#1441=AXIS2_PLACEMENT_3D('',#2107,#1668,#1669);
#1442=AXIS2_PLACEMENT_3D('',#2109,#1671,#1672);
#1443=AXIS2_PLACEMENT_3D('',#2110,#1673,#1674);
#1444=AXIS2_PLACEMENT_3D('',#2112,#1676,#1677);
#1445=AXIS2_PLACEMENT_3D('',#2114,#1679,#1680);
#1446=AXIS2_PLACEMENT_3D('',#2115,#1681,#1682);
#1447=AXIS2_PLACEMENT_3D('',#2118,#1685,#1686);
#1448=AXIS2_PLACEMENT_3D('',#2120,#1688,#1689);
#1449=AXIS2_PLACEMENT_3D('',#2122,#1691,#1692);
#1450=AXIS2_PLACEMENT_3D('',#2123,#1693,#1694);
#1451=AXIS2_PLACEMENT_3D('',#2126,#1697,#1698);
#1452=AXIS2_PLACEMENT_3D('',#2128,#1700,#1701);
#1453=AXIS2_PLACEMENT_3D('',#2130,#1703,#1704);
#1454=AXIS2_PLACEMENT_3D('',#2131,#1705,#1706);
#1455=AXIS2_PLACEMENT_3D('',#2134,#1709,#1710);
#1456=AXIS2_PLACEMENT_3D('',#2136,#1712,#1713);
#1457=AXIS2_PLACEMENT_3D('',#2138,#1715,#1716);
#1458=AXIS2_PLACEMENT_3D('',#2139,#1717,#1718);
#1459=AXIS2_PLACEMENT_3D('',#2142,#1721,#1722);
#1460=AXIS2_PLACEMENT_3D('',#2144,#1724,#1725);
#1461=AXIS2_PLACEMENT_3D('',#2146,#1727,#1728);
#1462=AXIS2_PLACEMENT_3D('',#2147,#1729,#1730);
#1463=AXIS2_PLACEMENT_3D('',#2150,#1733,#1734);
#1464=AXIS2_PLACEMENT_3D('',#2152,#1736,#1737);
#1465=AXIS2_PLACEMENT_3D('',#2154,#1739,#1740);
#1466=AXIS2_PLACEMENT_3D('',#2155,#1741,#1742);
#1467=AXIS2_PLACEMENT_3D('',#2158,#1745,#1746);
#1468=AXIS2_PLACEMENT_3D('',#2160,#1748,#1749);
#1469=AXIS2_PLACEMENT_3D('',#2162,#1751,#1752);
#1470=AXIS2_PLACEMENT_3D('',#2163,#1753,#1754);
#1471=AXIS2_PLACEMENT_3D('',#2166,#1757,#1758);
#1472=AXIS2_PLACEMENT_3D('',#2168,#1760,#1761);
#1473=AXIS2_PLACEMENT_3D('',#2170,#1763,#1764);
#1474=AXIS2_PLACEMENT_3D('',#2171,#1765,#1766);
#1475=AXIS2_PLACEMENT_3D('',#2174,#1769,#1770);
#1476=AXIS2_PLACEMENT_3D('',#2176,#1772,#1773);
#1477=AXIS2_PLACEMENT_3D('',#2178,#1775,#1776);
#1478=AXIS2_PLACEMENT_3D('',#2179,#1777,#1778);
#1479=AXIS2_PLACEMENT_3D('',#2182,#1781,#1782);
#1480=AXIS2_PLACEMENT_3D('',#2184,#1784,#1785);
#1481=AXIS2_PLACEMENT_3D('',#2186,#1787,#1788);
#1482=AXIS2_PLACEMENT_3D('',#2187,#1789,#1790);
#1483=AXIS2_PLACEMENT_3D('',#2190,#1793,#1794);
#1484=AXIS2_PLACEMENT_3D('',#2192,#1796,#1797);
#1485=AXIS2_PLACEMENT_3D('',#2194,#1799,#1800);
#1486=AXIS2_PLACEMENT_3D('',#2195,#1801,#1802);
#1487=AXIS2_PLACEMENT_3D('',#2198,#1805,#1806);
#1488=AXIS2_PLACEMENT_3D('',#2199,#1807,#1808);
#1489=AXIS2_PLACEMENT_3D('',#2200,#1809,#1810);
#1490=AXIS2_PLACEMENT_3D('',#2202,#1812,#1813);
#1491=AXIS2_PLACEMENT_3D('',#2204,#1815,#1816);
#1492=AXIS2_PLACEMENT_3D('',#2205,#1817,#1818);
#1493=DIRECTION('',(0.,0.,1.));
#1494=DIRECTION('',(1.,0.,0.));
#1495=DIRECTION('',(0.,0.,-1.));
#1496=DIRECTION('',(2.01757801946015E-17,-1.,0.));
#1497=DIRECTION('',(0.,0.,-1.));
#1498=DIRECTION('',(2.01757801946015E-17,-1.,0.));
#1499=DIRECTION('',(1.,2.01757801946015E-17,0.));
#1500=DIRECTION('',(-2.01757801946015E-17,1.,0.));
#1501=DIRECTION('',(0.,0.,-1.));
#1502=DIRECTION('',(-1.85037170770859E-16,1.,0.));
#1503=DIRECTION('',(0.,0.,-1.));
#1504=DIRECTION('',(-1.85037170770859E-16,1.,0.));
#1505=DIRECTION('',(-1.,-1.85037170770859E-16,0.));
#1506=DIRECTION('',(1.94289029309402E-16,-1.,0.));
#1507=DIRECTION('',(0.,0.,-1.));
#1508=DIRECTION('',(1.,0.,0.));
#1509=DIRECTION('',(0.,0.,-1.));
#1510=DIRECTION('',(1.,0.,0.));
#1511=DIRECTION('',(0.,1.,0.));
#1512=DIRECTION('',(0.,0.,1.));
#1513=DIRECTION('',(1.,0.,0.));
#1514=DIRECTION('',(0.,0.,-1.));
#1515=DIRECTION('',(1.,0.,0.));
#1516=DIRECTION('',(0.,0.,-1.));
#1517=DIRECTION('',(0.,1.,0.));
#1518=DIRECTION('',(0.,0.,1.));
#1519=DIRECTION('',(1.,0.,0.));
#1520=DIRECTION('',(0.,0.,-1.));
#1521=DIRECTION('',(1.,0.,0.));
#1522=DIRECTION('',(0.,0.,-1.));
#1523=DIRECTION('',(0.,1.,0.));
#1524=DIRECTION('',(0.,0.,1.));
#1525=DIRECTION('',(-1.,0.,0.));
#1526=DIRECTION('',(-5.37764277552811E-16,1.,0.));
#1527=DIRECTION('',(1.,0.,0.));
#1528=DIRECTION('',(2.01757801946015E-17,-1.,0.));
#1529=DIRECTION('',(0.,1.,0.));
#1530=DIRECTION('',(1.,0.,0.));
#1531=DIRECTION('',(0.,-1.,0.));
#1532=DIRECTION('',(0.,1.,0.));
#1533=DIRECTION('',(1.,0.,0.));
#1534=DIRECTION('',(0.,-1.,0.));
#1535=DIRECTION('',(0.,1.,0.));
#1536=DIRECTION('',(1.,0.,0.));
#1537=DIRECTION('',(0.,-1.,0.));
#1538=DIRECTION('',(1.,0.,0.));
#1539=DIRECTION('',(1.,0.,0.));
#1540=DIRECTION('',(1.11022302462516E-15,-1.,0.));
#1541=DIRECTION('',(-1.,0.,0.));
#1542=DIRECTION('',(-1.85037170770859E-16,1.,0.));
#1543=DIRECTION('',(-1.,0.,0.));
#1544=DIRECTION('',(0.,-1.,0.));
#1545=DIRECTION('',(-1.,0.,0.));
#1546=DIRECTION('',(0.,1.,0.));
#1547=DIRECTION('',(1.,0.,0.));
#1548=DIRECTION('',(0.,1.,0.));
#1549=DIRECTION('',(1.,0.,0.));
#1550=DIRECTION('',(0.,-1.,0.));
#1551=DIRECTION('',(-1.,0.,0.));
#1552=DIRECTION('',(0.,1.,0.));
#1553=DIRECTION('',(1.,0.,0.));
#1554=DIRECTION('',(0.,-1.,0.));
#1555=DIRECTION('',(-1.,0.,0.));
#1556=DIRECTION('',(0.,1.,0.));
#1557=DIRECTION('',(1.,0.,0.));
#1558=DIRECTION('',(0.,-1.,0.));
#1559=DIRECTION('',(-1.,0.,0.));
#1560=DIRECTION('',(0.,1.,0.));
#1561=DIRECTION('',(1.,0.,0.));
#1562=DIRECTION('',(0.,-1.,0.));
#1563=DIRECTION('',(-1.,3.46944695195362E-16,0.));
#1564=DIRECTION('',(0.,1.,0.));
#1565=DIRECTION('',(1.,0.,0.));
#1566=DIRECTION('',(0.,-1.,0.));
#1567=DIRECTION('',(-1.,0.,0.));
#1568=DIRECTION('',(0.,1.,0.));
#1569=DIRECTION('',(1.,0.,0.));
#1570=DIRECTION('',(0.,-1.,0.));
#1571=DIRECTION('',(-1.,0.,0.));
#1572=DIRECTION('',(0.,1.,0.));
#1573=DIRECTION('',(1.,0.,0.));
#1574=DIRECTION('',(0.,-1.,0.));
#1575=DIRECTION('',(-1.,2.60208521396521E-16,0.));
#1576=DIRECTION('',(0.,1.,0.));
#1577=DIRECTION('',(1.,0.,0.));
#1578=DIRECTION('',(0.,-1.,0.));
#1579=DIRECTION('',(-1.,0.,0.));
#1580=DIRECTION('',(0.,1.,0.));
#1581=DIRECTION('',(1.,0.,0.));
#1582=DIRECTION('',(0.,-1.,0.));
#1583=DIRECTION('',(-1.,0.,0.));
#1584=DIRECTION('',(0.,0.,1.));
#1585=DIRECTION('',(1.,0.,0.));
#1586=DIRECTION('',(-1.,0.,0.));
#1587=DIRECTION('',(0.,-1.,0.));
#1588=DIRECTION('',(1.,0.,0.));
#1589=DIRECTION('',(0.,1.,0.));
#1590=DIRECTION('',(1.,0.,0.));
#1591=DIRECTION('',(0.,1.,0.));
#1592=DIRECTION('',(-1.,0.,0.));
#1593=DIRECTION('',(0.,-1.,0.));
#1594=DIRECTION('',(1.,0.,0.));
#1595=DIRECTION('',(0.,1.,0.));
#1596=DIRECTION('',(-1.,0.,0.));
#1597=DIRECTION('',(0.,-1.,0.));
#1598=DIRECTION('',(1.,0.,0.));
#1599=DIRECTION('',(0.,1.,0.));
#1600=DIRECTION('',(-1.,0.,0.));
#1601=DIRECTION('',(0.,-1.,0.));
#1602=DIRECTION('',(1.,0.,0.));
#1603=DIRECTION('',(0.,1.,0.));
#1604=DIRECTION('',(-1.,3.46944695195362E-16,0.));
#1605=DIRECTION('',(0.,-1.,0.));
#1606=DIRECTION('',(1.,0.,0.));
#1607=DIRECTION('',(0.,1.,0.));
#1608=DIRECTION('',(-1.,0.,0.));
#1609=DIRECTION('',(0.,-1.,0.));
#1610=DIRECTION('',(1.,0.,0.));
#1611=DIRECTION('',(0.,1.,0.));
#1612=DIRECTION('',(-1.,0.,0.));
#1613=DIRECTION('',(0.,-1.,0.));
#1614=DIRECTION('',(1.,0.,0.));
#1615=DIRECTION('',(0.,1.,0.));
#1616=DIRECTION('',(-1.,2.60208521396521E-16,0.));
#1617=DIRECTION('',(0.,-1.,0.));
#1618=DIRECTION('',(1.,0.,0.));
#1619=DIRECTION('',(0.,1.,0.));
#1620=DIRECTION('',(-1.,0.,0.));
#1621=DIRECTION('',(0.,-1.,0.));
#1622=DIRECTION('',(1.,0.,0.));
#1623=DIRECTION('',(0.,1.,0.));
#1624=DIRECTION('',(-1.,0.,0.));
#1625=DIRECTION('',(0.,-1.,0.));
#1626=DIRECTION('',(-5.37764277552811E-16,1.,0.));
#1627=DIRECTION('',(-1.,0.,0.));
#1628=DIRECTION('',(-1.,0.,0.));
#1629=DIRECTION('',(-1.85037170770859E-16,1.,0.));
#1630=DIRECTION('',(-1.,0.,0.));
#1631=DIRECTION('',(1.11022302462516E-15,-1.,0.));
#1632=DIRECTION('',(1.,0.,0.));
#1633=DIRECTION('',(1.,0.,0.));
#1634=DIRECTION('',(0.,-1.,0.));
#1635=DIRECTION('',(1.,0.,0.));
#1636=DIRECTION('',(0.,1.,0.));
#1637=DIRECTION('',(0.,-1.,0.));
#1638=DIRECTION('',(1.,0.,0.));
#1639=DIRECTION('',(0.,1.,0.));
#1640=DIRECTION('',(0.,-1.,0.));
#1641=DIRECTION('',(1.,0.,0.));
#1642=DIRECTION('',(0.,1.,0.));
#1643=DIRECTION('',(2.01757801946015E-17,-1.,0.));
#1644=DIRECTION('',(1.,0.,0.));
#1645=DIRECTION('',(0.,0.,1.));
#1646=DIRECTION('',(1.,0.,0.));
#1647=DIRECTION('',(0.,0.,-1.));
#1648=DIRECTION('',(1.,2.01757801946015E-17,0.));
#1649=DIRECTION('',(-2.01757801946015E-17,1.,0.));
#1650=DIRECTION('',(0.,0.,-1.));
#1651=DIRECTION('',(0.,1.,0.));
#1652=DIRECTION('',(0.,0.,1.));
#1653=DIRECTION('',(0.,0.,-1.));
#1654=DIRECTION('',(0.,0.,-1.));
#1655=DIRECTION('',(-1.,-1.85037170770859E-16,0.));
#1656=DIRECTION('',(1.94289029309402E-16,-1.,0.));
#1657=DIRECTION('',(0.,-1.,0.));
#1658=DIRECTION('',(0.,0.,-1.));
#1659=DIRECTION('',(0.,0.,1.));
#1660=DIRECTION('',(-1.,0.,0.));
#1661=DIRECTION('',(0.,0.,1.));
#1662=DIRECTION('',(0.,0.,1.));
#1663=DIRECTION('',(0.,1.,0.));
#1664=DIRECTION('',(0.,0.,1.));
#1665=DIRECTION('',(1.,0.,0.));
#1666=DIRECTION('',(0.,0.,-1.));
#1667=DIRECTION('',(0.,0.,1.));
#1668=DIRECTION('',(-1.,0.,0.));
#1669=DIRECTION('',(0.,0.,1.));
#1670=DIRECTION('',(0.,0.,1.));
#1671=DIRECTION('',(0.,1.,0.));
#1672=DIRECTION('',(0.,0.,1.));
#1673=DIRECTION('',(1.,0.,0.));
#1674=DIRECTION('',(0.,0.,-1.));
#1675=DIRECTION('',(0.,0.,1.));
#1676=DIRECTION('',(-1.,0.,0.));
#1677=DIRECTION('',(0.,0.,1.));
#1678=DIRECTION('',(0.,0.,1.));
#1679=DIRECTION('',(0.,1.,0.));
#1680=DIRECTION('',(0.,0.,1.));
#1681=DIRECTION('',(1.,0.,0.));
#1682=DIRECTION('',(0.,0.,-1.));
#1683=DIRECTION('',(0.,0.,1.));
#1684=DIRECTION('',(0.,0.,1.));
#1685=DIRECTION('',(-1.,0.,0.));
#1686=DIRECTION('',(0.,0.,1.));
#1687=DIRECTION('',(0.,0.,1.));
#1688=DIRECTION('',(0.,1.,0.));
#1689=DIRECTION('',(0.,0.,1.));
#1690=DIRECTION('',(0.,0.,1.));
#1691=DIRECTION('',(1.,0.,0.));
#1692=DIRECTION('',(0.,0.,-1.));
#1693=DIRECTION('',(0.,-1.,0.));
#1694=DIRECTION('',(0.,0.,-1.));
#1695=DIRECTION('',(0.,0.,1.));
#1696=DIRECTION('',(0.,0.,1.));
#1697=DIRECTION('',(-1.,0.,0.));
#1698=DIRECTION('',(0.,0.,1.));
#1699=DIRECTION('',(0.,0.,1.));
#1700=DIRECTION('',(0.,1.,0.));
#1701=DIRECTION('',(0.,0.,1.));
#1702=DIRECTION('',(0.,0.,1.));
#1703=DIRECTION('',(1.,0.,0.));
#1704=DIRECTION('',(0.,0.,-1.));
#1705=DIRECTION('',(0.,-1.,0.));
#1706=DIRECTION('',(0.,0.,-1.));
#1707=DIRECTION('',(0.,0.,1.));
#1708=DIRECTION('',(0.,0.,1.));
#1709=DIRECTION('',(-1.,0.,0.));
#1710=DIRECTION('',(0.,0.,1.));
#1711=DIRECTION('',(0.,0.,1.));
#1712=DIRECTION('',(0.,1.,0.));
#1713=DIRECTION('',(0.,0.,1.));
#1714=DIRECTION('',(0.,0.,1.));
#1715=DIRECTION('',(1.,0.,0.));
#1716=DIRECTION('',(0.,0.,-1.));
#1717=DIRECTION('',(-2.60208521396521E-16,-1.,0.));
#1718=DIRECTION('',(1.,-2.60208521396521E-16,0.));
#1719=DIRECTION('',(0.,0.,1.));
#1720=DIRECTION('',(0.,0.,1.));
#1721=DIRECTION('',(-1.,0.,0.));
#1722=DIRECTION('',(0.,0.,1.));
#1723=DIRECTION('',(0.,0.,1.));
#1724=DIRECTION('',(0.,1.,0.));
#1725=DIRECTION('',(0.,0.,1.));
#1726=DIRECTION('',(0.,0.,1.));
#1727=DIRECTION('',(1.,0.,0.));
#1728=DIRECTION('',(0.,0.,-1.));
#1729=DIRECTION('',(0.,-1.,0.));
#1730=DIRECTION('',(0.,0.,-1.));
#1731=DIRECTION('',(0.,0.,1.));
#1732=DIRECTION('',(0.,0.,1.));
#1733=DIRECTION('',(-1.,0.,0.));
#1734=DIRECTION('',(0.,0.,1.));
#1735=DIRECTION('',(0.,0.,1.));
#1736=DIRECTION('',(0.,1.,0.));
#1737=DIRECTION('',(0.,0.,1.));
#1738=DIRECTION('',(0.,0.,1.));
#1739=DIRECTION('',(1.,0.,0.));
#1740=DIRECTION('',(0.,0.,-1.));
#1741=DIRECTION('',(0.,-1.,0.));
#1742=DIRECTION('',(0.,0.,-1.));
#1743=DIRECTION('',(0.,0.,1.));
#1744=DIRECTION('',(0.,0.,1.));
#1745=DIRECTION('',(-1.,0.,0.));
#1746=DIRECTION('',(0.,0.,1.));
#1747=DIRECTION('',(0.,0.,1.));
#1748=DIRECTION('',(0.,1.,0.));
#1749=DIRECTION('',(0.,0.,1.));
#1750=DIRECTION('',(0.,0.,1.));
#1751=DIRECTION('',(1.,0.,0.));
#1752=DIRECTION('',(0.,0.,-1.));
#1753=DIRECTION('',(-3.46944695195362E-16,-1.,0.));
#1754=DIRECTION('',(1.,-3.46944695195361E-16,0.));
#1755=DIRECTION('',(0.,0.,1.));
#1756=DIRECTION('',(0.,0.,1.));
#1757=DIRECTION('',(-1.,0.,0.));
#1758=DIRECTION('',(0.,0.,1.));
#1759=DIRECTION('',(0.,0.,1.));
#1760=DIRECTION('',(0.,1.,0.));
#1761=DIRECTION('',(0.,0.,1.));
#1762=DIRECTION('',(0.,0.,1.));
#1763=DIRECTION('',(1.,0.,0.));
#1764=DIRECTION('',(0.,0.,-1.));
#1765=DIRECTION('',(0.,-1.,0.));
#1766=DIRECTION('',(0.,0.,-1.));
#1767=DIRECTION('',(0.,0.,1.));
#1768=DIRECTION('',(0.,0.,1.));
#1769=DIRECTION('',(-1.,0.,0.));
#1770=DIRECTION('',(0.,0.,1.));
#1771=DIRECTION('',(0.,0.,1.));
#1772=DIRECTION('',(0.,1.,0.));
#1773=DIRECTION('',(0.,0.,1.));
#1774=DIRECTION('',(0.,0.,1.));
#1775=DIRECTION('',(1.,0.,0.));
#1776=DIRECTION('',(0.,0.,-1.));
#1777=DIRECTION('',(0.,-1.,0.));
#1778=DIRECTION('',(0.,0.,-1.));
#1779=DIRECTION('',(0.,0.,1.));
#1780=DIRECTION('',(0.,0.,1.));
#1781=DIRECTION('',(-1.,0.,0.));
#1782=DIRECTION('',(0.,0.,1.));
#1783=DIRECTION('',(0.,0.,1.));
#1784=DIRECTION('',(0.,1.,0.));
#1785=DIRECTION('',(0.,0.,1.));
#1786=DIRECTION('',(0.,0.,1.));
#1787=DIRECTION('',(1.,0.,0.));
#1788=DIRECTION('',(0.,0.,-1.));
#1789=DIRECTION('',(0.,-1.,0.));
#1790=DIRECTION('',(0.,0.,-1.));
#1791=DIRECTION('',(0.,0.,1.));
#1792=DIRECTION('',(0.,0.,1.));
#1793=DIRECTION('',(-1.,0.,0.));
#1794=DIRECTION('',(0.,0.,1.));
#1795=DIRECTION('',(0.,0.,1.));
#1796=DIRECTION('',(0.,1.,0.));
#1797=DIRECTION('',(0.,0.,1.));
#1798=DIRECTION('',(0.,0.,1.));
#1799=DIRECTION('',(1.,0.,0.));
#1800=DIRECTION('',(0.,0.,-1.));
#1801=DIRECTION('',(0.,-1.,0.));
#1802=DIRECTION('',(0.,0.,-1.));
#1803=DIRECTION('',(0.,0.,1.));
#1804=DIRECTION('',(0.,0.,1.));
#1805=DIRECTION('',(-1.,-1.11022302462516E-15,0.));
#1806=DIRECTION('',(1.11022302462516E-15,-1.,0.));
#1807=DIRECTION('',(0.,1.,0.));
#1808=DIRECTION('',(0.,0.,1.));
#1809=DIRECTION('',(0.,-1.,0.));
#1810=DIRECTION('',(0.,0.,-1.));
#1811=DIRECTION('',(0.,0.,1.));
#1812=DIRECTION('',(0.,1.,0.));
#1813=DIRECTION('',(0.,0.,1.));
#1814=DIRECTION('',(0.,0.,1.));
#1815=DIRECTION('',(1.,5.37764277552811E-16,0.));
#1816=DIRECTION('',(-5.3776427755281E-16,1.,0.));
#1817=DIRECTION('',(0.,-1.,0.));
#1818=DIRECTION('',(0.,0.,-1.));
#1819=CARTESIAN_POINT('',(0.,0.,0.));
#1820=CARTESIAN_POINT('',(-2.01757801946015E-15,99.9999999999999,5.5));
#1821=CARTESIAN_POINT('',(-2.01757801946015E-15,99.9999999999999,5.));
#1822=CARTESIAN_POINT('',(-2.01757801946015E-15,99.9999999999999,0.));
#1823=CARTESIAN_POINT('',(-3.02636702919022E-15,150.,5.));
#1824=CARTESIAN_POINT('',(-3.02636702919022E-15,150.,5.));
#1825=CARTESIAN_POINT('',(-3.02636702919022E-15,150.,5.));
#1826=CARTESIAN_POINT('',(-3.02636702919022E-15,150.,0.));
#1827=CARTESIAN_POINT('',(-3.02636702919022E-15,150.,0.));
#1828=CARTESIAN_POINT('',(-3.02636702919022E-15,150.,5.));
#1829=CARTESIAN_POINT('',(199.,50.,5.5));
#1830=CARTESIAN_POINT('',(199.,50.,5.));
#1831=CARTESIAN_POINT('',(199.,50.,0.));
#1832=CARTESIAN_POINT('',(199.,0.,5.));
#1833=CARTESIAN_POINT('',(199.,0.,5.));
#1834=CARTESIAN_POINT('',(199.,0.,5.));
#1835=CARTESIAN_POINT('',(199.,0.,0.));
#1836=CARTESIAN_POINT('',(199.,0.,0.));
#1837=CARTESIAN_POINT('',(199.,0.,5.));
#1838=CARTESIAN_POINT('',(20.,5.32907051820075E-15,5.));
#1839=CARTESIAN_POINT('',(20.,5.32907051820075E-15,5.));
#1840=CARTESIAN_POINT('',(20.,5.32907051820075E-15,0.));
#1841=CARTESIAN_POINT('',(0.,0.,5.));
#1842=CARTESIAN_POINT('',(3.85185988877447E-31,0.,5.));
#1843=CARTESIAN_POINT('',(3.85185988877447E-31,0.,5.));
#1844=CARTESIAN_POINT('',(3.85185988877447E-31,0.,0.));
#1845=CARTESIAN_POINT('',(0.,0.,0.));
#1846=CARTESIAN_POINT('',(0.,0.,5.));
#1847=CARTESIAN_POINT('',(0.,0.,5.));
#1848=CARTESIAN_POINT('',(40.,0.,5.));
#1849=CARTESIAN_POINT('',(89.5,5.32907051820075E-15,5.));
#1850=CARTESIAN_POINT('',(40.,0.,5.));
#1851=CARTESIAN_POINT('',(40.,0.,0.));
#1852=CARTESIAN_POINT('',(0.,0.,0.));
#1853=CARTESIAN_POINT('',(89.5,5.32907051820075E-15,0.));
#1854=CARTESIAN_POINT('',(89.5,5.32907051820075E-15,5.));
#1855=CARTESIAN_POINT('',(0.,0.,5.));
#1856=CARTESIAN_POINT('',(0.,0.,5.));
#1857=CARTESIAN_POINT('',(109.5,5.20417042793042E-15,5.));
#1858=CARTESIAN_POINT('',(159.,5.32907051820075E-15,5.));
#1859=CARTESIAN_POINT('',(109.5,5.20417042793042E-15,5.));
#1860=CARTESIAN_POINT('',(109.5,5.20417042793042E-15,0.));
#1861=CARTESIAN_POINT('',(0.,0.,0.));
#1862=CARTESIAN_POINT('',(159.,5.32907051820075E-15,0.));
#1863=CARTESIAN_POINT('',(159.,5.32907051820075E-15,5.));
#1864=CARTESIAN_POINT('',(0.,0.,5.));
#1865=CARTESIAN_POINT('',(0.,99.9999999999999,5.));
#1866=CARTESIAN_POINT('',(4.99999999999992,99.9999999999999,5.));
#1867=CARTESIAN_POINT('',(4.99999999999997,2.68882138776404E-15,5.));
#1868=CARTESIAN_POINT('',(4.99999999999995,50.,5.));
#1869=CARTESIAN_POINT('',(0.,50.,5.));
#1870=CARTESIAN_POINT('',(1.34832822896313E-15,50.,5.));
#1871=CARTESIAN_POINT('',(-3.02636702919022E-15,150.,5.));
#1872=CARTESIAN_POINT('',(20.,5.32907051820075E-15,5.));
#1873=CARTESIAN_POINT('',(20.,5.00000000000001,5.));
#1874=CARTESIAN_POINT('',(20.,5.00000000000001,5.));
#1875=CARTESIAN_POINT('',(40.,5.00000000000001,5.));
#1876=CARTESIAN_POINT('',(40.,5.00000000000001,5.));
#1877=CARTESIAN_POINT('',(89.5,5.32907051820075E-15,5.));
#1878=CARTESIAN_POINT('',(89.5,5.00000000000001,5.));
#1879=CARTESIAN_POINT('',(89.5,5.00000000000001,5.));
#1880=CARTESIAN_POINT('',(109.5,5.00000000000001,5.));
#1881=CARTESIAN_POINT('',(109.5,5.00000000000001,5.));
#1882=CARTESIAN_POINT('',(159.,5.32907051820075E-15,5.));
#1883=CARTESIAN_POINT('',(159.,5.00000000000001,5.));
#1884=CARTESIAN_POINT('',(159.,5.00000000000001,5.));
#1885=CARTESIAN_POINT('',(179.,5.00000000000001,5.));
#1886=CARTESIAN_POINT('',(179.,5.00000000000001,5.));
#1887=CARTESIAN_POINT('',(179.,5.20417042793042E-15,5.));
#1888=CARTESIAN_POINT('',(0.,0.,5.));
#1889=CARTESIAN_POINT('',(0.,50.,5.));
#1890=CARTESIAN_POINT('',(194.,50.,5.));
#1891=CARTESIAN_POINT('',(194.,2.1538326677728E-13,5.));
#1892=CARTESIAN_POINT('',(194.,100.,5.));
#1893=CARTESIAN_POINT('',(0.,100.,5.));
#1894=CARTESIAN_POINT('',(199.,100.,5.));
#1895=CARTESIAN_POINT('',(199.,0.,5.));
#1896=CARTESIAN_POINT('',(199.,150.,5.));
#1897=CARTESIAN_POINT('',(199.,150.,5.));
#1898=CARTESIAN_POINT('',(4.99999999999991,0.,5.));
#1899=CARTESIAN_POINT('',(4.99999999999991,143.5,5.));
#1900=CARTESIAN_POINT('',(4.99999999999991,138.,5.));
#1901=CARTESIAN_POINT('',(0.,143.5,5.));
#1902=CARTESIAN_POINT('',(194.,143.5,5.));
#1903=CARTESIAN_POINT('',(194.,0.,5.));
#1904=CARTESIAN_POINT('',(194.,138.,5.));
#1905=CARTESIAN_POINT('',(0.,138.,5.));
#1906=CARTESIAN_POINT('',(20.,103.,5.));
#1907=CARTESIAN_POINT('',(20.,103.,5.));
#1908=CARTESIAN_POINT('',(20.,108.,5.));
#1909=CARTESIAN_POINT('',(20.,108.,5.));
#1910=CARTESIAN_POINT('',(40.,108.,5.));
#1911=CARTESIAN_POINT('',(40.,108.,5.));
#1912=CARTESIAN_POINT('',(40.,103.,5.));
#1913=CARTESIAN_POINT('',(40.,103.,5.));
#1914=CARTESIAN_POINT('',(89.5,103.,5.));
#1915=CARTESIAN_POINT('',(89.5,103.,5.));
#1916=CARTESIAN_POINT('',(89.5,108.,5.));
#1917=CARTESIAN_POINT('',(89.5,108.,5.));
#1918=CARTESIAN_POINT('',(109.5,108.,5.));
#1919=CARTESIAN_POINT('',(109.5,108.,5.));
#1920=CARTESIAN_POINT('',(109.5,103.,5.));
#1921=CARTESIAN_POINT('',(109.5,103.,5.));
#1922=CARTESIAN_POINT('',(159.,103.,5.));
#1923=CARTESIAN_POINT('',(159.,103.,5.));
#1924=CARTESIAN_POINT('',(159.,108.,5.));
#1925=CARTESIAN_POINT('',(159.,108.,5.));
#1926=CARTESIAN_POINT('',(179.,108.,5.));
#1927=CARTESIAN_POINT('',(179.,108.,5.));
#1928=CARTESIAN_POINT('',(179.,103.,5.));
#1929=CARTESIAN_POINT('',(179.,103.,5.));
#1930=CARTESIAN_POINT('',(20.,28.,5.));
#1931=CARTESIAN_POINT('',(20.,28.,5.));
#1932=CARTESIAN_POINT('',(20.,33.,5.));
#1933=CARTESIAN_POINT('',(20.,33.,5.));
#1934=CARTESIAN_POINT('',(40.,33.,5.));
#1935=CARTESIAN_POINT('',(40.,33.,5.));
#1936=CARTESIAN_POINT('',(40.,28.,5.));
#1937=CARTESIAN_POINT('',(40.,28.,5.));
#1938=CARTESIAN_POINT('',(89.5,28.,5.));
#1939=CARTESIAN_POINT('',(89.5,28.,5.));
#1940=CARTESIAN_POINT('',(89.5,33.,5.));
#1941=CARTESIAN_POINT('',(89.5,33.,5.));
#1942=CARTESIAN_POINT('',(109.5,33.,5.));
#1943=CARTESIAN_POINT('',(109.5,33.,5.));
#1944=CARTESIAN_POINT('',(109.5,28.,5.));
#1945=CARTESIAN_POINT('',(109.5,28.,5.));
#1946=CARTESIAN_POINT('',(159.,28.,5.));
#1947=CARTESIAN_POINT('',(159.,28.,5.));
#1948=CARTESIAN_POINT('',(159.,33.,5.));
#1949=CARTESIAN_POINT('',(159.,33.,5.));
#1950=CARTESIAN_POINT('',(179.,33.,5.));
#1951=CARTESIAN_POINT('',(179.,33.,5.));
#1952=CARTESIAN_POINT('',(179.,28.,5.));
#1953=CARTESIAN_POINT('',(179.,28.,5.));
#1954=CARTESIAN_POINT('',(20.,13.,5.));
#1955=CARTESIAN_POINT('',(20.,13.,5.));
#1956=CARTESIAN_POINT('',(20.,18.,5.));
#1957=CARTESIAN_POINT('',(20.,18.,5.));
#1958=CARTESIAN_POINT('',(40.,18.,5.));
#1959=CARTESIAN_POINT('',(40.,18.,5.));
#1960=CARTESIAN_POINT('',(40.,13.,5.));
#1961=CARTESIAN_POINT('',(40.,13.,5.));
#1962=CARTESIAN_POINT('',(89.5,13.,5.));
#1963=CARTESIAN_POINT('',(89.5,13.,5.));
#1964=CARTESIAN_POINT('',(89.5,18.,5.));
#1965=CARTESIAN_POINT('',(89.5,18.,5.));
#1966=CARTESIAN_POINT('',(109.5,18.,5.));
#1967=CARTESIAN_POINT('',(109.5,18.,5.));
#1968=CARTESIAN_POINT('',(109.5,13.,5.));
#1969=CARTESIAN_POINT('',(109.5,13.,5.));
#1970=CARTESIAN_POINT('',(159.,13.,5.));
#1971=CARTESIAN_POINT('',(159.,13.,5.));
#1972=CARTESIAN_POINT('',(159.,18.,5.));
#1973=CARTESIAN_POINT('',(159.,18.,5.));
#1974=CARTESIAN_POINT('',(179.,18.,5.));
#1975=CARTESIAN_POINT('',(179.,18.,5.));
#1976=CARTESIAN_POINT('',(179.,13.,5.));
#1977=CARTESIAN_POINT('',(179.,13.,5.));
#1978=CARTESIAN_POINT('',(0.,0.,5.));
#1979=CARTESIAN_POINT('',(0.,143.5,0.));
#1980=CARTESIAN_POINT('',(194.,143.5,0.));
#1981=CARTESIAN_POINT('',(4.99999999999991,143.5,0.));
#1982=CARTESIAN_POINT('',(4.99999999999991,0.,0.));
#1983=CARTESIAN_POINT('',(4.99999999999991,138.,0.));
#1984=CARTESIAN_POINT('',(0.,138.,0.));
#1985=CARTESIAN_POINT('',(194.,138.,0.));
#1986=CARTESIAN_POINT('',(194.,0.,0.));
#1987=CARTESIAN_POINT('',(20.,108.,0.));
#1988=CARTESIAN_POINT('',(20.,108.,0.));
#1989=CARTESIAN_POINT('',(40.,108.,0.));
#1990=CARTESIAN_POINT('',(20.,103.,0.));
#1991=CARTESIAN_POINT('',(20.,103.,0.));
#1992=CARTESIAN_POINT('',(40.,103.,0.));
#1993=CARTESIAN_POINT('',(40.,103.,0.));
#1994=CARTESIAN_POINT('',(40.,108.,0.));
#1995=CARTESIAN_POINT('',(89.5,108.,0.));
#1996=CARTESIAN_POINT('',(89.5,108.,0.));
#1997=CARTESIAN_POINT('',(109.5,108.,0.));
#1998=CARTESIAN_POINT('',(89.5,103.,0.));
#1999=CARTESIAN_POINT('',(89.5,103.,0.));
#2000=CARTESIAN_POINT('',(109.5,103.,0.));
#2001=CARTESIAN_POINT('',(109.5,103.,0.));
#2002=CARTESIAN_POINT('',(109.5,108.,0.));
#2003=CARTESIAN_POINT('',(159.,108.,0.));
#2004=CARTESIAN_POINT('',(159.,108.,0.));
#2005=CARTESIAN_POINT('',(179.,108.,0.));
#2006=CARTESIAN_POINT('',(159.,103.,0.));
#2007=CARTESIAN_POINT('',(159.,103.,0.));
#2008=CARTESIAN_POINT('',(179.,103.,0.));
#2009=CARTESIAN_POINT('',(179.,103.,0.));
#2010=CARTESIAN_POINT('',(179.,108.,0.));
#2011=CARTESIAN_POINT('',(20.,33.,0.));
#2012=CARTESIAN_POINT('',(20.,33.,0.));
#2013=CARTESIAN_POINT('',(40.,33.,0.));
#2014=CARTESIAN_POINT('',(20.,28.,0.));
#2015=CARTESIAN_POINT('',(20.,28.,0.));
#2016=CARTESIAN_POINT('',(40.,28.,0.));
#2017=CARTESIAN_POINT('',(40.,28.,0.));
#2018=CARTESIAN_POINT('',(40.,33.,0.));
#2019=CARTESIAN_POINT('',(89.5,33.,0.));
#2020=CARTESIAN_POINT('',(89.5,33.,0.));
#2021=CARTESIAN_POINT('',(109.5,33.,0.));
#2022=CARTESIAN_POINT('',(89.5,28.,0.));
#2023=CARTESIAN_POINT('',(89.5,28.,0.));
#2024=CARTESIAN_POINT('',(109.5,28.,0.));
#2025=CARTESIAN_POINT('',(109.5,28.,0.));
#2026=CARTESIAN_POINT('',(109.5,33.,0.));
#2027=CARTESIAN_POINT('',(159.,33.,0.));
#2028=CARTESIAN_POINT('',(159.,33.,0.));
#2029=CARTESIAN_POINT('',(179.,33.,0.));
#2030=CARTESIAN_POINT('',(159.,28.,0.));
#2031=CARTESIAN_POINT('',(159.,28.,0.));
#2032=CARTESIAN_POINT('',(179.,28.,0.));
#2033=CARTESIAN_POINT('',(179.,28.,0.));
#2034=CARTESIAN_POINT('',(179.,33.,0.));
#2035=CARTESIAN_POINT('',(20.,18.,0.));
#2036=CARTESIAN_POINT('',(20.,18.,0.));
#2037=CARTESIAN_POINT('',(40.,18.,0.));
#2038=CARTESIAN_POINT('',(20.,13.,0.));
#2039=CARTESIAN_POINT('',(20.,13.,0.));
#2040=CARTESIAN_POINT('',(40.,13.,0.));
#2041=CARTESIAN_POINT('',(40.,13.,0.));
#2042=CARTESIAN_POINT('',(40.,18.,0.));
#2043=CARTESIAN_POINT('',(89.5,18.,0.));
#2044=CARTESIAN_POINT('',(89.5,18.,0.));
#2045=CARTESIAN_POINT('',(109.5,18.,0.));
#2046=CARTESIAN_POINT('',(89.5,13.,0.));
#2047=CARTESIAN_POINT('',(89.5,13.,0.));
#2048=CARTESIAN_POINT('',(109.5,13.,0.));
#2049=CARTESIAN_POINT('',(109.5,13.,0.));
#2050=CARTESIAN_POINT('',(109.5,18.,0.));
#2051=CARTESIAN_POINT('',(159.,18.,0.));
#2052=CARTESIAN_POINT('',(159.,18.,0.));
#2053=CARTESIAN_POINT('',(179.,18.,0.));
#2054=CARTESIAN_POINT('',(159.,13.,0.));
#2055=CARTESIAN_POINT('',(159.,13.,0.));
#2056=CARTESIAN_POINT('',(179.,13.,0.));
#2057=CARTESIAN_POINT('',(179.,13.,0.));
#2058=CARTESIAN_POINT('',(179.,18.,0.));
#2059=CARTESIAN_POINT('',(4.99999999999997,2.68882138776404E-15,0.));
#2060=CARTESIAN_POINT('',(4.99999999999995,50.,0.));
#2061=CARTESIAN_POINT('',(4.99999999999992,99.9999999999999,0.));
#2062=CARTESIAN_POINT('',(0.,99.9999999999999,0.));
#2063=CARTESIAN_POINT('',(199.,150.,0.));
#2064=CARTESIAN_POINT('',(199.,150.,0.));
#2065=CARTESIAN_POINT('',(199.,0.,0.));
#2066=CARTESIAN_POINT('',(199.,100.,0.));
#2067=CARTESIAN_POINT('',(0.,100.,0.));
#2068=CARTESIAN_POINT('',(194.,100.,0.));
#2069=CARTESIAN_POINT('',(194.,2.1538326677728E-13,0.));
#2070=CARTESIAN_POINT('',(194.,50.,0.));
#2071=CARTESIAN_POINT('',(0.,50.,0.));
#2072=CARTESIAN_POINT('',(0.,0.,0.));
#2073=CARTESIAN_POINT('',(179.,5.20417042793042E-15,0.));
#2074=CARTESIAN_POINT('',(179.,5.00000000000001,0.));
#2075=CARTESIAN_POINT('',(179.,5.00000000000001,0.));
#2076=CARTESIAN_POINT('',(159.,5.00000000000001,0.));
#2077=CARTESIAN_POINT('',(159.,5.00000000000001,0.));
#2078=CARTESIAN_POINT('',(159.,5.32907051820075E-15,0.));
#2079=CARTESIAN_POINT('',(109.5,5.00000000000001,0.));
#2080=CARTESIAN_POINT('',(109.5,5.00000000000001,0.));
#2081=CARTESIAN_POINT('',(89.5,5.00000000000001,0.));
#2082=CARTESIAN_POINT('',(89.5,5.00000000000001,0.));
#2083=CARTESIAN_POINT('',(89.5,5.32907051820075E-15,0.));
#2084=CARTESIAN_POINT('',(40.,5.00000000000001,0.));
#2085=CARTESIAN_POINT('',(40.,5.00000000000001,0.));
#2086=CARTESIAN_POINT('',(20.,5.00000000000001,0.));
#2087=CARTESIAN_POINT('',(20.,5.00000000000001,0.));
#2088=CARTESIAN_POINT('',(20.,5.32907051820075E-15,0.));
#2089=CARTESIAN_POINT('',(-3.02636702919022E-15,150.,0.));
#2090=CARTESIAN_POINT('',(1.34832822896313E-15,50.,0.));
#2091=CARTESIAN_POINT('',(0.,50.,0.));
#2092=CARTESIAN_POINT('',(0.,0.,0.));
#2093=CARTESIAN_POINT('',(1.34832822896313E-15,50.,5.5));
#2094=CARTESIAN_POINT('',(-3.02636702919022E-15,150.,5.));
#2095=CARTESIAN_POINT('',(179.,5.20417042793042E-15,5.));
#2096=CARTESIAN_POINT('',(0.,0.,5.));
#2097=CARTESIAN_POINT('',(199.,100.,5.5));
#2098=CARTESIAN_POINT('',(199.,150.,5.));
#2099=CARTESIAN_POINT('',(199.,0.,5.));
#2100=CARTESIAN_POINT('',(199.,150.,5.));
#2101=CARTESIAN_POINT('',(159.,5.00000000000001,5.));
#2102=CARTESIAN_POINT('',(159.,5.32907051820075E-15,5.));
#2103=CARTESIAN_POINT('',(179.,5.00000000000001,5.));
#2104=CARTESIAN_POINT('',(159.,5.00000000000001,5.));
#2105=CARTESIAN_POINT('',(179.,5.00000000000001,5.));
#2106=CARTESIAN_POINT('',(89.5,5.00000000000001,5.));
#2107=CARTESIAN_POINT('',(89.5,5.32907051820075E-15,5.));
#2108=CARTESIAN_POINT('',(109.5,5.00000000000001,5.));
#2109=CARTESIAN_POINT('',(89.5,5.00000000000001,5.));
#2110=CARTESIAN_POINT('',(109.5,5.00000000000001,5.));
#2111=CARTESIAN_POINT('',(20.,5.00000000000001,5.));
#2112=CARTESIAN_POINT('',(20.,5.32907051820075E-15,5.));
#2113=CARTESIAN_POINT('',(40.,5.00000000000001,5.));
#2114=CARTESIAN_POINT('',(20.,5.00000000000001,5.));
#2115=CARTESIAN_POINT('',(40.,5.00000000000001,5.));
#2116=CARTESIAN_POINT('',(159.,18.,5.));
#2117=CARTESIAN_POINT('',(159.,13.,5.));
#2118=CARTESIAN_POINT('',(159.,13.,5.));
#2119=CARTESIAN_POINT('',(179.,18.,5.));
#2120=CARTESIAN_POINT('',(159.,18.,5.));
#2121=CARTESIAN_POINT('',(179.,13.,5.));
#2122=CARTESIAN_POINT('',(179.,18.,5.));
#2123=CARTESIAN_POINT('',(179.,13.,5.));
#2124=CARTESIAN_POINT('',(89.5,18.,5.));
#2125=CARTESIAN_POINT('',(89.5,13.,5.));
#2126=CARTESIAN_POINT('',(89.5,13.,5.));
#2127=CARTESIAN_POINT('',(109.5,18.,5.));
#2128=CARTESIAN_POINT('',(89.5,18.,5.));
#2129=CARTESIAN_POINT('',(109.5,13.,5.));
#2130=CARTESIAN_POINT('',(109.5,18.,5.));
#2131=CARTESIAN_POINT('',(109.5,13.,5.));
#2132=CARTESIAN_POINT('',(20.,18.,5.));
#2133=CARTESIAN_POINT('',(20.,13.,5.));
#2134=CARTESIAN_POINT('',(20.,13.,5.));
#2135=CARTESIAN_POINT('',(40.,18.,5.));
#2136=CARTESIAN_POINT('',(20.,18.,5.));
#2137=CARTESIAN_POINT('',(40.,13.,5.));
#2138=CARTESIAN_POINT('',(40.,18.,5.));
#2139=CARTESIAN_POINT('',(40.,13.,5.));
#2140=CARTESIAN_POINT('',(159.,33.,5.));
#2141=CARTESIAN_POINT('',(159.,28.,5.));
#2142=CARTESIAN_POINT('',(159.,28.,5.));
#2143=CARTESIAN_POINT('',(179.,33.,5.));
#2144=CARTESIAN_POINT('',(159.,33.,5.));
#2145=CARTESIAN_POINT('',(179.,28.,5.));
#2146=CARTESIAN_POINT('',(179.,33.,5.));
#2147=CARTESIAN_POINT('',(179.,28.,5.));
#2148=CARTESIAN_POINT('',(89.5,33.,5.));
#2149=CARTESIAN_POINT('',(89.5,28.,5.));
#2150=CARTESIAN_POINT('',(89.5,28.,5.));
#2151=CARTESIAN_POINT('',(109.5,33.,5.));
#2152=CARTESIAN_POINT('',(89.5,33.,5.));
#2153=CARTESIAN_POINT('',(109.5,28.,5.));
#2154=CARTESIAN_POINT('',(109.5,33.,5.));
#2155=CARTESIAN_POINT('',(109.5,28.,5.));
#2156=CARTESIAN_POINT('',(20.,33.,5.));
#2157=CARTESIAN_POINT('',(20.,28.,5.));
#2158=CARTESIAN_POINT('',(20.,28.,5.));
#2159=CARTESIAN_POINT('',(40.,33.,5.));
#2160=CARTESIAN_POINT('',(20.,33.,5.));
#2161=CARTESIAN_POINT('',(40.,28.,5.));
#2162=CARTESIAN_POINT('',(40.,33.,5.));
#2163=CARTESIAN_POINT('',(40.,28.,5.));
#2164=CARTESIAN_POINT('',(159.,108.,5.));
#2165=CARTESIAN_POINT('',(159.,103.,5.));
#2166=CARTESIAN_POINT('',(159.,103.,5.));
#2167=CARTESIAN_POINT('',(179.,108.,5.));
#2168=CARTESIAN_POINT('',(159.,108.,5.));
#2169=CARTESIAN_POINT('',(179.,103.,5.));
#2170=CARTESIAN_POINT('',(179.,108.,5.));
#2171=CARTESIAN_POINT('',(179.,103.,5.));
#2172=CARTESIAN_POINT('',(89.5,108.,5.));
#2173=CARTESIAN_POINT('',(89.5,103.,5.));
#2174=CARTESIAN_POINT('',(89.5,103.,5.));
#2175=CARTESIAN_POINT('',(109.5,108.,5.));
#2176=CARTESIAN_POINT('',(89.5,108.,5.));
#2177=CARTESIAN_POINT('',(109.5,103.,5.));
#2178=CARTESIAN_POINT('',(109.5,108.,5.));
#2179=CARTESIAN_POINT('',(109.5,103.,5.));
#2180=CARTESIAN_POINT('',(20.,108.,5.));
#2181=CARTESIAN_POINT('',(20.,103.,5.));
#2182=CARTESIAN_POINT('',(20.,103.,5.));
#2183=CARTESIAN_POINT('',(40.,108.,5.));
#2184=CARTESIAN_POINT('',(20.,108.,5.));
#2185=CARTESIAN_POINT('',(40.,103.,5.));
#2186=CARTESIAN_POINT('',(40.,108.,5.));
#2187=CARTESIAN_POINT('',(40.,103.,5.));
#2188=CARTESIAN_POINT('',(4.99999999999991,138.,5.5));
#2189=CARTESIAN_POINT('',(4.99999999999991,143.5,5.5));
#2190=CARTESIAN_POINT('',(4.99999999999991,138.,5.5));
#2191=CARTESIAN_POINT('',(194.,143.5,5.5));
#2192=CARTESIAN_POINT('',(4.99999999999991,143.5,5.5));
#2193=CARTESIAN_POINT('',(194.,138.,5.5));
#2194=CARTESIAN_POINT('',(194.,143.5,5.5));
#2195=CARTESIAN_POINT('',(194.,138.,5.5));
#2196=CARTESIAN_POINT('',(194.,50.,5.5));
#2197=CARTESIAN_POINT('',(194.,100.,5.5));
#2198=CARTESIAN_POINT('',(194.,50.,5.5));
#2199=CARTESIAN_POINT('',(194.,100.,5.5));
#2200=CARTESIAN_POINT('',(199.,50.,5.5));
#2201=CARTESIAN_POINT('',(4.99999999999992,99.9999999999999,5.5));
#2202=CARTESIAN_POINT('',(-1.77635683940025E-15,99.9999999999999,5.5));
#2203=CARTESIAN_POINT('',(4.99999999999995,50.,5.5));
#2204=CARTESIAN_POINT('',(4.99999999999992,99.9999999999999,5.5));
#2205=CARTESIAN_POINT('',(4.99999999999995,50.,5.5));
#2206=MECHANICAL_DESIGN_GEOMETRIC_PRESENTATION_REPRESENTATION('',(#24),
#2207);
#2207=(
GEOMETRIC_REPRESENTATION_CONTEXT(3)
GLOBAL_UNCERTAINTY_ASSIGNED_CONTEXT((#2208))
GLOBAL_UNIT_ASSIGNED_CONTEXT((#2214,#2210,#2209))
REPRESENTATION_CONTEXT('Rack Front Wall','TOP_LEVEL_ASSEMBLY_PART')
);
#2208=UNCERTAINTY_MEASURE_WITH_UNIT(LENGTH_MEASURE(2.E-5),#2214,
'DISTANCE_ACCURACY_VALUE','Maximum Tolerance applied to model');
#2209=(
NAMED_UNIT(*)
SI_UNIT($,.STERADIAN.)
SOLID_ANGLE_UNIT()
);
#2210=(
CONVERSION_BASED_UNIT('DEGREE',#2212)
NAMED_UNIT(#2211)
PLANE_ANGLE_UNIT()
);
#2211=DIMENSIONAL_EXPONENTS(0.,0.,0.,0.,0.,0.,0.);
#2212=PLANE_ANGLE_MEASURE_WITH_UNIT(PLANE_ANGLE_MEASURE(0.0174532925),#2213);
#2213=(
NAMED_UNIT(*)
PLANE_ANGLE_UNIT()
SI_UNIT($,.RADIAN.)
);
#2214=(
LENGTH_UNIT()
NAMED_UNIT(*)
SI_UNIT(.MILLI.,.METRE.)
);
ENDSEC;
END-ISO-10303-21;
